{
	"credit": "Made with Blockbench",
	"parent": "minecraft:trident",
	"textures": {
		"4": "southernbase:block/kaiji_trident"
	},
	"elements": [
		{
			"from": [7, 3, 7],
			"to": [8, 9, 8],
			"faces": {
				"north": {"uv": [0, 0, 16, 8], "texture": "#4"},
				"east": {"uv": [0, 0, 16, 8], "texture": "#4"},
				"south": {"uv": [0, 0, 16, 8], "texture": "#4"},
				"west": {"uv": [0, 0, 16, 8], "texture": "#4"},
				"up": {"uv": [0, 0, 16, 8], "texture": "#4"},
				"down": {"uv": [0, 0, 16, 8], "texture": "#4"}
			}
		},
		{
			"from": [7, 3, 8],
			"to": [8, 9, 9],
			"faces": {
				"north": {"uv": [0, 0, 16, 8], "texture": "#4"},
				"east": {"uv": [0, 0, 16, 8], "texture": "#4"},
				"south": {"uv": [0, 0, 16, 8], "texture": "#4"},
				"west": {"uv": [0, 0, 16, 8], "texture": "#4"},
				"up": {"uv": [0, 0, 16, 8], "texture": "#4"},
				"down": {"uv": [0, 0, 16, 8], "texture": "#4"}
			}
		},
		{
			"from": [6, 3, 7],
			"to": [7, 9, 8],
			"faces": {
				"north": {"uv": [0, 0, 16, 8], "texture": "#4"},
				"east": {"uv": [0, 0, 16, 8], "texture": "#4"},
				"south": {"uv": [0, 0, 16, 8], "texture": "#4"},
				"west": {"uv": [0, 0, 16, 8], "texture": "#4"},
				"up": {"uv": [0, 0, 16, 8], "texture": "#4"},
				"down": {"uv": [0, 0, 16, 8], "texture": "#4"}
			}
		},
		{
			"from": [7, 3, 6],
			"to": [8, 9, 7],
			"faces": {
				"north": {"uv": [0, 0, 16, 8], "texture": "#4"},
				"east": {"uv": [0, 0, 16, 8], "texture": "#4"},
				"south": {"uv": [0, 0, 16, 8], "texture": "#4"},
				"west": {"uv": [0, 0, 16, 8], "texture": "#4"},
				"up": {"uv": [0, 0, 16, 8], "texture": "#4"},
				"down": {"uv": [0, 0, 16, 8], "texture": "#4"}
			}
		},
		{
			"from": [8, 3, 7],
			"to": [9, 9, 8],
			"faces": {
				"north": {"uv": [0, 0, 16, 8], "texture": "#4"},
				"east": {"uv": [0, 0, 16, 8], "texture": "#4"},
				"south": {"uv": [0, 0, 16, 8], "texture": "#4"},
				"west": {"uv": [0, 0, 16, 8], "texture": "#4"},
				"up": {"uv": [0, 0, 16, 8], "texture": "#4"},
				"down": {"uv": [0, 0, 16, 8], "texture": "#4"}
			}
		},
		{
			"from": [8, 3, 6.25],
			"to": [8.75, 9, 7],
			"faces": {
				"north": {"uv": [0, 0, 16, 8], "texture": "#4"},
				"east": {"uv": [0, 0, 16, 8], "texture": "#4"},
				"south": {"uv": [0, 0, 16, 8], "texture": "#4"},
				"west": {"uv": [0, 0, 16, 8], "texture": "#4"},
				"up": {"uv": [0, 0, 16, 8], "texture": "#4"},
				"down": {"uv": [0, 0, 16, 8], "texture": "#4"}
			}
		},
		{
			"from": [8, 3, 8],
			"to": [8.75, 9, 8.75],
			"faces": {
				"north": {"uv": [0, 0, 16, 8], "texture": "#4"},
				"east": {"uv": [0, 0, 16, 8], "texture": "#4"},
				"south": {"uv": [0, 0, 16, 8], "texture": "#4"},
				"west": {"uv": [0, 0, 16, 8], "texture": "#4"},
				"up": {"uv": [0, 0, 16, 8], "texture": "#4"},
				"down": {"uv": [0, 0, 16, 8], "texture": "#4"}
			}
		},
		{
			"from": [6.25, 3, 8],
			"to": [7, 9, 8.75],
			"faces": {
				"north": {"uv": [0, 0, 16, 8], "texture": "#4"},
				"east": {"uv": [0, 0, 16, 8], "texture": "#4"},
				"south": {"uv": [0, 0, 16, 8], "texture": "#4"},
				"west": {"uv": [0, 0, 16, 8], "texture": "#4"},
				"up": {"uv": [0, 0, 16, 8], "texture": "#4"},
				"down": {"uv": [0, 0, 16, 8], "texture": "#4"}
			}
		},
		{
			"from": [6.25, 3, 6.25],
			"to": [7, 9, 7],
			"faces": {
				"north": {"uv": [0, 0, 16, 8], "texture": "#4"},
				"east": {"uv": [0, 0, 16, 8], "texture": "#4"},
				"south": {"uv": [0, 0, 16, 8], "texture": "#4"},
				"west": {"uv": [0, 0, 16, 8], "texture": "#4"},
				"up": {"uv": [0, 0, 16, 8], "texture": "#4"},
				"down": {"uv": [0, 0, 16, 8], "texture": "#4"}
			}
		},
		{
			"from": [7, 0, 7],
			"to": [8, 1, 8],
			"faces": {
				"north": {"uv": [0, 11, 16, 13], "texture": "#4"},
				"east": {"uv": [0, 11, 16, 13], "texture": "#4"},
				"south": {"uv": [0, 11, 16, 13], "texture": "#4"},
				"west": {"uv": [0, 11, 16, 13], "texture": "#4"},
				"up": {"uv": [0, 11, 16, 13], "texture": "#4"},
				"down": {"uv": [0, 11, 16, 13], "texture": "#4"}
			}
		},
		{
			"from": [7, 0.25, 6.5],
			"to": [8, 1, 7],
			"faces": {
				"north": {"uv": [0, 11, 16, 13], "texture": "#4"},
				"east": {"uv": [0, 11, 16, 13], "texture": "#4"},
				"south": {"uv": [0, 11, 16, 13], "texture": "#4"},
				"west": {"uv": [0, 11, 16, 13], "texture": "#4"},
				"up": {"uv": [0, 11, 16, 13], "texture": "#4"},
				"down": {"uv": [0, 11, 16, 13], "texture": "#4"}
			}
		},
		{
			"from": [7, 0.25, 8],
			"to": [8, 1, 8.5],
			"faces": {
				"north": {"uv": [0, 11, 16, 13], "texture": "#4"},
				"east": {"uv": [0, 11, 16, 13], "texture": "#4"},
				"south": {"uv": [0, 11, 16, 13], "texture": "#4"},
				"west": {"uv": [0, 11, 16, 13], "texture": "#4"},
				"up": {"uv": [0, 11, 16, 13], "texture": "#4"},
				"down": {"uv": [0, 11, 16, 13], "texture": "#4"}
			}
		},
		{
			"from": [6.5, 0.25, 7],
			"to": [7, 1, 8],
			"faces": {
				"north": {"uv": [0, 11, 16, 13], "texture": "#4"},
				"east": {"uv": [0, 11, 16, 13], "texture": "#4"},
				"south": {"uv": [0, 11, 16, 13], "texture": "#4"},
				"west": {"uv": [0, 11, 16, 13], "texture": "#4"},
				"up": {"uv": [0, 11, 16, 13], "texture": "#4"},
				"down": {"uv": [0, 11, 16, 13], "texture": "#4"}
			}
		},
		{
			"from": [8, 0.25, 7],
			"to": [8.5, 1, 8],
			"faces": {
				"north": {"uv": [0, 11, 16, 13], "texture": "#4"},
				"east": {"uv": [0, 11, 16, 13], "texture": "#4"},
				"south": {"uv": [0, 11, 16, 13], "texture": "#4"},
				"west": {"uv": [0, 11, 16, 13], "texture": "#4"},
				"up": {"uv": [0, 11, 16, 13], "texture": "#4"},
				"down": {"uv": [0, 11, 16, 13], "texture": "#4"}
			}
		},
		{
			"from": [7, 1, 7],
			"to": [8, 3, 8],
			"faces": {
				"north": {"uv": [0, 8, 16, 11], "texture": "#4"},
				"east": {"uv": [0, 8, 16, 11], "texture": "#4"},
				"south": {"uv": [0, 8, 16, 11], "texture": "#4"},
				"west": {"uv": [0, 8, 16, 11], "texture": "#4"},
				"up": {"uv": [0, 8, 16, 11], "texture": "#4"},
				"down": {"uv": [0, 8, 16, 11], "texture": "#4"}
			}
		},
		{
			"from": [8, 1, 7],
			"to": [9, 3, 8],
			"faces": {
				"north": {"uv": [0, 8, 16, 11], "texture": "#4"},
				"east": {"uv": [0, 8, 16, 11], "texture": "#4"},
				"south": {"uv": [0, 8, 16, 11], "texture": "#4"},
				"west": {"uv": [0, 8, 16, 11], "texture": "#4"},
				"up": {"uv": [0, 8, 16, 11], "texture": "#4"},
				"down": {"uv": [0, 8, 16, 11], "texture": "#4"}
			}
		},
		{
			"from": [6, 1, 7],
			"to": [7, 3, 8],
			"faces": {
				"north": {"uv": [0, 8, 16, 11], "texture": "#4"},
				"east": {"uv": [0, 8, 16, 11], "texture": "#4"},
				"south": {"uv": [0, 8, 16, 11], "texture": "#4"},
				"west": {"uv": [0, 8, 16, 11], "texture": "#4"},
				"up": {"uv": [0, 8, 16, 11], "texture": "#4"},
				"down": {"uv": [0, 8, 16, 11], "texture": "#4"}
			}
		},
		{
			"from": [7, 1, 8],
			"to": [8, 3, 9],
			"faces": {
				"north": {"uv": [0, 8, 16, 11], "texture": "#4"},
				"east": {"uv": [0, 8, 16, 11], "texture": "#4"},
				"south": {"uv": [0, 8, 16, 11], "texture": "#4"},
				"west": {"uv": [0, 8, 16, 11], "texture": "#4"},
				"up": {"uv": [0, 8, 16, 11], "texture": "#4"},
				"down": {"uv": [0, 8, 16, 11], "texture": "#4"}
			}
		},
		{
			"from": [7, 1, 6],
			"to": [8, 3, 7],
			"faces": {
				"north": {"uv": [0, 8, 16, 11], "texture": "#4"},
				"east": {"uv": [0, 8, 16, 11], "texture": "#4"},
				"south": {"uv": [0, 8, 16, 11], "texture": "#4"},
				"west": {"uv": [0, 8, 16, 11], "texture": "#4"},
				"up": {"uv": [0, 8, 16, 11], "texture": "#4"},
				"down": {"uv": [0, 8, 16, 11], "texture": "#4"}
			}
		},
		{
			"from": [8, 1, 6.25],
			"to": [8.75, 3, 7],
			"faces": {
				"north": {"uv": [0, 8, 16, 11], "texture": "#4"},
				"east": {"uv": [0, 8, 16, 11], "texture": "#4"},
				"south": {"uv": [0, 8, 16, 11], "texture": "#4"},
				"west": {"uv": [0, 8, 16, 11], "texture": "#4"},
				"up": {"uv": [0, 8, 16, 11], "texture": "#4"},
				"down": {"uv": [0, 8, 16, 11], "texture": "#4"}
			}
		},
		{
			"from": [8, 1, 8],
			"to": [8.75, 3, 8.75],
			"faces": {
				"north": {"uv": [0, 8, 16, 11], "texture": "#4"},
				"east": {"uv": [0, 8, 16, 11], "texture": "#4"},
				"south": {"uv": [0, 8, 16, 11], "texture": "#4"},
				"west": {"uv": [0, 8, 16, 11], "texture": "#4"},
				"up": {"uv": [0, 8, 16, 11], "texture": "#4"},
				"down": {"uv": [0, 8, 16, 11], "texture": "#4"}
			}
		},
		{
			"from": [6.25, 1, 8],
			"to": [7, 3, 8.75],
			"faces": {
				"north": {"uv": [0, 8, 16, 11], "texture": "#4"},
				"east": {"uv": [0, 8, 16, 11], "texture": "#4"},
				"south": {"uv": [0, 8, 16, 11], "texture": "#4"},
				"west": {"uv": [0, 8, 16, 11], "texture": "#4"},
				"up": {"uv": [0, 8, 16, 11], "texture": "#4"},
				"down": {"uv": [0, 8, 16, 11], "texture": "#4"}
			}
		},
		{
			"from": [6.25, 1, 6.25],
			"to": [7, 3, 7],
			"faces": {
				"north": {"uv": [0, 8, 16, 11], "texture": "#4"},
				"east": {"uv": [0, 8, 16, 11], "texture": "#4"},
				"south": {"uv": [0, 8, 16, 11], "texture": "#4"},
				"west": {"uv": [0, 8, 16, 11], "texture": "#4"},
				"up": {"uv": [0, 8, 16, 11], "texture": "#4"},
				"down": {"uv": [0, 8, 16, 11], "texture": "#4"}
			}
		},
		{
			"from": [7, 9, 7],
			"to": [8, 10, 8],
			"faces": {
				"north": {"uv": [0, 0, 16, 8], "texture": "#4"},
				"east": {"uv": [0, 0, 16, 8], "texture": "#4"},
				"south": {"uv": [0, 0, 16, 8], "texture": "#4"},
				"west": {"uv": [0, 0, 16, 8], "texture": "#4"},
				"up": {"uv": [0, 0, 16, 8], "texture": "#4"},
				"down": {"uv": [0, 0, 16, 8], "texture": "#4"}
			}
		},
		{
			"from": [8, 9, 7],
			"to": [9, 10, 8],
			"faces": {
				"north": {"uv": [0, 0, 16, 8], "texture": "#4"},
				"east": {"uv": [0, 0, 16, 8], "texture": "#4"},
				"south": {"uv": [0, 0, 16, 8], "texture": "#4"},
				"west": {"uv": [0, 0, 16, 8], "texture": "#4"},
				"up": {"uv": [0, 0, 16, 8], "texture": "#4"},
				"down": {"uv": [0, 0, 16, 8], "texture": "#4"}
			}
		},
		{
			"from": [6, 16, 10.25],
			"to": [9, 17, 11],
			"faces": {
				"north": {"uv": [0, 0, 16, 8], "texture": "#4"},
				"east": {"uv": [0, 0, 16, 8], "texture": "#4"},
				"south": {"uv": [0, 0, 16, 8], "texture": "#4"},
				"west": {"uv": [0, 0, 16, 8], "texture": "#4"},
				"up": {"uv": [0, 0, 16, 8], "texture": "#4"},
				"down": {"uv": [0, 0, 16, 8], "texture": "#4"}
			}
		},
		{
			"from": [6, 16, 4],
			"to": [9, 17, 4.75],
			"faces": {
				"north": {"uv": [0, 0, 16, 8], "texture": "#4"},
				"east": {"uv": [0, 0, 16, 8], "texture": "#4"},
				"south": {"uv": [0, 0, 16, 8], "texture": "#4"},
				"west": {"uv": [0, 0, 16, 8], "texture": "#4"},
				"up": {"uv": [0, 0, 16, 8], "texture": "#4"},
				"down": {"uv": [0, 0, 16, 8], "texture": "#4"}
			}
		},
		{
			"from": [8, 9, 8],
			"to": [9, 10, 9],
			"faces": {
				"north": {"uv": [0, 0, 16, 8], "texture": "#4"},
				"east": {"uv": [0, 0, 16, 8], "texture": "#4"},
				"south": {"uv": [0, 0, 16, 8], "texture": "#4"},
				"west": {"uv": [0, 0, 16, 8], "texture": "#4"},
				"up": {"uv": [0, 0, 16, 8], "texture": "#4"},
				"down": {"uv": [0, 0, 16, 8], "texture": "#4"}
			}
		},
		{
			"from": [7, 15, 5],
			"to": [9, 16, 10],
			"faces": {
				"north": {"uv": [0, 0, 16, 8], "texture": "#4"},
				"east": {"uv": [0, 0, 16, 8], "texture": "#4"},
				"south": {"uv": [0, 0, 16, 8], "texture": "#4"},
				"west": {"uv": [0, 0, 16, 8], "texture": "#4"},
				"up": {"uv": [0, 0, 16, 8], "texture": "#4"},
				"down": {"uv": [0, 0, 16, 8], "texture": "#4"}
			}
		},
		{
			"from": [7, 9, 8],
			"to": [8, 10, 9],
			"faces": {
				"north": {"uv": [0, 0, 16, 8], "texture": "#4"},
				"east": {"uv": [0, 0, 16, 8], "texture": "#4"},
				"south": {"uv": [0, 0, 16, 8], "texture": "#4"},
				"west": {"uv": [0, 0, 16, 8], "texture": "#4"},
				"up": {"uv": [0, 0, 16, 8], "texture": "#4"},
				"down": {"uv": [0, 0, 16, 8], "texture": "#4"}
			}
		},
		{
			"from": [6, 9, 8],
			"to": [7, 10, 9],
			"faces": {
				"north": {"uv": [0, 0, 16, 8], "texture": "#4"},
				"east": {"uv": [0, 0, 16, 8], "texture": "#4"},
				"south": {"uv": [0, 0, 16, 8], "texture": "#4"},
				"west": {"uv": [0, 0, 16, 8], "texture": "#4"},
				"up": {"uv": [0, 0, 16, 8], "texture": "#4"},
				"down": {"uv": [0, 0, 16, 8], "texture": "#4"}
			}
		},
		{
			"from": [6, 9, 7],
			"to": [7, 10, 8],
			"faces": {
				"north": {"uv": [0, 0, 16, 8], "texture": "#4"},
				"east": {"uv": [0, 0, 16, 8], "texture": "#4"},
				"south": {"uv": [0, 0, 16, 8], "texture": "#4"},
				"west": {"uv": [0, 0, 16, 8], "texture": "#4"},
				"up": {"uv": [0, 0, 16, 8], "texture": "#4"},
				"down": {"uv": [0, 0, 16, 8], "texture": "#4"}
			}
		},
		{
			"from": [6, 9, 6],
			"to": [7, 10, 7],
			"faces": {
				"north": {"uv": [0, 0, 16, 8], "texture": "#4"},
				"east": {"uv": [0, 0, 16, 8], "texture": "#4"},
				"south": {"uv": [0, 0, 16, 8], "texture": "#4"},
				"west": {"uv": [0, 0, 16, 8], "texture": "#4"},
				"up": {"uv": [0, 0, 16, 8], "texture": "#4"},
				"down": {"uv": [0, 0, 16, 8], "texture": "#4"}
			}
		},
		{
			"from": [6, 10, 4],
			"to": [7, 16, 11],
			"faces": {
				"north": {"uv": [0, 0, 16, 8], "texture": "#4"},
				"east": {"uv": [0, 0, 16, 8], "texture": "#4"},
				"south": {"uv": [0, 0, 16, 8], "texture": "#4"},
				"west": {"uv": [0, 0, 16, 8], "texture": "#4"},
				"up": {"uv": [0, 0, 16, 8], "texture": "#4"},
				"down": {"uv": [0, 0, 16, 8], "texture": "#4"}
			}
		},
		{
			"from": [7, 9, 6],
			"to": [8, 10, 7],
			"faces": {
				"north": {"uv": [0, 0, 16, 8], "texture": "#4"},
				"east": {"uv": [0, 0, 16, 8], "texture": "#4"},
				"south": {"uv": [0, 0, 16, 8], "texture": "#4"},
				"west": {"uv": [0, 0, 16, 8], "texture": "#4"},
				"up": {"uv": [0, 0, 16, 8], "texture": "#4"},
				"down": {"uv": [0, 0, 16, 8], "texture": "#4"}
			}
		},
		{
			"from": [8, 9, 6],
			"to": [9, 10, 7],
			"faces": {
				"north": {"uv": [0, 0, 16, 8], "texture": "#4"},
				"east": {"uv": [0, 0, 16, 8], "texture": "#4"},
				"south": {"uv": [0, 0, 16, 8], "texture": "#4"},
				"west": {"uv": [0, 0, 16, 8], "texture": "#4"},
				"up": {"uv": [0, 0, 16, 8], "texture": "#4"},
				"down": {"uv": [0, 0, 16, 8], "texture": "#4"}
			}
		},
		{
			"from": [7, 10, 4],
			"to": [9, 16, 5],
			"faces": {
				"north": {"uv": [0, 0, 16, 8], "texture": "#4"},
				"east": {"uv": [0, 0, 16, 8], "texture": "#4"},
				"south": {"uv": [0, 0, 16, 8], "texture": "#4"},
				"west": {"uv": [0, 0, 16, 8], "texture": "#4"},
				"up": {"uv": [0, 0, 16, 8], "texture": "#4"},
				"down": {"uv": [0, 0, 16, 8], "texture": "#4"}
			}
		},
		{
			"from": [7, 10, 10],
			"to": [9, 16, 11],
			"faces": {
				"north": {"uv": [0, 0, 16, 8], "texture": "#4"},
				"east": {"uv": [0, 0, 16, 8], "texture": "#4"},
				"south": {"uv": [0, 0, 16, 8], "texture": "#4"},
				"west": {"uv": [0, 0, 16, 8], "texture": "#4"},
				"up": {"uv": [0, 0, 16, 8], "texture": "#4"},
				"down": {"uv": [0, 0, 16, 8], "texture": "#4"}
			}
		},
		{
			"from": [6, 8, 4],
			"to": [9, 9, 5],
			"faces": {
				"north": {"uv": [0, 0, 16, 8], "texture": "#4"},
				"east": {"uv": [0, 0, 16, 8], "texture": "#4"},
				"south": {"uv": [0, 0, 16, 8], "texture": "#4"},
				"west": {"uv": [0, 0, 16, 8], "texture": "#4"},
				"up": {"uv": [0, 0, 16, 8], "texture": "#4"},
				"down": {"uv": [0, 0, 16, 8], "texture": "#4"}
			}
		},
		{
			"from": [6, 8, 10],
			"to": [9, 9, 11],
			"faces": {
				"north": {"uv": [0, 0, 16, 8], "texture": "#4"},
				"east": {"uv": [0, 0, 16, 8], "texture": "#4"},
				"south": {"uv": [0, 0, 16, 8], "texture": "#4"},
				"west": {"uv": [0, 0, 16, 8], "texture": "#4"},
				"up": {"uv": [0, 0, 16, 8], "texture": "#4"},
				"down": {"uv": [0, 0, 16, 8], "texture": "#4"}
			}
		},
		{
			"from": [6, 8.25, 9.25],
			"to": [9, 9, 10],
			"faces": {
				"north": {"uv": [0, 0, 16, 8], "texture": "#4"},
				"east": {"uv": [0, 0, 16, 8], "texture": "#4"},
				"south": {"uv": [0, 0, 16, 8], "texture": "#4"},
				"west": {"uv": [0, 0, 16, 8], "texture": "#4"},
				"up": {"uv": [0, 0, 16, 8], "texture": "#4"},
				"down": {"uv": [0, 0, 16, 8], "texture": "#4"}
			}
		},
		{
			"from": [6, 8.25, 5],
			"to": [9, 9, 5.75],
			"faces": {
				"north": {"uv": [0, 0, 16, 8], "texture": "#4"},
				"east": {"uv": [0, 0, 16, 8], "texture": "#4"},
				"south": {"uv": [0, 0, 16, 8], "texture": "#4"},
				"west": {"uv": [0, 0, 16, 8], "texture": "#4"},
				"up": {"uv": [0, 0, 16, 8], "texture": "#4"},
				"down": {"uv": [0, 0, 16, 8], "texture": "#4"}
			}
		},
		{
			"from": [6, 9, 4],
			"to": [9, 10, 6],
			"faces": {
				"north": {"uv": [0, 0, 16, 8], "texture": "#4"},
				"east": {"uv": [0, 0, 16, 8], "texture": "#4"},
				"south": {"uv": [0, 0, 16, 8], "texture": "#4"},
				"west": {"uv": [0, 0, 16, 8], "texture": "#4"},
				"up": {"uv": [0, 0, 16, 8], "texture": "#4"},
				"down": {"uv": [0, 0, 16, 8], "texture": "#4"}
			}
		},
		{
			"from": [6, 9, 9],
			"to": [9, 10, 11],
			"faces": {
				"north": {"uv": [0, 0, 16, 8], "texture": "#4"},
				"east": {"uv": [0, 0, 16, 8], "texture": "#4"},
				"south": {"uv": [0, 0, 16, 8], "texture": "#4"},
				"west": {"uv": [0, 0, 16, 8], "texture": "#4"},
				"up": {"uv": [0, 0, 16, 8], "texture": "#4"},
				"down": {"uv": [0, 0, 16, 8], "texture": "#4"}
			}
		}
	],
	"display": {
		"thirdperson_righthand": {
			"translation": [0, 0.25, 1.5],
			"scale": [0.5, 0.5, 0.5]
		},
		"thirdperson_lefthand": {
			"rotation": [0, -180, 0],
			"translation": [0, 0.25, 1.5],
			"scale": [0.5, 0.5, 0.5]
		},
		"firstperson_righthand": {
			"rotation": [0, 0, 14],
			"translation": [3.25, 1.5, 0],
			"scale": [0.5, 0.5, 0.5]
		},
		"firstperson_lefthand": {
			"rotation": [0, 0, 14],
			"translation": [3.25, 1.5, 0],
			"scale": [0.5, 0.5, 0.5]
		},
		"ground": {
			"rotation": [0, 0, 90]
		},
		"gui": {
			"rotation": [0, -90, 0],
			"translation": [0, -1, 0],
			"scale": [0.75, 0.75, 0.75]
		},
		"fixed": {
			"rotation": [0, 90, 0],
			"translation": [0, -1.25, -1.75]
		}
	},
	"groups": [
		{
			"name": "hilt",
			"origin": [0, 0, 0],
			"children": [0, 1, 2, 3, 4, 5, 6, 7, 8]
		},
		{
			"name": "tip",
			"origin": [0, 0, 0],
			"children": [9, 10, 11, 12, 13, 14, 15, 16, 17, 18, 19, 20, 21, 22]
		},
		{
			"name": "holder",
			"origin": [8, 8, 8],
			"children": [23, 24, 25, 26, 27, 28, 29, 30, 31, 32, 33, 34, 35, 36, 37, 38, 39, 40, 41, 42, 43]
		}
	]
}