{
	"credit": "Made with Blockbench",
	"parent": "minecraft:trident",
	"textures": {
		"0": "southernbase:block/kaiji_trident",
		"1": "southernbase:block/ocean_history",
		"particle": "block/texture"
	},
	"elements": [
		{
			"from": [7.75, 0.75, 7.75],
			"to": [8, 2.25, 8],
			"rotation": {"angle": 0, "axis": "y", "origin": [6, 0, 6]},
			"faces": {
				"north": {"uv": [0, 0, 16, 8], "texture": "#0"},
				"east": {"uv": [0, 0, 16, 8], "texture": "#0"},
				"south": {"uv": [0, 0, 16, 8], "texture": "#0"},
				"west": {"uv": [0, 0, 16, 8], "texture": "#0"},
				"up": {"uv": [0, 0, 16, 8], "texture": "#0"},
				"down": {"uv": [0, 0, 16, 8], "texture": "#0"}
			}
		},
		{
			"from": [7.75, 0.75, 8],
			"to": [8, 2.25, 8.25],
			"rotation": {"angle": 0, "axis": "y", "origin": [6, 0, 6]},
			"faces": {
				"north": {"uv": [0, 0, 16, 8], "texture": "#0"},
				"east": {"uv": [0, 0, 16, 8], "texture": "#0"},
				"south": {"uv": [0, 0, 16, 8], "texture": "#0"},
				"west": {"uv": [0, 0, 16, 8], "texture": "#0"},
				"up": {"uv": [0, 0, 16, 8], "texture": "#0"},
				"down": {"uv": [0, 0, 16, 8], "texture": "#0"}
			}
		},
		{
			"from": [7.5, 0.75, 7.75],
			"to": [7.75, 2.25, 8],
			"rotation": {"angle": 0, "axis": "y", "origin": [6, 0, 6]},
			"faces": {
				"north": {"uv": [0, 0, 16, 8], "texture": "#0"},
				"east": {"uv": [0, 0, 16, 8], "texture": "#0"},
				"south": {"uv": [0, 0, 16, 8], "texture": "#0"},
				"west": {"uv": [0, 0, 16, 8], "texture": "#0"},
				"up": {"uv": [0, 0, 16, 8], "texture": "#0"},
				"down": {"uv": [0, 0, 16, 8], "texture": "#0"}
			}
		},
		{
			"from": [7.75, 0.75, 7.5],
			"to": [8, 2.25, 7.75],
			"rotation": {"angle": 0, "axis": "y", "origin": [6, 0, 6]},
			"faces": {
				"north": {"uv": [0, 0, 16, 8], "texture": "#0"},
				"east": {"uv": [0, 0, 16, 8], "texture": "#0"},
				"south": {"uv": [0, 0, 16, 8], "texture": "#0"},
				"west": {"uv": [0, 0, 16, 8], "texture": "#0"},
				"up": {"uv": [0, 0, 16, 8], "texture": "#0"},
				"down": {"uv": [0, 0, 16, 8], "texture": "#0"}
			}
		},
		{
			"from": [8, 0.75, 7.75],
			"to": [8.25, 2.25, 8],
			"rotation": {"angle": 0, "axis": "y", "origin": [6, 0, 6]},
			"faces": {
				"north": {"uv": [0, 0, 16, 8], "texture": "#0"},
				"east": {"uv": [0, 0, 16, 8], "texture": "#0"},
				"south": {"uv": [0, 0, 16, 8], "texture": "#0"},
				"west": {"uv": [0, 0, 16, 8], "texture": "#0"},
				"up": {"uv": [0, 0, 16, 8], "texture": "#0"},
				"down": {"uv": [0, 0, 16, 8], "texture": "#0"}
			}
		},
		{
			"from": [8, 0.75, 7.5625],
			"to": [8.1875, 2.25, 7.75],
			"rotation": {"angle": 0, "axis": "y", "origin": [6, 0, 6]},
			"faces": {
				"north": {"uv": [0, 0, 16, 8], "texture": "#0"},
				"east": {"uv": [0, 0, 16, 8], "texture": "#0"},
				"south": {"uv": [0, 0, 16, 8], "texture": "#0"},
				"west": {"uv": [0, 0, 16, 8], "texture": "#0"},
				"up": {"uv": [0, 0, 16, 8], "texture": "#0"},
				"down": {"uv": [0, 0, 16, 8], "texture": "#0"}
			}
		},
		{
			"from": [8, 0.75, 8],
			"to": [8.1875, 2.25, 8.1875],
			"rotation": {"angle": 0, "axis": "y", "origin": [6, 0, 6]},
			"faces": {
				"north": {"uv": [0, 0, 16, 8], "texture": "#0"},
				"east": {"uv": [0, 0, 16, 8], "texture": "#0"},
				"south": {"uv": [0, 0, 16, 8], "texture": "#0"},
				"west": {"uv": [0, 0, 16, 8], "texture": "#0"},
				"up": {"uv": [0, 0, 16, 8], "texture": "#0"},
				"down": {"uv": [0, 0, 16, 8], "texture": "#0"}
			}
		},
		{
			"from": [7.5625, 0.75, 8],
			"to": [7.75, 2.25, 8.1875],
			"rotation": {"angle": 0, "axis": "y", "origin": [6, 0, 6]},
			"faces": {
				"north": {"uv": [0, 0, 16, 8], "texture": "#0"},
				"east": {"uv": [0, 0, 16, 8], "texture": "#0"},
				"south": {"uv": [0, 0, 16, 8], "texture": "#0"},
				"west": {"uv": [0, 0, 16, 8], "texture": "#0"},
				"up": {"uv": [0, 0, 16, 8], "texture": "#0"},
				"down": {"uv": [0, 0, 16, 8], "texture": "#0"}
			}
		},
		{
			"from": [7.5625, 0.75, 7.5625],
			"to": [7.75, 2.25, 7.75],
			"rotation": {"angle": 0, "axis": "y", "origin": [6, 0, 6]},
			"faces": {
				"north": {"uv": [0, 0, 16, 8], "texture": "#0"},
				"east": {"uv": [0, 0, 16, 8], "texture": "#0"},
				"south": {"uv": [0, 0, 16, 8], "texture": "#0"},
				"west": {"uv": [0, 0, 16, 8], "texture": "#0"},
				"up": {"uv": [0, 0, 16, 8], "texture": "#0"},
				"down": {"uv": [0, 0, 16, 8], "texture": "#0"}
			}
		},
		{
			"from": [7.75, 0, 7.75],
			"to": [8, 0.25, 8],
			"rotation": {"angle": 0, "axis": "y", "origin": [6, 0, 6]},
			"faces": {
				"north": {"uv": [0, 11, 16, 13], "texture": "#0"},
				"east": {"uv": [0, 11, 16, 13], "texture": "#0"},
				"south": {"uv": [0, 11, 16, 13], "texture": "#0"},
				"west": {"uv": [0, 11, 16, 13], "texture": "#0"},
				"up": {"uv": [0, 11, 16, 13], "texture": "#0"},
				"down": {"uv": [0, 11, 16, 13], "texture": "#0"}
			}
		},
		{
			"from": [7.75, 0.0625, 7.625],
			"to": [8, 0.25, 7.75],
			"rotation": {"angle": 0, "axis": "y", "origin": [6, 0, 6]},
			"faces": {
				"north": {"uv": [0, 11, 16, 13], "texture": "#0"},
				"east": {"uv": [0, 11, 16, 13], "texture": "#0"},
				"south": {"uv": [0, 11, 16, 13], "texture": "#0"},
				"west": {"uv": [0, 11, 16, 13], "texture": "#0"},
				"up": {"uv": [0, 11, 16, 13], "texture": "#0"},
				"down": {"uv": [0, 11, 16, 13], "texture": "#0"}
			}
		},
		{
			"from": [7.75, 0.0625, 8],
			"to": [8, 0.25, 8.125],
			"rotation": {"angle": 0, "axis": "y", "origin": [6, 0, 6]},
			"faces": {
				"north": {"uv": [0, 11, 16, 13], "texture": "#0"},
				"east": {"uv": [0, 11, 16, 13], "texture": "#0"},
				"south": {"uv": [0, 11, 16, 13], "texture": "#0"},
				"west": {"uv": [0, 11, 16, 13], "texture": "#0"},
				"up": {"uv": [0, 11, 16, 13], "texture": "#0"},
				"down": {"uv": [0, 11, 16, 13], "texture": "#0"}
			}
		},
		{
			"from": [7.625, 0.0625, 7.75],
			"to": [7.75, 0.25, 8],
			"rotation": {"angle": 0, "axis": "y", "origin": [6, 0, 6]},
			"faces": {
				"north": {"uv": [0, 11, 16, 13], "texture": "#0"},
				"east": {"uv": [0, 11, 16, 13], "texture": "#0"},
				"south": {"uv": [0, 11, 16, 13], "texture": "#0"},
				"west": {"uv": [0, 11, 16, 13], "texture": "#0"},
				"up": {"uv": [0, 11, 16, 13], "texture": "#0"},
				"down": {"uv": [0, 11, 16, 13], "texture": "#0"}
			}
		},
		{
			"from": [8, 0.0625, 7.75],
			"to": [8.125, 0.25, 8],
			"rotation": {"angle": 0, "axis": "y", "origin": [6, 0, 6]},
			"faces": {
				"north": {"uv": [0, 11, 16, 13], "texture": "#0"},
				"east": {"uv": [0, 11, 16, 13], "texture": "#0"},
				"south": {"uv": [0, 11, 16, 13], "texture": "#0"},
				"west": {"uv": [0, 11, 16, 13], "texture": "#0"},
				"up": {"uv": [0, 11, 16, 13], "texture": "#0"},
				"down": {"uv": [0, 11, 16, 13], "texture": "#0"}
			}
		},
		{
			"from": [7.75, 0.25, 7.75],
			"to": [8, 0.75, 8],
			"rotation": {"angle": 0, "axis": "y", "origin": [6, 0, 6]},
			"faces": {
				"north": {"uv": [0, 8, 16, 11], "texture": "#0"},
				"east": {"uv": [0, 8, 16, 11], "texture": "#0"},
				"south": {"uv": [0, 8, 16, 11], "texture": "#0"},
				"west": {"uv": [0, 8, 16, 11], "texture": "#0"},
				"up": {"uv": [0, 8, 16, 11], "texture": "#0"},
				"down": {"uv": [0, 8, 16, 11], "texture": "#0"}
			}
		},
		{
			"from": [8, 0.25, 7.75],
			"to": [8.25, 0.75, 8],
			"rotation": {"angle": 0, "axis": "y", "origin": [6, 0, 6]},
			"faces": {
				"north": {"uv": [0, 8, 16, 11], "texture": "#0"},
				"east": {"uv": [0, 8, 16, 11], "texture": "#0"},
				"south": {"uv": [0, 8, 16, 11], "texture": "#0"},
				"west": {"uv": [0, 8, 16, 11], "texture": "#0"},
				"up": {"uv": [0, 8, 16, 11], "texture": "#0"},
				"down": {"uv": [0, 8, 16, 11], "texture": "#0"}
			}
		},
		{
			"from": [7.5, 0.25, 7.75],
			"to": [7.75, 0.75, 8],
			"rotation": {"angle": 0, "axis": "y", "origin": [6, 0, 6]},
			"faces": {
				"north": {"uv": [0, 8, 16, 11], "texture": "#0"},
				"east": {"uv": [0, 8, 16, 11], "texture": "#0"},
				"south": {"uv": [0, 8, 16, 11], "texture": "#0"},
				"west": {"uv": [0, 8, 16, 11], "texture": "#0"},
				"up": {"uv": [0, 8, 16, 11], "texture": "#0"},
				"down": {"uv": [0, 8, 16, 11], "texture": "#0"}
			}
		},
		{
			"from": [7.75, 0.25, 8],
			"to": [8, 0.75, 8.25],
			"rotation": {"angle": 0, "axis": "y", "origin": [6, 0, 6]},
			"faces": {
				"north": {"uv": [0, 8, 16, 11], "texture": "#0"},
				"east": {"uv": [0, 8, 16, 11], "texture": "#0"},
				"south": {"uv": [0, 8, 16, 11], "texture": "#0"},
				"west": {"uv": [0, 8, 16, 11], "texture": "#0"},
				"up": {"uv": [0, 8, 16, 11], "texture": "#0"},
				"down": {"uv": [0, 8, 16, 11], "texture": "#0"}
			}
		},
		{
			"from": [7.75, 0.25, 7.5],
			"to": [8, 0.75, 7.75],
			"rotation": {"angle": 0, "axis": "y", "origin": [6, 0, 6]},
			"faces": {
				"north": {"uv": [0, 8, 16, 11], "texture": "#0"},
				"east": {"uv": [0, 8, 16, 11], "texture": "#0"},
				"south": {"uv": [0, 8, 16, 11], "texture": "#0"},
				"west": {"uv": [0, 8, 16, 11], "texture": "#0"},
				"up": {"uv": [0, 8, 16, 11], "texture": "#0"},
				"down": {"uv": [0, 8, 16, 11], "texture": "#0"}
			}
		},
		{
			"from": [8, 0.25, 7.5625],
			"to": [8.1875, 0.75, 7.75],
			"rotation": {"angle": 0, "axis": "y", "origin": [6, 0, 6]},
			"faces": {
				"north": {"uv": [0, 8, 16, 11], "texture": "#0"},
				"east": {"uv": [0, 8, 16, 11], "texture": "#0"},
				"south": {"uv": [0, 8, 16, 11], "texture": "#0"},
				"west": {"uv": [0, 8, 16, 11], "texture": "#0"},
				"up": {"uv": [0, 8, 16, 11], "texture": "#0"},
				"down": {"uv": [0, 8, 16, 11], "texture": "#0"}
			}
		},
		{
			"from": [8, 0.25, 8],
			"to": [8.1875, 0.75, 8.1875],
			"rotation": {"angle": 0, "axis": "y", "origin": [6, 0, 6]},
			"faces": {
				"north": {"uv": [0, 8, 16, 11], "texture": "#0"},
				"east": {"uv": [0, 8, 16, 11], "texture": "#0"},
				"south": {"uv": [0, 8, 16, 11], "texture": "#0"},
				"west": {"uv": [0, 8, 16, 11], "texture": "#0"},
				"up": {"uv": [0, 8, 16, 11], "texture": "#0"},
				"down": {"uv": [0, 8, 16, 11], "texture": "#0"}
			}
		},
		{
			"from": [7.5625, 0.25, 8],
			"to": [7.75, 0.75, 8.1875],
			"rotation": {"angle": 0, "axis": "y", "origin": [6, 0, 6]},
			"faces": {
				"north": {"uv": [0, 8, 16, 11], "texture": "#0"},
				"east": {"uv": [0, 8, 16, 11], "texture": "#0"},
				"south": {"uv": [0, 8, 16, 11], "texture": "#0"},
				"west": {"uv": [0, 8, 16, 11], "texture": "#0"},
				"up": {"uv": [0, 8, 16, 11], "texture": "#0"},
				"down": {"uv": [0, 8, 16, 11], "texture": "#0"}
			}
		},
		{
			"from": [7.5625, 0.25, 7.5625],
			"to": [7.75, 0.75, 7.75],
			"rotation": {"angle": 0, "axis": "y", "origin": [6, 0, 6]},
			"faces": {
				"north": {"uv": [0, 8, 16, 11], "texture": "#0"},
				"east": {"uv": [0, 8, 16, 11], "texture": "#0"},
				"south": {"uv": [0, 8, 16, 11], "texture": "#0"},
				"west": {"uv": [0, 8, 16, 11], "texture": "#0"},
				"up": {"uv": [0, 8, 16, 11], "texture": "#0"},
				"down": {"uv": [0, 8, 16, 11], "texture": "#0"}
			}
		},
		{
			"from": [7.75, 2.25, 7.75],
			"to": [8, 2.5, 8],
			"rotation": {"angle": 0, "axis": "y", "origin": [6, 0, 6]},
			"faces": {
				"north": {"uv": [0, 0, 16, 8], "texture": "#0"},
				"east": {"uv": [0, 0, 16, 8], "texture": "#0"},
				"south": {"uv": [0, 0, 16, 8], "texture": "#0"},
				"west": {"uv": [0, 0, 16, 8], "texture": "#0"},
				"up": {"uv": [0, 0, 16, 8], "texture": "#0"},
				"down": {"uv": [0, 0, 16, 8], "texture": "#0"}
			}
		},
		{
			"from": [8, 2.25, 7.75],
			"to": [8.25, 2.5, 8],
			"rotation": {"angle": 0, "axis": "y", "origin": [6, 0, 6]},
			"faces": {
				"north": {"uv": [0, 0, 16, 8], "texture": "#0"},
				"east": {"uv": [0, 0, 16, 8], "texture": "#0"},
				"south": {"uv": [0, 0, 16, 8], "texture": "#0"},
				"west": {"uv": [0, 0, 16, 8], "texture": "#0"},
				"up": {"uv": [0, 0, 16, 8], "texture": "#0"},
				"down": {"uv": [0, 0, 16, 8], "texture": "#0"}
			}
		},
		{
			"from": [7.5, 4, 8.5625],
			"to": [8.25, 4.25, 8.75],
			"rotation": {"angle": 0, "axis": "y", "origin": [6, 0, 6]},
			"faces": {
				"north": {"uv": [0, 0, 16, 8], "texture": "#0"},
				"east": {"uv": [0, 0, 16, 8], "texture": "#0"},
				"south": {"uv": [0, 0, 16, 8], "texture": "#0"},
				"west": {"uv": [0, 0, 16, 8], "texture": "#0"},
				"up": {"uv": [0, 0, 16, 8], "texture": "#0"},
				"down": {"uv": [0, 0, 16, 8], "texture": "#0"}
			}
		},
		{
			"from": [7.5, 4, 7],
			"to": [8.25, 4.25, 7.1875],
			"rotation": {"angle": 0, "axis": "y", "origin": [6, 0, 6]},
			"faces": {
				"north": {"uv": [0, 0, 16, 8], "texture": "#0"},
				"east": {"uv": [0, 0, 16, 8], "texture": "#0"},
				"south": {"uv": [0, 0, 16, 8], "texture": "#0"},
				"west": {"uv": [0, 0, 16, 8], "texture": "#0"},
				"up": {"uv": [0, 0, 16, 8], "texture": "#0"},
				"down": {"uv": [0, 0, 16, 8], "texture": "#0"}
			}
		},
		{
			"from": [8, 2.25, 8],
			"to": [8.25, 2.5, 8.25],
			"rotation": {"angle": 0, "axis": "y", "origin": [6, 0, 6]},
			"faces": {
				"north": {"uv": [0, 0, 16, 8], "texture": "#0"},
				"east": {"uv": [0, 0, 16, 8], "texture": "#0"},
				"south": {"uv": [0, 0, 16, 8], "texture": "#0"},
				"west": {"uv": [0, 0, 16, 8], "texture": "#0"},
				"up": {"uv": [0, 0, 16, 8], "texture": "#0"},
				"down": {"uv": [0, 0, 16, 8], "texture": "#0"}
			}
		},
		{
			"from": [7.75, 3.75, 7.25],
			"to": [8.25, 4, 8.5],
			"rotation": {"angle": 0, "axis": "y", "origin": [6, 0, 6]},
			"faces": {
				"north": {"uv": [0, 0, 16, 8], "texture": "#0"},
				"east": {"uv": [0, 0, 16, 8], "texture": "#0"},
				"south": {"uv": [0, 0, 16, 8], "texture": "#0"},
				"west": {"uv": [0, 0, 16, 8], "texture": "#0"},
				"up": {"uv": [0, 0, 16, 8], "texture": "#0"},
				"down": {"uv": [0, 0, 16, 8], "texture": "#0"}
			}
		},
		{
			"from": [7.75, 2.25, 8],
			"to": [8, 2.5, 8.25],
			"rotation": {"angle": 0, "axis": "y", "origin": [6, 0, 6]},
			"faces": {
				"north": {"uv": [0, 0, 16, 8], "texture": "#0"},
				"east": {"uv": [0, 0, 16, 8], "texture": "#0"},
				"south": {"uv": [0, 0, 16, 8], "texture": "#0"},
				"west": {"uv": [0, 0, 16, 8], "texture": "#0"},
				"up": {"uv": [0, 0, 16, 8], "texture": "#0"},
				"down": {"uv": [0, 0, 16, 8], "texture": "#0"}
			}
		},
		{
			"from": [7.5, 2.25, 8],
			"to": [7.75, 2.5, 8.25],
			"rotation": {"angle": 0, "axis": "y", "origin": [6, 0, 6]},
			"faces": {
				"north": {"uv": [0, 0, 16, 8], "texture": "#0"},
				"east": {"uv": [0, 0, 16, 8], "texture": "#0"},
				"south": {"uv": [0, 0, 16, 8], "texture": "#0"},
				"west": {"uv": [0, 0, 16, 8], "texture": "#0"},
				"up": {"uv": [0, 0, 16, 8], "texture": "#0"},
				"down": {"uv": [0, 0, 16, 8], "texture": "#0"}
			}
		},
		{
			"from": [7.5, 2.25, 7.75],
			"to": [7.75, 2.5, 8],
			"rotation": {"angle": 0, "axis": "y", "origin": [6, 0, 6]},
			"faces": {
				"north": {"uv": [0, 0, 16, 8], "texture": "#0"},
				"east": {"uv": [0, 0, 16, 8], "texture": "#0"},
				"south": {"uv": [0, 0, 16, 8], "texture": "#0"},
				"west": {"uv": [0, 0, 16, 8], "texture": "#0"},
				"up": {"uv": [0, 0, 16, 8], "texture": "#0"},
				"down": {"uv": [0, 0, 16, 8], "texture": "#0"}
			}
		},
		{
			"from": [7.5, 2.25, 7.5],
			"to": [7.75, 2.5, 7.75],
			"rotation": {"angle": 0, "axis": "y", "origin": [6, 0, 6]},
			"faces": {
				"north": {"uv": [0, 0, 16, 8], "texture": "#0"},
				"east": {"uv": [0, 0, 16, 8], "texture": "#0"},
				"south": {"uv": [0, 0, 16, 8], "texture": "#0"},
				"west": {"uv": [0, 0, 16, 8], "texture": "#0"},
				"up": {"uv": [0, 0, 16, 8], "texture": "#0"},
				"down": {"uv": [0, 0, 16, 8], "texture": "#0"}
			}
		},
		{
			"from": [7.5, 2.5, 7],
			"to": [7.75, 4, 8.75],
			"rotation": {"angle": 0, "axis": "y", "origin": [6, 0, 6]},
			"faces": {
				"north": {"uv": [0, 0, 16, 8], "texture": "#0"},
				"east": {"uv": [0, 0, 16, 8], "texture": "#0"},
				"south": {"uv": [0, 0, 16, 8], "texture": "#0"},
				"west": {"uv": [0, 0, 16, 8], "texture": "#0"},
				"up": {"uv": [0, 0, 16, 8], "texture": "#0"},
				"down": {"uv": [0, 0, 16, 8], "texture": "#0"}
			}
		},
		{
			"from": [7.75, 2.25, 7.5],
			"to": [8, 2.5, 7.75],
			"rotation": {"angle": 0, "axis": "y", "origin": [6, 0, 6]},
			"faces": {
				"north": {"uv": [0, 0, 16, 8], "texture": "#0"},
				"east": {"uv": [0, 0, 16, 8], "texture": "#0"},
				"south": {"uv": [0, 0, 16, 8], "texture": "#0"},
				"west": {"uv": [0, 0, 16, 8], "texture": "#0"},
				"up": {"uv": [0, 0, 16, 8], "texture": "#0"},
				"down": {"uv": [0, 0, 16, 8], "texture": "#0"}
			}
		},
		{
			"from": [8, 2.25, 7.5],
			"to": [8.25, 2.5, 7.75],
			"rotation": {"angle": 0, "axis": "y", "origin": [6, 0, 6]},
			"faces": {
				"north": {"uv": [0, 0, 16, 8], "texture": "#0"},
				"east": {"uv": [0, 0, 16, 8], "texture": "#0"},
				"south": {"uv": [0, 0, 16, 8], "texture": "#0"},
				"west": {"uv": [0, 0, 16, 8], "texture": "#0"},
				"up": {"uv": [0, 0, 16, 8], "texture": "#0"},
				"down": {"uv": [0, 0, 16, 8], "texture": "#0"}
			}
		},
		{
			"from": [7.75, 2.5, 7],
			"to": [8.25, 4, 7.25],
			"rotation": {"angle": 0, "axis": "y", "origin": [6, 0, 6]},
			"faces": {
				"north": {"uv": [0, 0, 16, 8], "texture": "#0"},
				"east": {"uv": [0, 0, 16, 8], "texture": "#0"},
				"south": {"uv": [0, 0, 16, 8], "texture": "#0"},
				"west": {"uv": [0, 0, 16, 8], "texture": "#0"},
				"up": {"uv": [0, 0, 16, 8], "texture": "#0"},
				"down": {"uv": [0, 0, 16, 8], "texture": "#0"}
			}
		},
		{
			"from": [7.75, 2.5, 8.5],
			"to": [8.25, 4, 8.75],
			"rotation": {"angle": 0, "axis": "y", "origin": [6, 0, 6]},
			"faces": {
				"north": {"uv": [0, 0, 16, 8], "texture": "#0"},
				"east": {"uv": [0, 0, 16, 8], "texture": "#0"},
				"south": {"uv": [0, 0, 16, 8], "texture": "#0"},
				"west": {"uv": [0, 0, 16, 8], "texture": "#0"},
				"up": {"uv": [0, 0, 16, 8], "texture": "#0"},
				"down": {"uv": [0, 0, 16, 8], "texture": "#0"}
			}
		},
		{
			"from": [7.5, 2, 7],
			"to": [8.25, 2.25, 7.25],
			"rotation": {"angle": 0, "axis": "y", "origin": [6, 0, 6]},
			"faces": {
				"north": {"uv": [0, 0, 16, 8], "texture": "#0"},
				"east": {"uv": [0, 0, 16, 8], "texture": "#0"},
				"south": {"uv": [0, 0, 16, 8], "texture": "#0"},
				"west": {"uv": [0, 0, 16, 8], "texture": "#0"},
				"up": {"uv": [0, 0, 16, 8], "texture": "#0"},
				"down": {"uv": [0, 0, 16, 8], "texture": "#0"}
			}
		},
		{
			"from": [7.5, 2, 8.5],
			"to": [8.25, 2.25, 8.75],
			"rotation": {"angle": 0, "axis": "y", "origin": [6, 0, 6]},
			"faces": {
				"north": {"uv": [0, 0, 16, 8], "texture": "#0"},
				"east": {"uv": [0, 0, 16, 8], "texture": "#0"},
				"south": {"uv": [0, 0, 16, 8], "texture": "#0"},
				"west": {"uv": [0, 0, 16, 8], "texture": "#0"},
				"up": {"uv": [0, 0, 16, 8], "texture": "#0"},
				"down": {"uv": [0, 0, 16, 8], "texture": "#0"}
			}
		},
		{
			"from": [7.5, 2.0625, 8.3125],
			"to": [8.25, 2.25, 8.5],
			"rotation": {"angle": 0, "axis": "y", "origin": [6, 0, 6]},
			"faces": {
				"north": {"uv": [0, 0, 16, 8], "texture": "#0"},
				"east": {"uv": [0, 0, 16, 8], "texture": "#0"},
				"south": {"uv": [0, 0, 16, 8], "texture": "#0"},
				"west": {"uv": [0, 0, 16, 8], "texture": "#0"},
				"up": {"uv": [0, 0, 16, 8], "texture": "#0"},
				"down": {"uv": [0, 0, 16, 8], "texture": "#0"}
			}
		},
		{
			"from": [7.5, 2.0625, 7.25],
			"to": [8.25, 2.25, 7.4375],
			"rotation": {"angle": 0, "axis": "y", "origin": [6, 0, 6]},
			"faces": {
				"north": {"uv": [0, 0, 16, 8], "texture": "#0"},
				"east": {"uv": [0, 0, 16, 8], "texture": "#0"},
				"south": {"uv": [0, 0, 16, 8], "texture": "#0"},
				"west": {"uv": [0, 0, 16, 8], "texture": "#0"},
				"up": {"uv": [0, 0, 16, 8], "texture": "#0"},
				"down": {"uv": [0, 0, 16, 8], "texture": "#0"}
			}
		},
		{
			"from": [7.5, 2.25, 7],
			"to": [8.25, 2.5, 7.5],
			"rotation": {"angle": 0, "axis": "y", "origin": [6, 0, 6]},
			"faces": {
				"north": {"uv": [0, 0, 16, 8], "texture": "#0"},
				"east": {"uv": [0, 0, 16, 8], "texture": "#0"},
				"south": {"uv": [0, 0, 16, 8], "texture": "#0"},
				"west": {"uv": [0, 0, 16, 8], "texture": "#0"},
				"up": {"uv": [0, 0, 16, 8], "texture": "#0"},
				"down": {"uv": [0, 0, 16, 8], "texture": "#0"}
			}
		},
		{
			"from": [7.5, 2.25, 8.25],
			"to": [8.25, 2.5, 8.75],
			"rotation": {"angle": 0, "axis": "y", "origin": [6, 0, 6]},
			"faces": {
				"north": {"uv": [0, 0, 16, 8], "texture": "#0"},
				"east": {"uv": [0, 0, 16, 8], "texture": "#0"},
				"south": {"uv": [0, 0, 16, 8], "texture": "#0"},
				"west": {"uv": [0, 0, 16, 8], "texture": "#0"},
				"up": {"uv": [0, 0, 16, 8], "texture": "#0"},
				"down": {"uv": [0, 0, 16, 8], "texture": "#0"}
			}
		},
		{
			"from": [7.75, 4, 7.75],
			"to": [8, 10, 8],
			"rotation": {"angle": 0, "axis": "y", "origin": [6, 0, 6]},
			"faces": {
				"north": {"uv": [0, 0, 16, 8], "texture": "#0"},
				"east": {"uv": [0, 0, 16, 8], "texture": "#0"},
				"south": {"uv": [0, 0, 16, 8], "texture": "#0"},
				"west": {"uv": [0, 0, 16, 8], "texture": "#0"},
				"up": {"uv": [0, 0, 16, 8], "texture": "#0"},
				"down": {"uv": [0, 0, 16, 8], "texture": "#0"}
			}
		},
		{
			"from": [8, 4, 7.75],
			"to": [8.1875, 10, 8],
			"rotation": {"angle": 0, "axis": "y", "origin": [6, 0, 6]},
			"faces": {
				"north": {"uv": [0, 0, 16, 8], "texture": "#0"},
				"east": {"uv": [0, 0, 16, 8], "texture": "#0"},
				"south": {"uv": [0, 0, 16, 8], "texture": "#0"},
				"west": {"uv": [0, 0, 16, 8], "texture": "#0"},
				"up": {"uv": [0, 0, 16, 8], "texture": "#0"},
				"down": {"uv": [0, 0, 16, 8], "texture": "#0"}
			}
		},
		{
			"from": [7.5625, 4, 7.75],
			"to": [7.75, 10, 8],
			"rotation": {"angle": 0, "axis": "y", "origin": [6, 0, 6]},
			"faces": {
				"north": {"uv": [0, 0, 16, 8], "texture": "#0"},
				"east": {"uv": [0, 0, 16, 8], "texture": "#0"},
				"south": {"uv": [0, 0, 16, 8], "texture": "#0"},
				"west": {"uv": [0, 0, 16, 8], "texture": "#0"},
				"up": {"uv": [0, 0, 16, 8], "texture": "#0"},
				"down": {"uv": [0, 0, 16, 8], "texture": "#0"}
			}
		},
		{
			"from": [7.75, 4, 8],
			"to": [8, 10, 8.1875],
			"rotation": {"angle": 0, "axis": "y", "origin": [6, 0, 6]},
			"faces": {
				"north": {"uv": [0, 0, 16, 8], "texture": "#0"},
				"east": {"uv": [0, 0, 16, 8], "texture": "#0"},
				"south": {"uv": [0, 0, 16, 8], "texture": "#0"},
				"west": {"uv": [0, 0, 16, 8], "texture": "#0"},
				"up": {"uv": [0, 0, 16, 8], "texture": "#0"},
				"down": {"uv": [0, 0, 16, 8], "texture": "#0"}
			}
		},
		{
			"from": [7.75, 4, 7.5625],
			"to": [8, 10, 7.75],
			"rotation": {"angle": 0, "axis": "y", "origin": [6, 0, 6]},
			"faces": {
				"north": {"uv": [0, 0, 16, 8], "texture": "#0"},
				"east": {"uv": [0, 0, 16, 8], "texture": "#0"},
				"south": {"uv": [0, 0, 16, 8], "texture": "#0"},
				"west": {"uv": [0, 0, 16, 8], "texture": "#0"},
				"up": {"uv": [0, 0, 16, 8], "texture": "#0"},
				"down": {"uv": [0, 0, 16, 8], "texture": "#0"}
			}
		},
		{
			"from": [8, 4, 7.625],
			"to": [8.125, 10, 7.75],
			"rotation": {"angle": 0, "axis": "y", "origin": [6, 0, 6]},
			"faces": {
				"north": {"uv": [0, 0, 16, 8], "texture": "#0"},
				"east": {"uv": [0, 0, 16, 8], "texture": "#0"},
				"south": {"uv": [0, 0, 16, 8], "texture": "#0"},
				"west": {"uv": [0, 0, 16, 8], "texture": "#0"},
				"up": {"uv": [0, 0, 16, 8], "texture": "#0"},
				"down": {"uv": [0, 0, 16, 8], "texture": "#0"}
			}
		},
		{
			"from": [7.625, 4, 7.625],
			"to": [7.75, 10, 7.75],
			"rotation": {"angle": 0, "axis": "y", "origin": [6, 0, 6]},
			"faces": {
				"north": {"uv": [0, 0, 16, 8], "texture": "#0"},
				"east": {"uv": [0, 0, 16, 8], "texture": "#0"},
				"south": {"uv": [0, 0, 16, 8], "texture": "#0"},
				"west": {"uv": [0, 0, 16, 8], "texture": "#0"},
				"up": {"uv": [0, 0, 16, 8], "texture": "#0"},
				"down": {"uv": [0, 0, 16, 8], "texture": "#0"}
			}
		},
		{
			"from": [7.625, 4, 8],
			"to": [7.75, 10, 8.125],
			"rotation": {"angle": 0, "axis": "y", "origin": [6, 0, 6]},
			"faces": {
				"north": {"uv": [0, 0, 16, 8], "texture": "#0"},
				"east": {"uv": [0, 0, 16, 8], "texture": "#0"},
				"south": {"uv": [0, 0, 16, 8], "texture": "#0"},
				"west": {"uv": [0, 0, 16, 8], "texture": "#0"},
				"up": {"uv": [0, 0, 16, 8], "texture": "#0"},
				"down": {"uv": [0, 0, 16, 8], "texture": "#0"}
			}
		},
		{
			"from": [8, 4, 8],
			"to": [8.125, 10, 8.125],
			"rotation": {"angle": 0, "axis": "y", "origin": [6, 0, 6]},
			"faces": {
				"north": {"uv": [0, 0, 16, 8], "texture": "#0"},
				"east": {"uv": [0, 0, 16, 8], "texture": "#0"},
				"south": {"uv": [0, 0, 16, 8], "texture": "#0"},
				"west": {"uv": [0, 0, 16, 8], "texture": "#0"},
				"up": {"uv": [0, 0, 16, 8], "texture": "#0"},
				"down": {"uv": [0, 0, 16, 8], "texture": "#0"}
			}
		},
		{
			"from": [7.75, 5.5, 7.75],
			"to": [8, 5.75, 8],
			"rotation": {"angle": 0, "axis": "y", "origin": [6, 0, 6]},
			"faces": {
				"north": {"uv": [0, 0, 1, 1], "rotation": 180, "texture": "#missing"},
				"east": {"uv": [0, 0, 16, 8], "rotation": 180, "texture": "#0"},
				"south": {"uv": [0, 0, 1, 1], "rotation": 180, "texture": "#missing"},
				"west": {"uv": [0, 0, 1, 1], "rotation": 180, "texture": "#missing"},
				"up": {"uv": [0, 0, 1, 1], "rotation": 180, "texture": "#missing"},
				"down": {"uv": [0, 0, 1, 1], "rotation": 180, "texture": "#missing"}
			}
		},
		{
			"from": [7.75, 5.5, 7.5],
			"to": [8, 5.75, 7.75],
			"rotation": {"angle": 0, "axis": "y", "origin": [6, 0, 6]},
			"faces": {
				"north": {"uv": [0, 0, 16, 8], "rotation": 180, "texture": "#0"},
				"east": {"uv": [0, 0, 16, 8], "rotation": 180, "texture": "#0"},
				"south": {"uv": [0, 0, 16, 8], "rotation": 180, "texture": "#0"},
				"west": {"uv": [0, 0, 16, 8], "rotation": 180, "texture": "#0"},
				"up": {"uv": [0, 0, 16, 8], "rotation": 180, "texture": "#0"},
				"down": {"uv": [0, 0, 16, 8], "rotation": 180, "texture": "#0"}
			}
		},
		{
			"from": [7.75, 5.5, 8],
			"to": [8, 5.75, 8.25],
			"rotation": {"angle": 0, "axis": "y", "origin": [6, 0, 6]},
			"faces": {
				"north": {"uv": [0, 0, 16, 8], "rotation": 180, "texture": "#0"},
				"east": {"uv": [0, 0, 16, 8], "rotation": 180, "texture": "#0"},
				"south": {"uv": [0, 0, 16, 8], "rotation": 180, "texture": "#0"},
				"west": {"uv": [0, 0, 16, 8], "rotation": 180, "texture": "#0"},
				"up": {"uv": [0, 0, 16, 8], "rotation": 180, "texture": "#0"},
				"down": {"uv": [0, 0, 16, 8], "rotation": 180, "texture": "#0"}
			}
		},
		{
			"from": [7.5, 5.5, 7.75],
			"to": [7.75, 5.75, 8],
			"rotation": {"angle": 0, "axis": "y", "origin": [6, 0, 6]},
			"faces": {
				"north": {"uv": [0, 8, 16, 11], "rotation": 180, "texture": "#0"},
				"east": {"uv": [0, 0, 16, 8], "rotation": 180, "texture": "#0"},
				"south": {"uv": [0, 8, 16, 11], "rotation": 180, "texture": "#0"},
				"west": {"uv": [0, 8, 16, 11], "rotation": 180, "texture": "#0"},
				"up": {"uv": [0, 8, 16, 11], "rotation": 180, "texture": "#0"},
				"down": {"uv": [0, 8, 16, 11], "rotation": 180, "texture": "#0"}
			}
		},
		{
			"from": [8, 5.5, 7.75],
			"to": [8.25, 5.75, 8],
			"rotation": {"angle": 0, "axis": "y", "origin": [6, 0, 6]},
			"faces": {
				"north": {"uv": [0, 8, 16, 11], "rotation": 180, "texture": "#0"},
				"east": {"uv": [0, 8, 16, 11], "rotation": 180, "texture": "#0"},
				"south": {"uv": [0, 8, 16, 11], "rotation": 180, "texture": "#0"},
				"west": {"uv": [0, 8, 16, 11], "rotation": 180, "texture": "#0"},
				"up": {"uv": [0, 8, 16, 11], "rotation": 180, "texture": "#0"},
				"down": {"uv": [0, 8, 16, 11], "rotation": 180, "texture": "#0"}
			}
		},
		{
			"from": [7.75, 5.25, 7.25],
			"to": [8, 5.5, 7.5],
			"rotation": {"angle": 0, "axis": "y", "origin": [6, 0, 6]},
			"faces": {
				"north": {"uv": [0, 0, 16, 8], "rotation": 180, "texture": "#0"},
				"east": {"uv": [0, 0, 16, 8], "rotation": 180, "texture": "#0"},
				"south": {"uv": [0, 0, 16, 8], "rotation": 180, "texture": "#0"},
				"west": {"uv": [0, 0, 16, 8], "rotation": 180, "texture": "#0"},
				"up": {"uv": [0, 0, 16, 8], "rotation": 180, "texture": "#0"},
				"down": {"uv": [0, 0, 16, 8], "rotation": 180, "texture": "#0"}
			}
		},
		{
			"from": [7.75, 5.5, 7.3125],
			"to": [8, 5.6875, 7.5],
			"rotation": {"angle": 0, "axis": "y", "origin": [6, 0, 6]},
			"faces": {
				"north": {"uv": [0, 0, 16, 8], "rotation": 180, "texture": "#0"},
				"east": {"uv": [0, 0, 16, 8], "rotation": 180, "texture": "#0"},
				"south": {"uv": [0, 0, 16, 8], "rotation": 180, "texture": "#0"},
				"west": {"uv": [0, 0, 16, 8], "rotation": 180, "texture": "#0"},
				"up": {"uv": [0, 0, 16, 8], "rotation": 180, "texture": "#0"},
				"down": {"uv": [0, 0, 16, 8], "rotation": 180, "texture": "#0"}
			}
		},
		{
			"from": [7.75, 5.5, 8.25],
			"to": [8, 5.6875, 8.4375],
			"rotation": {"angle": 0, "axis": "y", "origin": [6, 0, 6]},
			"faces": {
				"north": {"uv": [0, 0, 16, 8], "rotation": 180, "texture": "#0"},
				"east": {"uv": [0, 0, 16, 8], "rotation": 180, "texture": "#0"},
				"south": {"uv": [0, 0, 16, 8], "rotation": 180, "texture": "#0"},
				"west": {"uv": [0, 0, 16, 8], "rotation": 180, "texture": "#0"},
				"up": {"uv": [0, 0, 16, 8], "rotation": 180, "texture": "#0"},
				"down": {"uv": [0, 0, 16, 8], "rotation": 180, "texture": "#0"}
			}
		},
		{
			"from": [7.5625, 5.5, 8],
			"to": [7.75, 5.6875, 8.1875],
			"rotation": {"angle": 0, "axis": "y", "origin": [6, 0, 6]},
			"faces": {
				"north": {"uv": [0, 0, 16, 8], "rotation": 180, "texture": "#0"},
				"east": {"uv": [0, 0, 16, 8], "rotation": 180, "texture": "#0"},
				"south": {"uv": [0, 0, 16, 8], "rotation": 180, "texture": "#0"},
				"west": {"uv": [0, 0, 16, 8], "rotation": 180, "texture": "#0"},
				"up": {"uv": [0, 0, 16, 8], "rotation": 180, "texture": "#0"},
				"down": {"uv": [0, 0, 16, 8], "rotation": 180, "texture": "#0"}
			}
		},
		{
			"from": [7.5625, 5.5, 7.5625],
			"to": [7.75, 5.6875, 7.75],
			"rotation": {"angle": 0, "axis": "y", "origin": [6, 0, 6]},
			"faces": {
				"north": {"uv": [0, 0, 16, 8], "rotation": 180, "texture": "#0"},
				"east": {"uv": [0, 0, 16, 8], "rotation": 180, "texture": "#0"},
				"south": {"uv": [0, 0, 16, 8], "rotation": 180, "texture": "#0"},
				"west": {"uv": [0, 0, 16, 8], "rotation": 180, "texture": "#0"},
				"up": {"uv": [0, 0, 16, 8], "rotation": 180, "texture": "#0"},
				"down": {"uv": [0, 0, 16, 8], "rotation": 180, "texture": "#0"}
			}
		},
		{
			"from": [8, 5.5, 7.5625],
			"to": [8.1875, 5.6875, 7.75],
			"rotation": {"angle": 0, "axis": "y", "origin": [6, 0, 6]},
			"faces": {
				"north": {"uv": [0, 0, 16, 8], "rotation": 180, "texture": "#0"},
				"east": {"uv": [0, 0, 16, 8], "rotation": 180, "texture": "#0"},
				"south": {"uv": [0, 0, 16, 8], "rotation": 180, "texture": "#0"},
				"west": {"uv": [0, 0, 16, 8], "rotation": 180, "texture": "#0"},
				"up": {"uv": [0, 0, 16, 8], "rotation": 180, "texture": "#0"},
				"down": {"uv": [0, 0, 16, 8], "rotation": 180, "texture": "#0"}
			}
		},
		{
			"from": [8, 5.5, 8],
			"to": [8.1875, 5.6875, 8.1875],
			"rotation": {"angle": 0, "axis": "y", "origin": [6, 0, 6]},
			"faces": {
				"north": {"uv": [0, 0, 16, 8], "rotation": 180, "texture": "#0"},
				"east": {"uv": [0, 0, 16, 8], "rotation": 180, "texture": "#0"},
				"south": {"uv": [0, 0, 16, 8], "rotation": 180, "texture": "#0"},
				"west": {"uv": [0, 0, 16, 8], "rotation": 180, "texture": "#0"},
				"up": {"uv": [0, 0, 16, 8], "rotation": 180, "texture": "#0"},
				"down": {"uv": [0, 0, 16, 8], "rotation": 180, "texture": "#0"}
			}
		},
		{
			"from": [7.75, 5, 8.5],
			"to": [8, 5.25, 8.75],
			"rotation": {"angle": 0, "axis": "y", "origin": [6, 0, 6]},
			"faces": {
				"north": {"uv": [0, 0, 16, 8], "rotation": 180, "texture": "#0"},
				"east": {"uv": [0, 0, 16, 8], "rotation": 180, "texture": "#0"},
				"south": {"uv": [0, 0, 16, 8], "rotation": 180, "texture": "#0"},
				"west": {"uv": [0, 0, 16, 8], "rotation": 180, "texture": "#0"},
				"up": {"uv": [0, 0, 16, 8], "rotation": 180, "texture": "#0"},
				"down": {"uv": [0, 0, 16, 8], "rotation": 180, "texture": "#0"}
			}
		},
		{
			"from": [7.75, 3.75, 7.75],
			"to": [8, 4.5, 8],
			"rotation": {"angle": 0, "axis": "y", "origin": [6, 0, 6]},
			"faces": {
				"north": {"uv": [0, 0, 1, 3], "rotation": 180, "texture": "#missing"},
				"east": {"uv": [0, 0, 16, 8], "rotation": 180, "texture": "#0"},
				"south": {"uv": [0, 0, 1, 3], "rotation": 180, "texture": "#missing"},
				"west": {"uv": [0, 0, 1, 3], "rotation": 180, "texture": "#missing"},
				"up": {"uv": [0, 0, 1, 1], "rotation": 180, "texture": "#missing"},
				"down": {"uv": [0, 0, 1, 1], "rotation": 180, "texture": "#missing"}
			}
		},
		{
			"from": [7.75, 3.75, 8],
			"to": [8, 4.5, 8.125],
			"rotation": {"angle": 0, "axis": "y", "origin": [6, 0, 6]},
			"faces": {
				"north": {"uv": [0, 0, 16, 8], "rotation": 180, "texture": "#0"},
				"east": {"uv": [0, 0, 16, 8], "rotation": 180, "texture": "#0"},
				"south": {"uv": [0, 0, 16, 8], "rotation": 180, "texture": "#0"},
				"west": {"uv": [0, 0, 16, 8], "rotation": 180, "texture": "#0"},
				"up": {"uv": [0, 0, 16, 8], "rotation": 180, "texture": "#0"},
				"down": {"uv": [0, 0, 16, 8], "rotation": 180, "texture": "#0"}
			}
		},
		{
			"from": [7.75, 3.75, 7.625],
			"to": [8, 4.5, 7.75],
			"rotation": {"angle": 0, "axis": "y", "origin": [6, 0, 6]},
			"faces": {
				"north": {"uv": [0, 0, 16, 8], "rotation": 180, "texture": "#0"},
				"east": {"uv": [0, 0, 16, 8], "rotation": 180, "texture": "#0"},
				"south": {"uv": [0, 0, 16, 8], "rotation": 180, "texture": "#0"},
				"west": {"uv": [0, 0, 16, 8], "rotation": 180, "texture": "#0"},
				"up": {"uv": [0, 0, 16, 8], "rotation": 180, "texture": "#0"},
				"down": {"uv": [0, 0, 16, 8], "rotation": 180, "texture": "#0"}
			}
		},
		{
			"from": [8, 3.75, 7.75],
			"to": [8.125, 4.5, 8],
			"rotation": {"angle": 0, "axis": "y", "origin": [6, 0, 6]},
			"faces": {
				"north": {"uv": [0, 0, 16, 8], "rotation": 180, "texture": "#0"},
				"east": {"uv": [0, 0, 16, 8], "rotation": 180, "texture": "#0"},
				"south": {"uv": [0, 0, 16, 8], "rotation": 180, "texture": "#0"},
				"west": {"uv": [0, 0, 16, 8], "rotation": 180, "texture": "#0"},
				"up": {"uv": [0, 0, 16, 8], "rotation": 180, "texture": "#0"},
				"down": {"uv": [0, 0, 16, 8], "rotation": 180, "texture": "#0"}
			}
		},
		{
			"from": [7.625, 3.75, 7.75],
			"to": [7.75, 4.5, 8],
			"rotation": {"angle": 0, "axis": "y", "origin": [6, 0, 6]},
			"faces": {
				"north": {"uv": [0, 0, 16, 8], "rotation": 180, "texture": "#0"},
				"east": {"uv": [0, 0, 16, 8], "rotation": 180, "texture": "#0"},
				"south": {"uv": [0, 0, 16, 8], "rotation": 180, "texture": "#0"},
				"west": {"uv": [0, 0, 16, 8], "rotation": 180, "texture": "#0"},
				"up": {"uv": [0, 0, 16, 8], "rotation": 180, "texture": "#0"},
				"down": {"uv": [0, 0, 16, 8], "rotation": 180, "texture": "#0"}
			}
		},
		{
			"from": [7.75, 3.25, 8.75],
			"to": [8, 5.25, 9],
			"rotation": {"angle": 0, "axis": "y", "origin": [6, 0, 6]},
			"faces": {
				"north": {"uv": [0, 0, 16, 8], "rotation": 180, "texture": "#0"},
				"east": {"uv": [0, 0, 16, 8], "rotation": 180, "texture": "#0"},
				"south": {"uv": [0, 0, 16, 8], "rotation": 180, "texture": "#0"},
				"west": {"uv": [0, 0, 16, 8], "rotation": 180, "texture": "#0"},
				"up": {"uv": [0, 0, 16, 8], "rotation": 180, "texture": "#0"},
				"down": {"uv": [0, 0, 16, 8], "rotation": 180, "texture": "#0"}
			}
		},
		{
			"from": [7.75, 2.75, 9],
			"to": [8, 5, 9.25],
			"rotation": {"angle": 0, "axis": "y", "origin": [6, 0, 6]},
			"faces": {
				"north": {"uv": [0, 0, 16, 8], "rotation": 180, "texture": "#0"},
				"east": {"uv": [0, 0, 16, 8], "rotation": 180, "texture": "#0"},
				"south": {"uv": [0, 0, 16, 8], "rotation": 180, "texture": "#0"},
				"west": {"uv": [0, 0, 16, 8], "rotation": 180, "texture": "#0"},
				"up": {"uv": [0, 0, 16, 8], "rotation": 180, "texture": "#0"},
				"down": {"uv": [0, 0, 16, 8], "rotation": 180, "texture": "#0"}
			}
		},
		{
			"from": [7.75, 5, 7],
			"to": [8, 5.25, 7.25],
			"rotation": {"angle": 0, "axis": "y", "origin": [6, 0, 6]},
			"faces": {
				"north": {"uv": [0, 0, 16, 8], "rotation": 180, "texture": "#0"},
				"east": {"uv": [0, 0, 16, 8], "rotation": 180, "texture": "#0"},
				"south": {"uv": [0, 0, 16, 8], "rotation": 180, "texture": "#0"},
				"west": {"uv": [0, 0, 16, 8], "rotation": 180, "texture": "#0"},
				"up": {"uv": [0, 0, 16, 8], "rotation": 180, "texture": "#0"},
				"down": {"uv": [0, 0, 16, 8], "rotation": 180, "texture": "#0"}
			}
		},
		{
			"from": [7.75, 5.25, 7.0625],
			"to": [8, 5.4375, 7.25],
			"rotation": {"angle": 0, "axis": "y", "origin": [6, 0, 6]},
			"faces": {
				"north": {"uv": [0, 0, 16, 8], "rotation": 180, "texture": "#0"},
				"east": {"uv": [0, 0, 16, 8], "rotation": 180, "texture": "#0"},
				"south": {"uv": [0, 0, 16, 8], "rotation": 180, "texture": "#0"},
				"west": {"uv": [0, 0, 16, 8], "rotation": 180, "texture": "#0"},
				"up": {"uv": [0, 0, 16, 8], "rotation": 180, "texture": "#0"},
				"down": {"uv": [0, 0, 16, 8], "rotation": 180, "texture": "#0"}
			}
		},
		{
			"from": [7.75, 5.25, 8.5],
			"to": [8, 5.4375, 8.6875],
			"rotation": {"angle": 0, "axis": "y", "origin": [6, 0, 6]},
			"faces": {
				"north": {"uv": [0, 0, 16, 8], "rotation": 180, "texture": "#0"},
				"east": {"uv": [0, 0, 16, 8], "rotation": 180, "texture": "#0"},
				"south": {"uv": [0, 0, 16, 8], "rotation": 180, "texture": "#0"},
				"west": {"uv": [0, 0, 16, 8], "rotation": 180, "texture": "#0"},
				"up": {"uv": [0, 0, 16, 8], "rotation": 180, "texture": "#0"},
				"down": {"uv": [0, 0, 16, 8], "rotation": 180, "texture": "#0"}
			}
		},
		{
			"from": [7.75, 5.0625, 8.3125],
			"to": [8, 5.25, 8.5],
			"rotation": {"angle": 0, "axis": "y", "origin": [6, 0, 6]},
			"faces": {
				"north": {"uv": [0, 0, 16, 8], "rotation": 180, "texture": "#0"},
				"east": {"uv": [0, 0, 16, 8], "rotation": 180, "texture": "#0"},
				"south": {"uv": [0, 0, 16, 8], "rotation": 180, "texture": "#0"},
				"west": {"uv": [0, 0, 16, 8], "rotation": 180, "texture": "#0"},
				"up": {"uv": [0, 0, 16, 8], "rotation": 180, "texture": "#0"},
				"down": {"uv": [0, 0, 16, 8], "rotation": 180, "texture": "#0"}
			}
		},
		{
			"from": [7.75, 5.0625, 7.25],
			"to": [8, 5.25, 7.4375],
			"rotation": {"angle": 0, "axis": "y", "origin": [6, 0, 6]},
			"faces": {
				"north": {"uv": [0, 0, 16, 8], "rotation": 180, "texture": "#0"},
				"east": {"uv": [0, 0, 16, 8], "rotation": 180, "texture": "#0"},
				"south": {"uv": [0, 0, 16, 8], "rotation": 180, "texture": "#0"},
				"west": {"uv": [0, 0, 16, 8], "rotation": 180, "texture": "#0"},
				"up": {"uv": [0, 0, 16, 8], "rotation": 180, "texture": "#0"},
				"down": {"uv": [0, 0, 16, 8], "rotation": 180, "texture": "#0"}
			}
		},
		{
			"from": [7.75, 3.25, 6.75],
			"to": [8, 5.25, 7],
			"rotation": {"angle": 0, "axis": "y", "origin": [6, 0, 6]},
			"faces": {
				"north": {"uv": [0, 0, 16, 8], "rotation": 180, "texture": "#0"},
				"east": {"uv": [0, 0, 16, 8], "rotation": 180, "texture": "#0"},
				"south": {"uv": [0, 0, 16, 8], "rotation": 180, "texture": "#0"},
				"west": {"uv": [0, 0, 16, 8], "rotation": 180, "texture": "#0"},
				"up": {"uv": [0, 0, 16, 8], "rotation": 180, "texture": "#0"},
				"down": {"uv": [0, 0, 16, 8], "rotation": 180, "texture": "#0"}
			}
		},
		{
			"from": [7.75, 2.75, 6.5],
			"to": [8, 5, 6.75],
			"rotation": {"angle": 0, "axis": "y", "origin": [6, 0, 6]},
			"faces": {
				"north": {"uv": [0, 0, 16, 8], "rotation": 180, "texture": "#0"},
				"east": {"uv": [0, 0, 16, 8], "rotation": 180, "texture": "#0"},
				"south": {"uv": [0, 0, 16, 8], "rotation": 180, "texture": "#0"},
				"west": {"uv": [0, 0, 16, 8], "rotation": 180, "texture": "#0"},
				"up": {"uv": [0, 0, 16, 8], "rotation": 180, "texture": "#0"},
				"down": {"uv": [0, 0, 16, 8], "rotation": 180, "texture": "#0"}
			}
		},
		{
			"from": [7.375, 5.25, 7.75],
			"to": [7.5, 5.5, 8],
			"rotation": {"angle": 0, "axis": "y", "origin": [6, 0, 6]},
			"faces": {
				"north": {"uv": [0, 8, 16, 11], "rotation": 180, "texture": "#0"},
				"east": {"uv": [0, 0, 16, 8], "rotation": 180, "texture": "#0"},
				"south": {"uv": [0, 8, 16, 11], "rotation": 180, "texture": "#0"},
				"west": {"uv": [0, 8, 16, 11], "rotation": 180, "texture": "#0"},
				"up": {"uv": [0, 8, 16, 11], "rotation": 180, "texture": "#0"},
				"down": {"uv": [0, 8, 16, 11], "rotation": 180, "texture": "#0"}
			}
		},
		{
			"from": [7.75, 5.25, 8.25],
			"to": [8, 5.5, 8.5],
			"rotation": {"angle": 0, "axis": "y", "origin": [6, 0, 6]},
			"faces": {
				"north": {"uv": [0, 0, 16, 8], "rotation": 180, "texture": "#0"},
				"east": {"uv": [0, 0, 16, 8], "rotation": 180, "texture": "#0"},
				"south": {"uv": [0, 0, 16, 8], "rotation": 180, "texture": "#0"},
				"west": {"uv": [0, 0, 16, 8], "rotation": 180, "texture": "#0"},
				"up": {"uv": [0, 0, 16, 8], "rotation": 180, "texture": "#0"},
				"down": {"uv": [0, 0, 16, 8], "rotation": 180, "texture": "#0"}
			}
		},
		{
			"from": [8.25, 5.25, 7.75],
			"to": [8.375, 5.5, 8],
			"rotation": {"angle": 0, "axis": "y", "origin": [6, 0, 6]},
			"faces": {
				"north": {"uv": [0, 8, 16, 11], "rotation": 180, "texture": "#0"},
				"east": {"uv": [0, 8, 16, 11], "rotation": 180, "texture": "#0"},
				"south": {"uv": [0, 8, 16, 11], "rotation": 180, "texture": "#0"},
				"west": {"uv": [0, 8, 16, 11], "rotation": 180, "texture": "#0"},
				"up": {"uv": [0, 8, 16, 11], "rotation": 180, "texture": "#0"},
				"down": {"uv": [0, 8, 16, 11], "rotation": 180, "texture": "#0"}
			}
		},
		{
			"from": [7.5, 4.5, 7.5],
			"to": [8.25, 5.5, 8.25],
			"rotation": {"angle": 0, "axis": "y", "origin": [6, 0, 6]},
			"faces": {
				"north": {"uv": [0, 0, 3, 4], "rotation": 180, "texture": "#0"},
				"east": {"uv": [0, 0, 16, 8], "rotation": 180, "texture": "#0"},
				"south": {"uv": [0, 0, 3, 4], "rotation": 180, "texture": "#0"},
				"west": {"uv": [0, 0, 16, 8], "rotation": 180, "texture": "#0"},
				"up": {"uv": [0, 0, 3, 4], "rotation": 180, "texture": "#0"},
				"down": {"uv": [0, 0, 3, 4], "rotation": 180, "texture": "#0"}
			}
		},
		{
			"from": [7.75, 12.5, 7.75],
			"to": [8, 12.75, 8],
			"rotation": {"angle": 0, "axis": "y", "origin": [6, 0, 6]},
			"faces": {
				"north": {"uv": [0, 13, 16, 16], "texture": "#0"},
				"east": {"uv": [0, 13, 16, 16], "texture": "#0"},
				"south": {"uv": [0, 13, 16, 16], "texture": "#0"},
				"west": {"uv": [0, 13, 16, 16], "texture": "#0"},
				"up": {"uv": [0, 13, 16, 16], "texture": "#0"},
				"down": {"uv": [0, 13, 16, 16], "texture": "#0"}
			}
		},
		{
			"from": [7.75, 12.75, 7.75],
			"to": [8, 13, 8],
			"rotation": {"angle": 0, "axis": "y", "origin": [6, 0, 6]},
			"faces": {
				"north": {"uv": [0, 13, 16, 16], "texture": "#0"},
				"east": {"uv": [0, 13, 16, 16], "texture": "#0"},
				"south": {"uv": [0, 13, 16, 16], "texture": "#0"},
				"west": {"uv": [0, 13, 16, 16], "texture": "#0"},
				"up": {"uv": [0, 13, 16, 16], "texture": "#0"},
				"down": {"uv": [0, 13, 16, 16], "texture": "#0"}
			}
		},
		{
			"from": [7.75, 13, 7.75],
			"to": [8, 13.1875, 8],
			"rotation": {"angle": 0, "axis": "y", "origin": [6, 0, 6]},
			"faces": {
				"north": {"uv": [0, 13, 16, 16], "texture": "#0"},
				"east": {"uv": [0, 13, 16, 16], "texture": "#0"},
				"south": {"uv": [0, 13, 16, 16], "texture": "#0"},
				"west": {"uv": [0, 13, 16, 16], "texture": "#0"},
				"up": {"uv": [0, 13, 16, 16], "texture": "#0"},
				"down": {"uv": [0, 13, 16, 16], "texture": "#0"}
			}
		},
		{
			"from": [7.75, 12.75, 8],
			"to": [8, 13, 8.125],
			"rotation": {"angle": 0, "axis": "y", "origin": [6, 0, 6]},
			"faces": {
				"north": {"uv": [0, 13, 16, 16], "texture": "#0"},
				"east": {"uv": [0, 13, 16, 16], "texture": "#0"},
				"south": {"uv": [0, 13, 16, 16], "texture": "#0"},
				"west": {"uv": [0, 13, 16, 16], "texture": "#0"},
				"up": {"uv": [0, 13, 16, 16], "texture": "#0"},
				"down": {"uv": [0, 13, 16, 16], "texture": "#0"}
			}
		},
		{
			"from": [7.75, 12.75, 7.625],
			"to": [8, 13, 7.75],
			"rotation": {"angle": 0, "axis": "y", "origin": [6, 0, 6]},
			"faces": {
				"north": {"uv": [0, 13, 16, 16], "texture": "#0"},
				"east": {"uv": [0, 13, 16, 16], "texture": "#0"},
				"south": {"uv": [0, 13, 16, 16], "texture": "#0"},
				"west": {"uv": [0, 13, 16, 16], "texture": "#0"},
				"up": {"uv": [0, 13, 16, 16], "texture": "#0"},
				"down": {"uv": [0, 13, 16, 16], "texture": "#0"}
			}
		},
		{
			"from": [8, 12.75, 7.75],
			"to": [8.125, 13, 8],
			"rotation": {"angle": 0, "axis": "y", "origin": [6, 0, 6]},
			"faces": {
				"north": {"uv": [0, 13, 16, 16], "texture": "#0"},
				"east": {"uv": [0, 13, 16, 16], "texture": "#0"},
				"south": {"uv": [0, 13, 16, 16], "texture": "#0"},
				"west": {"uv": [0, 13, 16, 16], "texture": "#0"},
				"up": {"uv": [0, 13, 16, 16], "texture": "#0"},
				"down": {"uv": [0, 13, 16, 16], "texture": "#0"}
			}
		},
		{
			"from": [7.625, 12.75, 7.75],
			"to": [7.75, 13, 8],
			"rotation": {"angle": 0, "axis": "y", "origin": [6, 0, 6]},
			"faces": {
				"north": {"uv": [0, 13, 16, 16], "texture": "#0"},
				"east": {"uv": [0, 13, 16, 16], "texture": "#0"},
				"south": {"uv": [0, 13, 16, 16], "texture": "#0"},
				"west": {"uv": [0, 13, 16, 16], "texture": "#0"},
				"up": {"uv": [0, 13, 16, 16], "texture": "#0"},
				"down": {"uv": [0, 13, 16, 16], "texture": "#0"}
			}
		},
		{
			"from": [7.75, 12.5, 8],
			"to": [8, 12.75, 8.1875],
			"rotation": {"angle": 0, "axis": "y", "origin": [6, 0, 6]},
			"faces": {
				"north": {"uv": [0, 11, 16, 13], "texture": "#0"},
				"east": {"uv": [0, 11, 16, 13], "texture": "#0"},
				"south": {"uv": [0, 11, 16, 13], "texture": "#0"},
				"west": {"uv": [0, 11, 16, 13], "texture": "#0"},
				"up": {"uv": [0, 11, 16, 13], "texture": "#0"},
				"down": {"uv": [0, 11, 16, 13], "texture": "#0"}
			}
		},
		{
			"from": [7.625, 12.5, 8],
			"to": [7.75, 12.75, 8.125],
			"rotation": {"angle": 0, "axis": "y", "origin": [6, 0, 6]},
			"faces": {
				"north": {"uv": [0, 13, 16, 16], "texture": "#0"},
				"east": {"uv": [0, 13, 16, 16], "texture": "#0"},
				"south": {"uv": [0, 13, 16, 16], "texture": "#0"},
				"west": {"uv": [0, 13, 16, 16], "texture": "#0"},
				"up": {"uv": [0, 13, 16, 16], "texture": "#0"},
				"down": {"uv": [0, 13, 16, 16], "texture": "#0"}
			}
		},
		{
			"from": [8, 12.5, 8],
			"to": [8.125, 12.75, 8.125],
			"rotation": {"angle": 0, "axis": "y", "origin": [6, 0, 6]},
			"faces": {
				"north": {"uv": [0, 13, 16, 16], "texture": "#0"},
				"east": {"uv": [0, 13, 16, 16], "texture": "#0"},
				"south": {"uv": [0, 13, 16, 16], "texture": "#0"},
				"west": {"uv": [0, 13, 16, 16], "texture": "#0"},
				"up": {"uv": [0, 13, 16, 16], "texture": "#0"},
				"down": {"uv": [0, 13, 16, 16], "texture": "#0"}
			}
		},
		{
			"from": [7.625, 12.5, 7.625],
			"to": [7.75, 12.75, 7.75],
			"rotation": {"angle": 0, "axis": "y", "origin": [6, 0, 6]},
			"faces": {
				"north": {"uv": [0, 13, 16, 16], "texture": "#0"},
				"east": {"uv": [0, 13, 16, 16], "texture": "#0"},
				"south": {"uv": [0, 13, 16, 16], "texture": "#0"},
				"west": {"uv": [0, 13, 16, 16], "texture": "#0"},
				"up": {"uv": [0, 13, 16, 16], "texture": "#0"},
				"down": {"uv": [0, 13, 16, 16], "texture": "#0"}
			}
		},
		{
			"from": [8, 12.5, 7.625],
			"to": [8.125, 12.75, 7.75],
			"rotation": {"angle": 0, "axis": "y", "origin": [6, 0, 6]},
			"faces": {
				"north": {"uv": [0, 13, 16, 16], "texture": "#0"},
				"east": {"uv": [0, 13, 16, 16], "texture": "#0"},
				"south": {"uv": [0, 13, 16, 16], "texture": "#0"},
				"west": {"uv": [0, 13, 16, 16], "texture": "#0"},
				"up": {"uv": [0, 13, 16, 16], "texture": "#0"},
				"down": {"uv": [0, 13, 16, 16], "texture": "#0"}
			}
		},
		{
			"from": [7.75, 12.5, 7.5625],
			"to": [8, 12.75, 7.75],
			"rotation": {"angle": 0, "axis": "y", "origin": [6, 0, 6]},
			"faces": {
				"north": {"uv": [0, 11, 16, 13], "texture": "#0"},
				"east": {"uv": [0, 11, 16, 13], "texture": "#0"},
				"south": {"uv": [0, 11, 16, 13], "texture": "#0"},
				"west": {"uv": [0, 11, 16, 13], "texture": "#0"},
				"up": {"uv": [0, 11, 16, 13], "texture": "#0"},
				"down": {"uv": [0, 11, 16, 13], "texture": "#0"}
			}
		},
		{
			"from": [7.5625, 12.5, 7.75],
			"to": [7.75, 12.75, 8],
			"rotation": {"angle": 0, "axis": "y", "origin": [6, 0, 6]},
			"faces": {
				"north": {"uv": [0, 13, 16, 16], "texture": "#0"},
				"east": {"uv": [0, 13, 16, 16], "texture": "#0"},
				"south": {"uv": [0, 13, 16, 16], "texture": "#0"},
				"west": {"uv": [0, 13, 16, 16], "texture": "#0"},
				"up": {"uv": [0, 13, 16, 16], "texture": "#0"},
				"down": {"uv": [0, 13, 16, 16], "texture": "#0"}
			}
		},
		{
			"from": [8, 12.5, 7.75],
			"to": [8.1875, 12.75, 8],
			"rotation": {"angle": 0, "axis": "y", "origin": [6, 0, 6]},
			"faces": {
				"north": {"uv": [0, 13, 16, 16], "texture": "#0"},
				"east": {"uv": [0, 13, 16, 16], "texture": "#0"},
				"south": {"uv": [0, 13, 16, 16], "texture": "#0"},
				"west": {"uv": [0, 13, 16, 16], "texture": "#0"},
				"up": {"uv": [0, 13, 16, 16], "texture": "#0"},
				"down": {"uv": [0, 13, 16, 16], "texture": "#0"}
			}
		},
		{
			"from": [7.75, 5, 6.5],
			"to": [8, 5.25, 6.75],
			"rotation": {"angle": 0, "axis": "y", "origin": [6, 0, 6]},
			"faces": {
				"north": {"uv": [0, 11, 16, 13], "rotation": 180, "texture": "#0"},
				"east": {"uv": [0, 11, 16, 13], "rotation": 180, "texture": "#0"},
				"south": {"uv": [0, 11, 16, 13], "rotation": 180, "texture": "#0"},
				"west": {"uv": [0, 11, 16, 13], "rotation": 180, "texture": "#0"},
				"up": {"uv": [0, 11, 16, 13], "rotation": 180, "texture": "#0"},
				"down": {"uv": [0, 11, 16, 13], "rotation": 180, "texture": "#0"}
			}
		},
		{
			"from": [7.75, 2.375, 6.5],
			"to": [8, 2.75, 6.75],
			"rotation": {"angle": 0, "axis": "y", "origin": [6, 0, 6]},
			"faces": {
				"north": {"uv": [0, 11, 16, 13], "rotation": 180, "texture": "#0"},
				"east": {"uv": [0, 11, 16, 13], "rotation": 180, "texture": "#0"},
				"south": {"uv": [0, 11, 16, 13], "rotation": 180, "texture": "#0"},
				"west": {"uv": [0, 11, 16, 13], "rotation": 180, "texture": "#0"},
				"up": {"uv": [0, 11, 16, 13], "rotation": 180, "texture": "#0"},
				"down": {"uv": [0, 11, 16, 13], "rotation": 180, "texture": "#0"}
			}
		},
		{
			"from": [7.75, 2.375, 9],
			"to": [8, 2.75, 9.25],
			"rotation": {"angle": 0, "axis": "y", "origin": [6, 0, 6]},
			"faces": {
				"north": {"uv": [0, 11, 16, 13], "rotation": 180, "texture": "#0"},
				"east": {"uv": [0, 11, 16, 13], "rotation": 180, "texture": "#0"},
				"south": {"uv": [0, 11, 16, 13], "rotation": 180, "texture": "#0"},
				"west": {"uv": [0, 11, 16, 13], "rotation": 180, "texture": "#0"},
				"up": {"uv": [0, 11, 16, 13], "rotation": 180, "texture": "#0"},
				"down": {"uv": [0, 11, 16, 13], "rotation": 180, "texture": "#0"}
			}
		},
		{
			"from": [7.8125, 2.5, 9.25],
			"to": [7.9375, 2.75, 9.4375],
			"rotation": {"angle": 0, "axis": "y", "origin": [6, 0, 6]},
			"faces": {
				"north": {"uv": [0, 11, 16, 13], "rotation": 180, "texture": "#0"},
				"east": {"uv": [0, 11, 16, 13], "rotation": 180, "texture": "#0"},
				"south": {"uv": [0, 11, 16, 13], "rotation": 180, "texture": "#0"},
				"west": {"uv": [0, 11, 16, 13], "rotation": 180, "texture": "#0"},
				"up": {"uv": [0, 11, 16, 13], "rotation": 180, "texture": "#0"},
				"down": {"uv": [0, 11, 16, 13], "rotation": 180, "texture": "#0"}
			}
		},
		{
			"from": [7.8125, 2.5, 6.3125],
			"to": [7.9375, 2.75, 6.5],
			"rotation": {"angle": 0, "axis": "y", "origin": [6, 0, 6]},
			"faces": {
				"north": {"uv": [0, 11, 16, 13], "rotation": 180, "texture": "#0"},
				"east": {"uv": [0, 11, 16, 13], "rotation": 180, "texture": "#0"},
				"south": {"uv": [0, 11, 16, 13], "rotation": 180, "texture": "#0"},
				"west": {"uv": [0, 11, 16, 13], "rotation": 180, "texture": "#0"},
				"up": {"uv": [0, 11, 16, 13], "rotation": 180, "texture": "#0"},
				"down": {"uv": [0, 11, 16, 13], "rotation": 180, "texture": "#0"}
			}
		},
		{
			"from": [7.8125, 2.125, 6.5625],
			"to": [7.9375, 2.375, 6.75],
			"rotation": {"angle": 0, "axis": "y", "origin": [6, 0, 6]},
			"faces": {
				"north": {"uv": [0, 11, 16, 13], "rotation": 180, "texture": "#0"},
				"east": {"uv": [0, 11, 16, 13], "rotation": 180, "texture": "#0"},
				"south": {"uv": [0, 11, 16, 13], "rotation": 180, "texture": "#0"},
				"west": {"uv": [0, 11, 16, 13], "rotation": 180, "texture": "#0"},
				"up": {"uv": [0, 11, 16, 13], "rotation": 180, "texture": "#0"},
				"down": {"uv": [0, 11, 16, 13], "rotation": 180, "texture": "#0"}
			}
		},
		{
			"from": [7.8125, 2.125, 9],
			"to": [7.9375, 2.375, 9.1875],
			"rotation": {"angle": 0, "axis": "y", "origin": [6, 0, 6]},
			"faces": {
				"north": {"uv": [0, 11, 16, 13], "rotation": 180, "texture": "#0"},
				"east": {"uv": [0, 11, 16, 13], "rotation": 180, "texture": "#0"},
				"south": {"uv": [0, 11, 16, 13], "rotation": 180, "texture": "#0"},
				"west": {"uv": [0, 11, 16, 13], "rotation": 180, "texture": "#0"},
				"up": {"uv": [0, 11, 16, 13], "rotation": 180, "texture": "#0"},
				"down": {"uv": [0, 11, 16, 13], "rotation": 180, "texture": "#0"}
			}
		},
		{
			"from": [7.75, 5, 9],
			"to": [8, 5.25, 9.25],
			"rotation": {"angle": 0, "axis": "y", "origin": [6, 0, 6]},
			"faces": {
				"north": {"uv": [0, 11, 16, 13], "rotation": 180, "texture": "#0"},
				"east": {"uv": [0, 11, 16, 13], "rotation": 180, "texture": "#0"},
				"south": {"uv": [0, 11, 16, 13], "rotation": 180, "texture": "#0"},
				"west": {"uv": [0, 11, 16, 13], "rotation": 180, "texture": "#0"},
				"up": {"uv": [0, 11, 16, 13], "rotation": 180, "texture": "#0"},
				"down": {"uv": [0, 11, 16, 13], "rotation": 180, "texture": "#0"}
			}
		},
		{
			"from": [7.75, 4, 8.125],
			"to": [8, 4.5, 8.375],
			"rotation": {"angle": 0, "axis": "y", "origin": [6, 0, 6]},
			"faces": {
				"north": {"uv": [0, 11, 16, 13], "rotation": 180, "texture": "#0"},
				"east": {"uv": [0, 11, 16, 13], "rotation": 180, "texture": "#0"},
				"south": {"uv": [0, 11, 16, 13], "rotation": 180, "texture": "#0"},
				"west": {"uv": [0, 11, 16, 13], "rotation": 180, "texture": "#0"},
				"up": {"uv": [0, 11, 16, 13], "rotation": 180, "texture": "#0"},
				"down": {"uv": [0, 11, 16, 13], "rotation": 180, "texture": "#0"}
			}
		},
		{
			"from": [7.75, 4, 7.375],
			"to": [8, 4.5, 7.625],
			"rotation": {"angle": 0, "axis": "y", "origin": [6, 0, 6]},
			"faces": {
				"north": {"uv": [0, 11, 16, 13], "rotation": 180, "texture": "#0"},
				"east": {"uv": [0, 11, 16, 13], "rotation": 180, "texture": "#0"},
				"south": {"uv": [0, 11, 16, 13], "rotation": 180, "texture": "#0"},
				"west": {"uv": [0, 11, 16, 13], "rotation": 180, "texture": "#0"},
				"up": {"uv": [0, 11, 16, 13], "rotation": 180, "texture": "#0"},
				"down": {"uv": [0, 11, 16, 13], "rotation": 180, "texture": "#0"}
			}
		},
		{
			"from": [7.78125, 2, 8],
			"to": [7.96875, 2.25, 8.1875],
			"rotation": {"angle": 0, "axis": "y", "origin": [6, 0, 6]},
			"faces": {
				"north": {"uv": [0, 11, 16, 13], "rotation": 180, "texture": "#0"},
				"east": {"uv": [0, 11, 16, 13], "rotation": 180, "texture": "#0"},
				"south": {"uv": [0, 11, 16, 13], "rotation": 180, "texture": "#0"},
				"west": {"uv": [0, 11, 16, 13], "rotation": 180, "texture": "#0"},
				"up": {"uv": [0, 11, 16, 13], "rotation": 180, "texture": "#0"},
				"down": {"uv": [0, 11, 16, 13], "rotation": 180, "texture": "#0"}
			}
		},
		{
			"from": [7.78125, 2, 7.5625],
			"to": [7.96875, 2.25, 7.75],
			"rotation": {"angle": 0, "axis": "y", "origin": [6, 0, 6]},
			"faces": {
				"north": {"uv": [0, 11, 16, 13], "rotation": 180, "texture": "#0"},
				"east": {"uv": [0, 11, 16, 13], "rotation": 180, "texture": "#0"},
				"south": {"uv": [0, 11, 16, 13], "rotation": 180, "texture": "#0"},
				"west": {"uv": [0, 11, 16, 13], "rotation": 180, "texture": "#0"},
				"up": {"uv": [0, 11, 16, 13], "rotation": 180, "texture": "#0"},
				"down": {"uv": [0, 11, 16, 13], "rotation": 180, "texture": "#0"}
			}
		},
		{
			"from": [7.8125, 1.8125, 7.65625],
			"to": [7.9375, 2, 8.09375],
			"rotation": {"angle": 0, "axis": "y", "origin": [6, 0, 6]},
			"faces": {
				"north": {"uv": [0, 11, 16, 13], "rotation": 180, "texture": "#0"},
				"east": {"uv": [0, 11, 16, 13], "rotation": 180, "texture": "#0"},
				"south": {"uv": [0, 11, 16, 13], "rotation": 180, "texture": "#0"},
				"west": {"uv": [0, 11, 16, 13], "rotation": 180, "texture": "#0"},
				"up": {"uv": [0, 11, 16, 13], "rotation": 180, "texture": "#0"},
				"down": {"uv": [0, 11, 16, 13], "rotation": 180, "texture": "#0"}
			}
		},
		{
			"from": [7.82813, 1.625, 7.71875],
			"to": [7.92188, 1.8125, 8.03125],
			"rotation": {"angle": 0, "axis": "y", "origin": [6, 0, 6]},
			"faces": {
				"north": {"uv": [0, 11, 16, 13], "rotation": 180, "texture": "#0"},
				"east": {"uv": [0, 11, 16, 13], "rotation": 180, "texture": "#0"},
				"south": {"uv": [0, 11, 16, 13], "rotation": 180, "texture": "#0"},
				"west": {"uv": [0, 11, 16, 13], "rotation": 180, "texture": "#0"},
				"up": {"uv": [0, 11, 16, 13], "rotation": 180, "texture": "#0"},
				"down": {"uv": [0, 11, 16, 13], "rotation": 180, "texture": "#0"}
			}
		},
		{
			"from": [7.75, 2.75, 9.25],
			"to": [8, 5, 9.5],
			"rotation": {"angle": 0, "axis": "y", "origin": [6, 0, 6]},
			"faces": {
				"north": {"uv": [0, 11, 16, 13], "rotation": 180, "texture": "#0"},
				"east": {"uv": [0, 11, 16, 13], "rotation": 180, "texture": "#0"},
				"south": {"uv": [0, 11, 16, 13], "rotation": 180, "texture": "#0"},
				"west": {"uv": [0, 11, 16, 13], "rotation": 180, "texture": "#0"},
				"up": {"uv": [0, 11, 16, 13], "rotation": 180, "texture": "#0"},
				"down": {"uv": [0, 11, 16, 13], "rotation": 180, "texture": "#0"}
			}
		},
		{
			"from": [7.75, 2.75, 6.25],
			"to": [8, 5, 6.5],
			"rotation": {"angle": 0, "axis": "y", "origin": [6, 0, 6]},
			"faces": {
				"north": {"uv": [0, 11, 16, 13], "rotation": 180, "texture": "#0"},
				"east": {"uv": [0, 11, 16, 13], "rotation": 180, "texture": "#0"},
				"south": {"uv": [0, 11, 16, 13], "rotation": 180, "texture": "#0"},
				"west": {"uv": [0, 11, 16, 13], "rotation": 180, "texture": "#0"},
				"up": {"uv": [0, 11, 16, 13], "rotation": 180, "texture": "#0"},
				"down": {"uv": [0, 11, 16, 13], "rotation": 180, "texture": "#0"}
			}
		},
		{
			"from": [7.8125, 5.25, 6.5625],
			"to": [7.9375, 5.4375, 6.75],
			"rotation": {"angle": 0, "axis": "y", "origin": [6, 0, 6]},
			"faces": {
				"north": {"uv": [0, 11, 16, 13], "rotation": 180, "texture": "#0"},
				"east": {"uv": [0, 11, 16, 13], "rotation": 180, "texture": "#0"},
				"south": {"uv": [0, 11, 16, 13], "rotation": 180, "texture": "#0"},
				"west": {"uv": [0, 11, 16, 13], "rotation": 180, "texture": "#0"},
				"up": {"uv": [0, 11, 16, 13], "rotation": 180, "texture": "#0"},
				"down": {"uv": [0, 11, 16, 13], "rotation": 180, "texture": "#0"}
			}
		},
		{
			"from": [7.8125, 5.25, 9],
			"to": [7.9375, 5.4375, 9.1875],
			"rotation": {"angle": 0, "axis": "y", "origin": [6, 0, 6]},
			"faces": {
				"north": {"uv": [0, 11, 16, 13], "rotation": 180, "texture": "#0"},
				"east": {"uv": [0, 11, 16, 13], "rotation": 180, "texture": "#0"},
				"south": {"uv": [0, 11, 16, 13], "rotation": 180, "texture": "#0"},
				"west": {"uv": [0, 11, 16, 13], "rotation": 180, "texture": "#0"},
				"up": {"uv": [0, 11, 16, 13], "rotation": 180, "texture": "#0"},
				"down": {"uv": [0, 11, 16, 13], "rotation": 180, "texture": "#0"}
			}
		},
		{
			"from": [7.78125, 5.25, 6.75],
			"to": [7.96875, 5.46875, 7.0625],
			"rotation": {"angle": 0, "axis": "y", "origin": [6, 0, 6]},
			"faces": {
				"north": {"uv": [0, 11, 16, 13], "rotation": 180, "texture": "#0"},
				"east": {"uv": [0, 11, 16, 13], "rotation": 180, "texture": "#0"},
				"south": {"uv": [0, 11, 16, 13], "rotation": 180, "texture": "#0"},
				"west": {"uv": [0, 11, 16, 13], "rotation": 180, "texture": "#0"},
				"up": {"uv": [0, 11, 16, 13], "rotation": 180, "texture": "#0"},
				"down": {"uv": [0, 11, 16, 13], "rotation": 180, "texture": "#0"}
			}
		},
		{
			"from": [7.78125, 5.25, 8.6875],
			"to": [7.96875, 5.46875, 9],
			"rotation": {"angle": 0, "axis": "y", "origin": [6, 0, 6]},
			"faces": {
				"north": {"uv": [0, 11, 16, 13], "rotation": 180, "texture": "#0"},
				"east": {"uv": [0, 11, 16, 13], "rotation": 180, "texture": "#0"},
				"south": {"uv": [0, 11, 16, 13], "rotation": 180, "texture": "#0"},
				"west": {"uv": [0, 11, 16, 13], "rotation": 180, "texture": "#0"},
				"up": {"uv": [0, 11, 16, 13], "rotation": 180, "texture": "#0"},
				"down": {"uv": [0, 11, 16, 13], "rotation": 180, "texture": "#0"}
			}
		},
		{
			"from": [8, 9, 7.75],
			"to": [8.25, 12, 8],
			"rotation": {"angle": 0, "axis": "y", "origin": [6, 0, 6]},
			"faces": {
				"north": {"uv": [0, 13, 16, 16], "rotation": 180, "texture": "#0"},
				"east": {"uv": [0, 13, 16, 16], "rotation": 180, "texture": "#0"},
				"south": {"uv": [0, 13, 16, 16], "rotation": 180, "texture": "#0"},
				"west": {"uv": [0, 13, 16, 16], "rotation": 180, "texture": "#0"},
				"up": {"uv": [0, 13, 16, 16], "texture": "#0"},
				"down": {"uv": [0, 13, 16, 16], "texture": "#0"}
			}
		},
		{
			"from": [7.5, 9, 7.75],
			"to": [7.75, 12, 8],
			"rotation": {"angle": 0, "axis": "y", "origin": [6, 0, 6]},
			"faces": {
				"north": {"uv": [0, 13, 16, 16], "rotation": 180, "texture": "#0"},
				"east": {"uv": [0, 13, 16, 16], "rotation": 180, "texture": "#0"},
				"south": {"uv": [0, 13, 16, 16], "rotation": 180, "texture": "#0"},
				"west": {"uv": [0, 13, 16, 16], "rotation": 180, "texture": "#0"},
				"up": {"uv": [0, 13, 16, 16], "texture": "#0"},
				"down": {"uv": [0, 13, 16, 16], "texture": "#0"}
			}
		},
		{
			"from": [7.5, 5.25, 7.75],
			"to": [7.75, 8.625, 8],
			"rotation": {"angle": 0, "axis": "y", "origin": [6, 0, 6]},
			"faces": {
				"north": {"uv": [0, 8, 16, 11], "rotation": 180, "texture": "#0"},
				"east": {"uv": [0, 8, 16, 11], "rotation": 180, "texture": "#0"},
				"south": {"uv": [0, 8, 16, 11], "rotation": 180, "texture": "#0"},
				"west": {"uv": [0, 8, 16, 11], "rotation": 180, "texture": "#0"},
				"up": {"uv": [0, 8, 16, 11], "texture": "#0"},
				"down": {"uv": [0, 8, 16, 11], "texture": "#0"}
			}
		},
		{
			"from": [8, 5.25, 7.75],
			"to": [8.25, 8.625, 8],
			"rotation": {"angle": 0, "axis": "y", "origin": [6, 0, 6]},
			"faces": {
				"north": {"uv": [0, 8, 16, 11], "rotation": 180, "texture": "#0"},
				"east": {"uv": [0, 8, 16, 11], "rotation": 180, "texture": "#0"},
				"south": {"uv": [0, 8, 16, 11], "rotation": 180, "texture": "#0"},
				"west": {"uv": [0, 8, 16, 11], "rotation": 180, "texture": "#0"},
				"up": {"uv": [0, 8, 16, 11], "texture": "#0"},
				"down": {"uv": [0, 8, 16, 11], "texture": "#0"}
			}
		},
		{
			"from": [7.75, 10, 7.75],
			"to": [8, 12.5, 8],
			"rotation": {"angle": 0, "axis": "y", "origin": [6, 0, 6]},
			"faces": {
				"north": {"uv": [0, 0, 16, 8], "texture": "#0"},
				"east": {"uv": [0, 0, 16, 8], "texture": "#0"},
				"south": {"uv": [0, 0, 16, 8], "texture": "#0"},
				"west": {"uv": [0, 0, 16, 8], "texture": "#0"},
				"up": {"uv": [0, 0, 16, 8], "texture": "#0"},
				"down": {"uv": [0, 0, 16, 8], "texture": "#0"}
			}
		},
		{
			"from": [8, 10, 7.75],
			"to": [8.1875, 12.5, 8],
			"rotation": {"angle": 0, "axis": "y", "origin": [6, 0, 6]},
			"faces": {
				"north": {"uv": [0, 0, 16, 8], "texture": "#0"},
				"east": {"uv": [0, 0, 16, 8], "texture": "#0"},
				"south": {"uv": [0, 0, 16, 8], "texture": "#0"},
				"west": {"uv": [0, 0, 16, 8], "texture": "#0"},
				"up": {"uv": [0, 0, 16, 8], "texture": "#0"},
				"down": {"uv": [0, 0, 16, 8], "texture": "#0"}
			}
		},
		{
			"from": [7.5625, 10, 7.75],
			"to": [7.75, 12.5, 8],
			"rotation": {"angle": 0, "axis": "y", "origin": [6, 0, 6]},
			"faces": {
				"north": {"uv": [0, 0, 16, 8], "texture": "#0"},
				"east": {"uv": [0, 0, 16, 8], "texture": "#0"},
				"south": {"uv": [0, 0, 16, 8], "texture": "#0"},
				"west": {"uv": [0, 0, 16, 8], "texture": "#0"},
				"up": {"uv": [0, 0, 16, 8], "texture": "#0"},
				"down": {"uv": [0, 0, 16, 8], "texture": "#0"}
			}
		},
		{
			"from": [7.75, 10, 8],
			"to": [8, 12.5, 8.1875],
			"rotation": {"angle": 0, "axis": "y", "origin": [6, 0, 6]},
			"faces": {
				"north": {"uv": [0, 0, 16, 8], "texture": "#0"},
				"east": {"uv": [0, 0, 16, 8], "texture": "#0"},
				"south": {"uv": [0, 0, 16, 8], "texture": "#0"},
				"west": {"uv": [0, 0, 16, 8], "texture": "#0"},
				"up": {"uv": [0, 0, 16, 8], "texture": "#0"},
				"down": {"uv": [0, 0, 16, 8], "texture": "#0"}
			}
		},
		{
			"from": [7.75, 10, 7.5625],
			"to": [8, 12.5, 7.75],
			"rotation": {"angle": 0, "axis": "y", "origin": [6, 0, 6]},
			"faces": {
				"north": {"uv": [0, 0, 16, 8], "texture": "#0"},
				"east": {"uv": [0, 0, 16, 8], "texture": "#0"},
				"south": {"uv": [0, 0, 16, 8], "texture": "#0"},
				"west": {"uv": [0, 0, 16, 8], "texture": "#0"},
				"up": {"uv": [0, 0, 16, 8], "texture": "#0"},
				"down": {"uv": [0, 0, 16, 8], "texture": "#0"}
			}
		},
		{
			"from": [8, 10, 7.625],
			"to": [8.125, 12.5, 7.75],
			"rotation": {"angle": 0, "axis": "y", "origin": [6, 0, 6]},
			"faces": {
				"north": {"uv": [0, 0, 16, 8], "texture": "#0"},
				"east": {"uv": [0, 0, 16, 8], "texture": "#0"},
				"south": {"uv": [0, 0, 16, 8], "texture": "#0"},
				"west": {"uv": [0, 0, 16, 8], "texture": "#0"},
				"up": {"uv": [0, 0, 16, 8], "texture": "#0"},
				"down": {"uv": [0, 0, 16, 8], "texture": "#0"}
			}
		},
		{
			"from": [7.625, 10, 7.625],
			"to": [7.75, 12.5, 7.75],
			"rotation": {"angle": 0, "axis": "y", "origin": [6, 0, 6]},
			"faces": {
				"north": {"uv": [0, 0, 16, 8], "texture": "#0"},
				"east": {"uv": [0, 0, 16, 8], "texture": "#0"},
				"south": {"uv": [0, 0, 16, 8], "texture": "#0"},
				"west": {"uv": [0, 0, 16, 8], "texture": "#0"},
				"up": {"uv": [0, 0, 16, 8], "texture": "#0"},
				"down": {"uv": [0, 0, 16, 8], "texture": "#0"}
			}
		},
		{
			"from": [7.625, 10, 8],
			"to": [7.75, 12.5, 8.125],
			"rotation": {"angle": 0, "axis": "y", "origin": [6, 0, 6]},
			"faces": {
				"north": {"uv": [0, 0, 16, 8], "texture": "#0"},
				"east": {"uv": [0, 0, 16, 8], "texture": "#0"},
				"south": {"uv": [0, 0, 16, 8], "texture": "#0"},
				"west": {"uv": [0, 0, 16, 8], "texture": "#0"},
				"up": {"uv": [0, 0, 16, 8], "texture": "#0"},
				"down": {"uv": [0, 0, 16, 8], "texture": "#0"}
			}
		},
		{
			"from": [8, 10, 8],
			"to": [8.125, 12.5, 8.125],
			"rotation": {"angle": 0, "axis": "y", "origin": [6, 0, 6]},
			"faces": {
				"north": {"uv": [0, 0, 16, 8], "texture": "#0"},
				"east": {"uv": [0, 0, 16, 8], "texture": "#0"},
				"south": {"uv": [0, 0, 16, 8], "texture": "#0"},
				"west": {"uv": [0, 0, 16, 8], "texture": "#0"},
				"up": {"uv": [0, 0, 16, 8], "texture": "#0"},
				"down": {"uv": [0, 0, 16, 8], "texture": "#0"}
			}
		},
		{
			"from": [7.75, 9, 7.5],
			"to": [8, 12, 7.75],
			"rotation": {"angle": 0, "axis": "y", "origin": [6, 0, 6]},
			"faces": {
				"north": {"uv": [0, 11, 16, 13], "rotation": 270, "texture": "#0"},
				"east": {"uv": [0, 11, 16, 13], "rotation": 270, "texture": "#0"},
				"south": {"uv": [0, 11, 16, 13], "rotation": 270, "texture": "#0"},
				"west": {"uv": [0, 11, 16, 13], "rotation": 270, "texture": "#0"},
				"up": {"uv": [0, 11, 16, 13], "rotation": 270, "texture": "#0"},
				"down": {"uv": [0, 11, 16, 13], "rotation": 270, "texture": "#0"}
			}
		},
		{
			"from": [7.75, 9, 8],
			"to": [8, 12, 8.25],
			"rotation": {"angle": 0, "axis": "y", "origin": [6, 0, 6]},
			"faces": {
				"north": {"uv": [0, 11, 16, 13], "rotation": 270, "texture": "#0"},
				"east": {"uv": [0, 11, 16, 13], "rotation": 270, "texture": "#0"},
				"south": {"uv": [0, 11, 16, 13], "rotation": 270, "texture": "#0"},
				"west": {"uv": [0, 11, 16, 13], "rotation": 270, "texture": "#0"},
				"up": {"uv": [0, 11, 16, 13], "rotation": 270, "texture": "#0"},
				"down": {"uv": [0, 11, 16, 13], "rotation": 270, "texture": "#0"}
			}
		},
		{
			"from": [7.75, 5.25, 8],
			"to": [8, 8.625, 8.25],
			"rotation": {"angle": 0, "axis": "y", "origin": [6, 0, 6]},
			"faces": {
				"north": {"uv": [0, 11, 16, 13], "rotation": 270, "texture": "#0"},
				"east": {"uv": [0, 11, 16, 13], "rotation": 270, "texture": "#0"},
				"south": {"uv": [0, 11, 16, 13], "rotation": 270, "texture": "#0"},
				"west": {"uv": [0, 11, 16, 13], "rotation": 270, "texture": "#0"},
				"up": {"uv": [0, 11, 16, 13], "rotation": 270, "texture": "#0"},
				"down": {"uv": [0, 11, 16, 13], "rotation": 270, "texture": "#0"}
			}
		},
		{
			"from": [7.75, 5.25, 7.5],
			"to": [8, 8.625, 7.75],
			"rotation": {"angle": 0, "axis": "y", "origin": [6, 0, 6]},
			"faces": {
				"north": {"uv": [0, 11, 16, 13], "rotation": 270, "texture": "#0"},
				"east": {"uv": [0, 11, 16, 13], "rotation": 270, "texture": "#0"},
				"south": {"uv": [0, 11, 16, 13], "rotation": 270, "texture": "#0"},
				"west": {"uv": [0, 11, 16, 13], "rotation": 270, "texture": "#0"},
				"up": {"uv": [0, 11, 16, 13], "rotation": 270, "texture": "#0"},
				"down": {"uv": [0, 11, 16, 13], "rotation": 270, "texture": "#0"}
			}
		},
		{
			"from": [8, 2.2, 7.3],
			"to": [8.15, 3.7, 8.5],
			"rotation": {"angle": 0, "axis": "y", "origin": [5.6, 5.6, 5.6]},
			"faces": {
				"north": {"uv": [0, 0, 16, 2], "rotation": 270, "texture": "#1"},
				"east": {"uv": [0, 0, 16, 2], "rotation": 180, "texture": "#1"},
				"south": {"uv": [0, 0, 16, 2], "rotation": 90, "texture": "#1"},
				"west": {"uv": [0, 0, 16, 2], "texture": "#1"},
				"up": {"uv": [0, 0, 16, 2], "rotation": 90, "texture": "#1"},
				"down": {"uv": [0, 0, 16, 2], "rotation": 90, "texture": "#1"}
			}
		},
		{
			"from": [8.15, 2.2, 8.35],
			"to": [8.39375, 2.5, 8.5],
			"rotation": {"angle": 0, "axis": "y", "origin": [5.6, 5.6, 5.6]},
			"faces": {
				"north": {"uv": [0, 0, 16, 2], "rotation": 270, "texture": "#1"},
				"east": {"uv": [0, 0, 16, 2], "rotation": 180, "texture": "#1"},
				"south": {"uv": [0, 0, 16, 2], "rotation": 90, "texture": "#1"},
				"west": {"uv": [0, 0, 16, 2], "texture": "#1"},
				"up": {"uv": [0, 0, 16, 2], "rotation": 90, "texture": "#1"},
				"down": {"uv": [0, 0, 16, 2], "rotation": 90, "texture": "#1"}
			}
		},
		{
			"from": [8.15, 3.4, 8.35],
			"to": [8.39375, 3.7, 8.5],
			"rotation": {"angle": 0, "axis": "y", "origin": [5.6, 5.6, 5.6]},
			"faces": {
				"north": {"uv": [0, 0, 16, 2], "rotation": 270, "texture": "#1"},
				"east": {"uv": [0, 0, 16, 2], "rotation": 180, "texture": "#1"},
				"south": {"uv": [0, 0, 16, 2], "rotation": 90, "texture": "#1"},
				"west": {"uv": [0, 0, 16, 2], "texture": "#1"},
				"up": {"uv": [0, 0, 16, 2], "rotation": 90, "texture": "#1"},
				"down": {"uv": [0, 0, 16, 2], "rotation": 90, "texture": "#1"}
			}
		},
		{
			"from": [8.15, 2.8, 8.35],
			"to": [8.39375, 3.1, 8.5],
			"rotation": {"angle": 0, "axis": "y", "origin": [5.6, 5.6, 5.6]},
			"faces": {
				"north": {"uv": [0, 0, 16, 2], "rotation": 270, "texture": "#1"},
				"east": {"uv": [0, 0, 16, 2], "rotation": 180, "texture": "#1"},
				"south": {"uv": [0, 0, 16, 2], "rotation": 90, "texture": "#1"},
				"west": {"uv": [0, 0, 16, 2], "texture": "#1"},
				"up": {"uv": [0, 0, 16, 2], "rotation": 90, "texture": "#1"},
				"down": {"uv": [0, 0, 16, 2], "rotation": 90, "texture": "#1"}
			}
		},
		{
			"from": [8.15, 2.2, 7.3],
			"to": [8.225, 3.7, 8.35],
			"rotation": {"angle": 0, "axis": "y", "origin": [5.6, 5.6, 5.6]},
			"faces": {
				"north": {"uv": [11, 9, 16, 9.5], "rotation": 270, "texture": "#1"},
				"east": {"uv": [11, 2, 16, 7], "rotation": 180, "texture": "#1"},
				"south": {"uv": [11, 9.75, 16, 10.25], "rotation": 90, "texture": "#1"},
				"west": {"uv": [11, 10.75, 16, 16], "texture": "#1"},
				"up": {"uv": [11, 8.25, 16, 8.75], "rotation": 90, "texture": "#1"},
				"down": {"uv": [11, 7.5, 16, 8], "rotation": 90, "texture": "#1"}
			}
		},
		{
			"from": [8.15, 3.1, 8.35],
			"to": [8.225, 3.4, 8.5],
			"rotation": {"angle": 0, "axis": "y", "origin": [5.6, 5.6, 5.6]},
			"faces": {
				"north": {"uv": [11, 9, 16, 9.5], "rotation": 270, "texture": "#1"},
				"east": {"uv": [11, 2, 16, 7], "rotation": 180, "texture": "#1"},
				"south": {"uv": [11, 9.75, 16, 10.25], "rotation": 90, "texture": "#1"},
				"west": {"uv": [11, 10.75, 16, 16], "texture": "#1"},
				"up": {"uv": [11, 8.25, 16, 8.75], "rotation": 90, "texture": "#1"},
				"down": {"uv": [11, 7.5, 16, 8], "rotation": 90, "texture": "#1"}
			}
		},
		{
			"from": [8.15, 2.5, 8.35],
			"to": [8.225, 2.8, 8.5],
			"rotation": {"angle": 0, "axis": "y", "origin": [5.6, 5.6, 5.6]},
			"faces": {
				"north": {"uv": [11, 9, 16, 9.5], "rotation": 270, "texture": "#1"},
				"east": {"uv": [11, 2, 16, 7], "rotation": 180, "texture": "#1"},
				"south": {"uv": [11, 9.75, 16, 10.25], "rotation": 90, "texture": "#1"},
				"west": {"uv": [11, 10.75, 16, 16], "texture": "#1"},
				"up": {"uv": [11, 8.25, 16, 8.75], "rotation": 90, "texture": "#1"},
				"down": {"uv": [11, 7.5, 16, 8], "rotation": 90, "texture": "#1"}
			}
		},
		{
			"from": [8.225, 2.2, 7.3],
			"to": [8.3, 3.7, 8.35],
			"rotation": {"angle": 0, "axis": "y", "origin": [5.6, 5.6, 5.6]},
			"faces": {
				"north": {"uv": [6, 9, 11, 9.5], "rotation": 270, "texture": "#1"},
				"east": {"uv": [6, 2, 11, 7.25], "rotation": 180, "texture": "#1"},
				"south": {"uv": [6, 9.75, 11, 10.25], "rotation": 90, "texture": "#1"},
				"west": {"uv": [6, 10.75, 11, 16], "texture": "#1"},
				"up": {"uv": [6, 8.25, 11, 8.75], "rotation": 90, "texture": "#1"},
				"down": {"uv": [6, 7.5, 11, 8], "rotation": 90, "texture": "#1"}
			}
		},
		{
			"from": [8.225, 2.5, 8.35],
			"to": [8.3, 2.8, 8.5],
			"rotation": {"angle": 0, "axis": "y", "origin": [5.6, 5.6, 5.6]},
			"faces": {
				"north": {"uv": [6, 9, 11, 9.5], "rotation": 270, "texture": "#1"},
				"east": {"uv": [6, 2, 11, 7.25], "rotation": 180, "texture": "#1"},
				"south": {"uv": [6, 9.75, 11, 10.25], "rotation": 90, "texture": "#1"},
				"west": {"uv": [6, 10.75, 11, 16], "texture": "#1"},
				"up": {"uv": [6, 8.25, 11, 8.75], "rotation": 90, "texture": "#1"},
				"down": {"uv": [6, 7.5, 11, 8], "rotation": 90, "texture": "#1"}
			}
		},
		{
			"from": [8.225, 3.1, 8.35],
			"to": [8.3, 3.4, 8.5],
			"rotation": {"angle": 0, "axis": "y", "origin": [5.6, 5.6, 5.6]},
			"faces": {
				"north": {"uv": [6, 9, 11, 9.5], "rotation": 270, "texture": "#1"},
				"east": {"uv": [6, 2, 11, 7.25], "rotation": 180, "texture": "#1"},
				"south": {"uv": [6, 9.75, 11, 10.25], "rotation": 90, "texture": "#1"},
				"west": {"uv": [6, 10.75, 11, 16], "texture": "#1"},
				"up": {"uv": [6, 8.25, 11, 8.75], "rotation": 90, "texture": "#1"},
				"down": {"uv": [6, 7.5, 11, 8], "rotation": 90, "texture": "#1"}
			}
		},
		{
			"from": [8.3, 2.2, 7.3],
			"to": [8.375, 3.7, 8.35],
			"rotation": {"angle": 0, "axis": "y", "origin": [5.6, 5.6, 5.6]},
			"faces": {
				"north": {"uv": [0, 9, 6, 9.5], "rotation": 270, "texture": "#1"},
				"east": {"uv": [0, 2, 6, 7.25], "rotation": 180, "texture": "#1"},
				"south": {"uv": [0, 9.75, 6, 10.25], "rotation": 90, "texture": "#1"},
				"west": {"uv": [0, 10.75, 6, 16], "texture": "#1"},
				"up": {"uv": [0, 8.25, 6, 8.75], "rotation": 90, "texture": "#1"},
				"down": {"uv": [0, 7.5, 6, 8], "rotation": 90, "texture": "#1"}
			}
		},
		{
			"from": [8.3, 2.5, 8.35],
			"to": [8.39375, 2.8, 8.5],
			"rotation": {"angle": 0, "axis": "y", "origin": [5.6, 5.6, 5.6]},
			"faces": {
				"north": {"uv": [0, 9, 6, 9.5], "rotation": 270, "texture": "#1"},
				"east": {"uv": [0, 7.5, 6, 8], "rotation": 180, "texture": "#1"},
				"south": {"uv": [0, 9.75, 6, 10.25], "rotation": 90, "texture": "#1"},
				"west": {"uv": [0, 10.75, 6, 16], "texture": "#1"},
				"up": {"uv": [0, 8.25, 6, 8.75], "rotation": 90, "texture": "#1"},
				"down": {"uv": [0, 7.5, 6, 8], "rotation": 90, "texture": "#1"}
			}
		},
		{
			"from": [8.3, 3.1, 8.35],
			"to": [8.39375, 3.4, 8.5],
			"rotation": {"angle": 0, "axis": "y", "origin": [5.6, 5.6, 5.6]},
			"faces": {
				"north": {"uv": [0, 9, 6, 9.5], "rotation": 270, "texture": "#1"},
				"east": {"uv": [0, 7.5, 6, 8], "rotation": 180, "texture": "#1"},
				"south": {"uv": [0, 9.75, 6, 10.25], "rotation": 90, "texture": "#1"},
				"west": {"uv": [0, 10.75, 6, 16], "texture": "#1"},
				"up": {"uv": [0, 8.25, 6, 8.75], "rotation": 90, "texture": "#1"},
				"down": {"uv": [0, 7.5, 6, 8], "rotation": 90, "texture": "#1"}
			}
		}
	],
	"display": {
		"thirdperson_righthand": {
			"rotation": [0, -180, 0],
			"translation": [0, 12.5, 1.5],
			"scale": [2, 2, 2]
		},
		"thirdperson_lefthand": {
			"translation": [0, 12.5, 1.5],
			"scale": [2, 2, 2]
		},
		"firstperson_righthand": {
			"rotation": [0, -180, -5],
			"translation": [2, 13, 0],
			"scale": [2, 2, 2]
		},
		"firstperson_lefthand": {
			"rotation": [0, 0, 5],
			"translation": [2, 13, 0],
			"scale": [2, 2, 2]
		},
		"ground": {
			"rotation": [0, 0, 90],
			"translation": [-3.5, -2, 0],
			"scale": [2, 2, 2]
		},
		"gui": {
			"rotation": [0, -90, 0],
			"translation": [0, 1.5, 0],
			"scale": [1.25, 1.25, 1.25]
		},
		"fixed": {
			"rotation": [0, 90, 0],
			"translation": [0, 1.75, -1],
			"scale": [1.25, 1.25, 1.25]
		}
	},
	"groups": [
		{
			"name": "hilt",
			"origin": [0, 0, 0],
			"children": [0, 1, 2, 3, 4, 5, 6, 7, 8]
		},
		{
			"name": "tip",
			"origin": [0, 0, 0],
			"children": [9, 10, 11, 12, 13, 14, 15, 16, 17, 18, 19, 20, 21, 22]
		},
		{
			"name": "holder",
			"origin": [8, 8, 8],
			"children": [23, 24, 25, 26, 27, 28, 29, 30, 31, 32, 33, 34, 35, 36, 37, 38, 39, 40, 41, 42, 43]
		},
		{
			"name": "handle",
			"origin": [8, 8, 8],
			"children": [44, 45, 46, 47, 48, 49, 50, 51, 52]
		},
		{
			"name": "spikes",
			"origin": [8, 8, 8],
			"children": [53, 54, 55, 56, 57, 58, 59, 60, 61, 62, 63, 64, 65, 66, 67, 68, 69, 70, 71, 72, 73, 74, 75, 76, 77, 78, 79, 80, 81, 82, 83]
		},
		{
			"name": "connector",
			"origin": [8, 8, 8],
			"children": [84, 85, 86, 87, 88, 89, 90, 91, 92, 93, 94, 95, 96, 97, 98]
		},
		{
			"name": "blades",
			"origin": [8, 8, 8],
			"children": [99, 100, 101, 102, 103, 104, 105, 106, 107, 108, 109, 110, 111, 112, 113, 114, 115, 116, 117, 118]
		},
		{
			"name": "handledetail",
			"origin": [8, 8, 8],
			"children": [119, 120, 121, 122]
		},
		{
			"name": "handle2",
			"origin": [8, 8, 8],
			"children": [123, 124, 125, 126, 127, 128, 129, 130, 131]
		},
		{
			"name": "handledetail2",
			"origin": [8, 8, 8],
			"children": [132, 133, 134, 135]
		},
		{
			"name": "book",
			"origin": [8, 8, 8],
			"children": [
				{
					"name": "casing",
					"origin": [8, 8, 8],
					"children": [136, 137, 138, 139]
				},
				{
					"name": "page2",
					"origin": [8, 8, 8],
					"children": [140, 141, 142]
				},
				{
					"name": "page1",
					"origin": [8, 8, 8],
					"children": [143, 144, 145]
				},
				{
					"name": "cover",
					"origin": [8, 8, 8],
					"children": [146, 147, 148]
				}
			]
		}
	]
}