#Everything that loops with the clock speed settings

function structures:spread/scan
function structures:spread/place
function structures:generate/place_structure
function structures:generate/structure_types
function structures:generate/get_numbers
function structures:generate/lifetime