{
	"credit": "Made with Blockbench",
	"textures": {
		"0": "northernbase:block/dogouken_gekido",
		"particle": "northernbase:block/dogouken_gekido"
	},
	"elements": [
		{
			"from": [7, 0, 7.25],
			"to": [8, 0.25, 7.75],
			"faces": {
				"north": {"uv": [0, 0, 2.5, 8], "texture": "#0"},
				"east": {"uv": [0, 0, 2.5, 8], "texture": "#0"},
				"south": {"uv": [0, 0, 2.5, 8], "texture": "#0"},
				"west": {"uv": [0, 0, 2.5, 8], "texture": "#0"},
				"up": {"uv": [0, 0, 2.5, 8], "texture": "#0"},
				"down": {"uv": [0, 0, 2.5, 8], "texture": "#0"}
			}
		},
		{
			"from": [7, 0.25, 7],
			"to": [8, 0.5, 8],
			"faces": {
				"north": {"uv": [0, 0, 2.5, 8], "texture": "#0"},
				"east": {"uv": [0, 0, 2.5, 8], "texture": "#0"},
				"south": {"uv": [0, 0, 2.5, 8], "texture": "#0"},
				"west": {"uv": [0, 0, 2.5, 8], "texture": "#0"},
				"up": {"uv": [0, 0, 2.5, 8], "texture": "#0"},
				"down": {"uv": [0, 0, 2.5, 8], "texture": "#0"}
			}
		},
		{
			"from": [6.9375, 0.5, 7],
			"to": [8.0625, 1.5, 8],
			"faces": {
				"north": {"uv": [0, 0, 2.5, 5], "texture": "#0"},
				"east": {"uv": [0, 0, 2.5, 5], "texture": "#0"},
				"south": {"uv": [0, 0, 2.5, 5], "texture": "#0"},
				"west": {"uv": [11, 11, 16, 16], "texture": "#0"},
				"up": {"uv": [0, 0, 2.5, 5], "texture": "#0"},
				"down": {"uv": [0, 0, 2.5, 5], "texture": "#0"}
			}
		},
		{
			"from": [7, 0.5, 8],
			"to": [8, 1.5, 8.25],
			"faces": {
				"north": {"uv": [0, 0, 2.5, 8], "texture": "#0"},
				"east": {"uv": [0, 0, 2.5, 8], "texture": "#0"},
				"south": {"uv": [0, 0, 2.5, 8], "texture": "#0"},
				"west": {"uv": [0, 0, 2.5, 8], "texture": "#0"},
				"up": {"uv": [0, 0, 2.5, 8], "texture": "#0"},
				"down": {"uv": [0, 0, 2.5, 8], "texture": "#0"}
			}
		},
		{
			"from": [7, 0.5, 6.75],
			"to": [8, 1.5, 7],
			"faces": {
				"north": {"uv": [0, 0, 2.5, 8], "texture": "#0"},
				"east": {"uv": [0, 0, 2.5, 8], "texture": "#0"},
				"south": {"uv": [0, 0, 2.5, 8], "texture": "#0"},
				"west": {"uv": [0, 0, 2.5, 8], "texture": "#0"},
				"up": {"uv": [0, 0, 2.5, 8], "texture": "#0"},
				"down": {"uv": [0, 0, 2.5, 8], "texture": "#0"}
			}
		},
		{
			"from": [7, 0.75, 6.625],
			"to": [8, 1.25, 6.75],
			"faces": {
				"north": {"uv": [0, 0, 2.5, 8], "texture": "#0"},
				"east": {"uv": [0, 0, 2.5, 8], "texture": "#0"},
				"south": {"uv": [0, 0, 2.5, 8], "texture": "#0"},
				"west": {"uv": [0, 0, 2.5, 8], "texture": "#0"},
				"up": {"uv": [0, 0, 2.5, 8], "texture": "#0"},
				"down": {"uv": [0, 0, 2.5, 8], "texture": "#0"}
			}
		},
		{
			"from": [7, 0.75, 8.25],
			"to": [8, 1.25, 8.375],
			"faces": {
				"north": {"uv": [0, 0, 2.5, 8], "texture": "#0"},
				"east": {"uv": [0, 0, 2.5, 8], "texture": "#0"},
				"south": {"uv": [0, 0, 2.5, 8], "texture": "#0"},
				"west": {"uv": [0, 0, 2.5, 8], "texture": "#0"},
				"up": {"uv": [0, 0, 2.5, 8], "texture": "#0"},
				"down": {"uv": [0, 0, 2.5, 8], "texture": "#0"}
			}
		},
		{
			"from": [7, 1.5, 7],
			"to": [8, 1.75, 8],
			"faces": {
				"north": {"uv": [0, 0, 2.5, 8], "texture": "#0"},
				"east": {"uv": [0, 0, 2.5, 8], "texture": "#0"},
				"south": {"uv": [0, 0, 2.5, 8], "texture": "#0"},
				"west": {"uv": [0, 0, 2.5, 8], "texture": "#0"},
				"up": {"uv": [0, 0, 2.5, 8], "texture": "#0"},
				"down": {"uv": [0, 0, 2.5, 8], "texture": "#0"}
			}
		},
		{
			"from": [7, 1.75, 7.25],
			"to": [8, 2, 7.75],
			"faces": {
				"north": {"uv": [0, 0, 2.5, 8], "texture": "#0"},
				"east": {"uv": [0, 0, 2.5, 8], "texture": "#0"},
				"south": {"uv": [0, 0, 2.5, 8], "texture": "#0"},
				"west": {"uv": [0, 0, 2.5, 8], "texture": "#0"},
				"up": {"uv": [0, 0, 2.5, 8], "texture": "#0"},
				"down": {"uv": [0, 0, 2.5, 8], "texture": "#0"}
			}
		},
		{
			"from": [7.125, 2, 7.125],
			"to": [7.875, 5.5, 7.875],
			"faces": {
				"north": {"uv": [5.5, 0, 8, 9.5], "texture": "#0"},
				"east": {"uv": [5.5, 0, 8, 9.5], "texture": "#0"},
				"south": {"uv": [5.5, 0, 8, 9.5], "texture": "#0"},
				"west": {"uv": [5.5, 0, 8, 9.5], "texture": "#0"},
				"up": {"uv": [5.5, 0, 8, 9.5], "texture": "#0"},
				"down": {"uv": [5.5, 0, 8, 9.5], "texture": "#0"}
			}
		},
		{
			"from": [7.0625, 2, 7.25],
			"to": [7.125, 5.5, 7.75],
			"faces": {
				"north": {"uv": [5.5, 0, 8, 9.5], "texture": "#0"},
				"east": {"uv": [5.5, 0, 8, 9.5], "texture": "#0"},
				"south": {"uv": [5.5, 0, 8, 9.5], "texture": "#0"},
				"west": {"uv": [5.5, 0, 8, 9.5], "texture": "#0"},
				"up": {"uv": [5.5, 0, 8, 9.5], "texture": "#0"},
				"down": {"uv": [5.5, 0, 8, 9.5], "texture": "#0"}
			}
		},
		{
			"from": [7.875, 2, 7.25],
			"to": [7.9375, 5.5, 7.75],
			"faces": {
				"north": {"uv": [5.5, 0, 8, 9.5], "texture": "#0"},
				"east": {"uv": [5.5, 0, 8, 9.5], "texture": "#0"},
				"south": {"uv": [5.5, 0, 8, 9.5], "texture": "#0"},
				"west": {"uv": [5.5, 0, 8, 9.5], "texture": "#0"},
				"up": {"uv": [5.5, 0, 8, 9.5], "texture": "#0"},
				"down": {"uv": [5.5, 0, 8, 9.5], "texture": "#0"}
			}
		},
		{
			"from": [7.125, 1.75, 7.75],
			"to": [7.875, 2, 7.875],
			"faces": {
				"north": {"uv": [5.5, 0, 8, 9.5], "texture": "#0"},
				"east": {"uv": [5.5, 0, 8, 9.5], "texture": "#0"},
				"south": {"uv": [5.5, 0, 8, 9.5], "texture": "#0"},
				"west": {"uv": [5.5, 0, 8, 9.5], "texture": "#0"},
				"up": {"uv": [5.5, 0, 8, 9.5], "texture": "#0"},
				"down": {"uv": [5.5, 0, 8, 9.5], "texture": "#0"}
			}
		},
		{
			"from": [7.25, 1.75, 7.875],
			"to": [7.75, 5.5, 7.9375],
			"faces": {
				"north": {"uv": [5.5, 0, 8, 9.5], "texture": "#0"},
				"east": {"uv": [5.5, 0, 8, 9.5], "texture": "#0"},
				"south": {"uv": [5.5, 0, 8, 9.5], "texture": "#0"},
				"west": {"uv": [5.5, 0, 8, 9.5], "texture": "#0"},
				"up": {"uv": [5.5, 0, 8, 9.5], "texture": "#0"},
				"down": {"uv": [5.5, 0, 8, 9.5], "texture": "#0"}
			}
		},
		{
			"from": [7.25, 1.75, 7.0625],
			"to": [7.75, 5.5, 7.125],
			"faces": {
				"north": {"uv": [5.5, 0, 8, 9.5], "texture": "#0"},
				"east": {"uv": [5.5, 0, 8, 9.5], "texture": "#0"},
				"south": {"uv": [5.5, 0, 8, 9.5], "texture": "#0"},
				"west": {"uv": [5.5, 0, 8, 9.5], "texture": "#0"},
				"up": {"uv": [5.5, 0, 8, 9.5], "texture": "#0"},
				"down": {"uv": [5.5, 0, 8, 9.5], "texture": "#0"}
			}
		},
		{
			"from": [7.125, 1.75, 7.125],
			"to": [7.875, 2, 7.25],
			"faces": {
				"north": {"uv": [5.5, 0, 8, 9.5], "texture": "#0"},
				"east": {"uv": [5.5, 0, 8, 9.5], "texture": "#0"},
				"south": {"uv": [5.5, 0, 8, 9.5], "texture": "#0"},
				"west": {"uv": [5.5, 0, 8, 9.5], "texture": "#0"},
				"up": {"uv": [5.5, 0, 8, 9.5], "texture": "#0"},
				"down": {"uv": [5.5, 0, 8, 9.5], "texture": "#0"}
			}
		},
		{
			"from": [7, 5.5, 7],
			"to": [7.75, 6.5, 8],
			"faces": {
				"north": {"uv": [2.5, 0, 3.5, 6.5], "texture": "#0"},
				"east": {"uv": [2.5, 0, 3.5, 6.5], "texture": "#0"},
				"south": {"uv": [2.5, 0, 3.5, 6.5], "texture": "#0"},
				"west": {"uv": [2.5, 0, 3.5, 6.5], "texture": "#0"},
				"up": {"uv": [2.5, 0, 3.5, 6.5], "texture": "#0"},
				"down": {"uv": [2.5, 0, 3.5, 6.5], "texture": "#0"}
			}
		},
		{
			"from": [7, 9.5, 6.25],
			"to": [8, 10, 8.75],
			"faces": {
				"north": {"uv": [2.5, 0, 3.5, 6.5], "texture": "#0"},
				"east": {"uv": [2.5, 0, 3.5, 6.5], "texture": "#0"},
				"south": {"uv": [2.5, 0, 3.5, 6.5], "texture": "#0"},
				"west": {"uv": [2.5, 0, 3.5, 6.5], "texture": "#0"},
				"up": {"uv": [2.5, 0, 3.5, 6.5], "texture": "#0"},
				"down": {"uv": [2.5, 0, 3.5, 6.5], "texture": "#0"}
			}
		},
		{
			"from": [7.75, 5.5, 7],
			"to": [8.125, 9.5, 8],
			"faces": {
				"north": {"uv": [2.5, 0, 3.5, 6.5], "texture": "#0"},
				"east": {"uv": [2.5, 0, 3.5, 6.5], "texture": "#0"},
				"south": {"uv": [2.5, 0, 3.5, 6.5], "texture": "#0"},
				"west": {"uv": [2.5, 0, 3.5, 6.5], "texture": "#0"},
				"up": {"uv": [2.5, 0, 3.5, 6.5], "texture": "#0"},
				"down": {"uv": [2.5, 0, 3.5, 6.5], "texture": "#0"}
			}
		},
		{
			"from": [7.75, 5.9375, 6.5],
			"to": [8.125, 9.5, 7],
			"faces": {
				"north": {"uv": [2.5, 0, 3.5, 6.5], "texture": "#0"},
				"east": {"uv": [2.5, 0, 3.5, 6.5], "texture": "#0"},
				"south": {"uv": [2.5, 0, 3.5, 6.5], "texture": "#0"},
				"west": {"uv": [2.5, 0, 3.5, 6.5], "texture": "#0"},
				"up": {"uv": [2.5, 0, 3.5, 6.5], "texture": "#0"},
				"down": {"uv": [2.5, 0, 3.5, 6.5], "texture": "#0"}
			}
		},
		{
			"from": [7.75, 5.9375, 8],
			"to": [8.125, 9.5, 8.5],
			"faces": {
				"north": {"uv": [2.5, 0, 3.5, 6.5], "texture": "#0"},
				"east": {"uv": [2.5, 0, 3.5, 6.5], "texture": "#0"},
				"south": {"uv": [2.5, 0, 3.5, 6.5], "texture": "#0"},
				"west": {"uv": [2.5, 0, 3.5, 6.5], "texture": "#0"},
				"up": {"uv": [2.5, 0, 3.5, 6.5], "texture": "#0"},
				"down": {"uv": [2.5, 0, 3.5, 6.5], "texture": "#0"}
			}
		},
		{
			"from": [7, 5.75, 8],
			"to": [8, 6.5, 8.75],
			"faces": {
				"north": {"uv": [2.5, 0, 3.5, 6.5], "texture": "#0"},
				"east": {"uv": [2.5, 0, 3.5, 6.5], "texture": "#0"},
				"south": {"uv": [2.5, 0, 3.5, 6.5], "texture": "#0"},
				"west": {"uv": [2.5, 0, 3.5, 6.5], "texture": "#0"},
				"up": {"uv": [2.5, 0, 3.5, 6.5], "texture": "#0"},
				"down": {"uv": [2.5, 0, 3.5, 6.5], "texture": "#0"}
			}
		},
		{
			"from": [7, 6.5, 8.5],
			"to": [8, 9.5, 8.75],
			"faces": {
				"north": {"uv": [2.5, 0, 3.5, 6.5], "texture": "#0"},
				"east": {"uv": [2.5, 0, 3.5, 6.5], "texture": "#0"},
				"south": {"uv": [2.5, 0, 3.5, 6.5], "texture": "#0"},
				"west": {"uv": [2.5, 0, 3.5, 6.5], "texture": "#0"},
				"up": {"uv": [2.5, 0, 3.5, 6.5], "texture": "#0"},
				"down": {"uv": [2.5, 0, 3.5, 6.5], "texture": "#0"}
			}
		},
		{
			"from": [7, 6, 8.75],
			"to": [8, 12.5, 9],
			"faces": {
				"north": {"uv": [2.5, 0, 3.5, 6.5], "texture": "#0"},
				"east": {"uv": [2.5, 0, 3.5, 6.5], "texture": "#0"},
				"south": {"uv": [2.5, 0, 3.5, 6.5], "texture": "#0"},
				"west": {"uv": [2.5, 0, 3.5, 6.5], "texture": "#0"},
				"up": {"uv": [2.5, 0, 3.5, 6.5], "texture": "#0"},
				"down": {"uv": [2.5, 0, 3.5, 6.5], "texture": "#0"}
			}
		},
		{
			"from": [7, 10, 8.5],
			"to": [8, 13.5, 8.75],
			"faces": {
				"north": {"uv": [2.5, 0, 3.5, 6.5], "texture": "#0"},
				"east": {"uv": [2.5, 0, 3.5, 6.5], "texture": "#0"},
				"south": {"uv": [2.5, 0, 3.5, 6.5], "texture": "#0"},
				"west": {"uv": [2.5, 0, 3.5, 6.5], "texture": "#0"},
				"up": {"uv": [2.5, 0, 3.5, 6.5], "texture": "#0"},
				"down": {"uv": [2.5, 0, 3.5, 6.5], "texture": "#0"}
			}
		},
		{
			"from": [7, 6.5, 6.25],
			"to": [8, 9.5, 6.5],
			"faces": {
				"north": {"uv": [2.5, 0, 3.5, 6.5], "texture": "#0"},
				"east": {"uv": [2.5, 0, 3.5, 6.5], "texture": "#0"},
				"south": {"uv": [2.5, 0, 3.5, 6.5], "texture": "#0"},
				"west": {"uv": [2.5, 0, 3.5, 6.5], "texture": "#0"},
				"up": {"uv": [2.5, 0, 3.5, 6.5], "texture": "#0"},
				"down": {"uv": [2.5, 0, 3.5, 6.5], "texture": "#0"}
			}
		},
		{
			"from": [7, 5.8125, 5.9375],
			"to": [8, 9.875, 6.25],
			"faces": {
				"north": {"uv": [2.5, 0, 3.5, 6.5], "texture": "#0"},
				"east": {"uv": [2.5, 0, 3.5, 6.5], "texture": "#0"},
				"south": {"uv": [2.5, 0, 3.5, 6.5], "texture": "#0"},
				"west": {"uv": [2.5, 0, 3.5, 6.5], "texture": "#0"},
				"up": {"uv": [2.5, 0, 3.5, 6.5], "texture": "#0"},
				"down": {"uv": [2.5, 0, 3.5, 6.5], "texture": "#0"}
			}
		},
		{
			"from": [7, 5.75, 6.25],
			"to": [8, 6.5, 7],
			"faces": {
				"north": {"uv": [2.5, 0, 3.5, 6.5], "texture": "#0"},
				"east": {"uv": [2.5, 0, 3.5, 6.5], "texture": "#0"},
				"south": {"uv": [2.5, 0, 3.5, 6.5], "texture": "#0"},
				"west": {"uv": [2.5, 0, 3.5, 6.5], "texture": "#0"},
				"up": {"uv": [2.5, 0, 3.5, 6.5], "texture": "#0"},
				"down": {"uv": [2.5, 0, 3.5, 6.5], "texture": "#0"}
			}
		},
		{
			"from": [7.125, 10, 7.5],
			"to": [7.875, 22, 8.5],
			"faces": {
				"north": {"uv": [0, 0, 2.5, 8], "texture": "#0"},
				"east": {"uv": [0, 0, 2.5, 8], "texture": "#0"},
				"south": {"uv": [0, 0, 2.5, 8], "texture": "#0"},
				"west": {"uv": [0, 0, 2.5, 8], "texture": "#0"},
				"up": {"uv": [0, 0, 2.5, 8], "texture": "#0"},
				"down": {"uv": [0, 0, 2.5, 8], "texture": "#0"}
			}
		},
		{
			"from": [7.25, 10, 7.1875],
			"to": [7.75, 22, 7.5],
			"faces": {
				"north": {"uv": [0, 0, 2.5, 8], "texture": "#0"},
				"east": {"uv": [0, 0, 2.5, 8], "texture": "#0"},
				"south": {"uv": [0, 0, 2.5, 8], "texture": "#0"},
				"west": {"uv": [0, 0, 2.5, 8], "texture": "#0"},
				"up": {"uv": [0, 0, 2.5, 8], "texture": "#0"},
				"down": {"uv": [0, 0, 2.5, 8], "texture": "#0"}
			}
		},
		{
			"from": [7.25, 22, 7],
			"to": [7.75, 22.25, 8.5],
			"faces": {
				"north": {"uv": [0, 0, 2.5, 8], "texture": "#0"},
				"east": {"uv": [0, 0, 2.5, 8], "texture": "#0"},
				"south": {"uv": [0, 0, 2.5, 8], "texture": "#0"},
				"west": {"uv": [0, 0, 2.5, 8], "texture": "#0"},
				"up": {"uv": [0, 0, 2.5, 8], "texture": "#0"},
				"down": {"uv": [0, 0, 2.5, 8], "texture": "#0"}
			}
		},
		{
			"from": [7.25, 21.75, 6.25],
			"to": [7.75, 22, 7.1875],
			"faces": {
				"north": {"uv": [0, 0, 2.5, 8], "texture": "#0"},
				"east": {"uv": [0, 0, 2.5, 8], "texture": "#0"},
				"south": {"uv": [0, 0, 2.5, 8], "texture": "#0"},
				"west": {"uv": [0, 0, 2.5, 8], "texture": "#0"},
				"up": {"uv": [0, 0, 2.5, 8], "texture": "#0"},
				"down": {"uv": [0, 0, 2.5, 8], "texture": "#0"}
			}
		},
		{
			"from": [7.25, 21.5, 6],
			"to": [7.75, 21.75, 6.9375],
			"faces": {
				"north": {"uv": [0, 0, 2.5, 8], "texture": "#0"},
				"east": {"uv": [0, 0, 2.5, 8], "texture": "#0"},
				"south": {"uv": [0, 0, 2.5, 8], "texture": "#0"},
				"west": {"uv": [0, 0, 2.5, 8], "texture": "#0"},
				"up": {"uv": [0, 0, 2.5, 8], "texture": "#0"},
				"down": {"uv": [0, 0, 2.5, 8], "texture": "#0"}
			}
		},
		{
			"from": [7.25, 21.25, 5.75],
			"to": [7.75, 21.5, 6.6875],
			"faces": {
				"north": {"uv": [0, 0, 2.5, 8], "texture": "#0"},
				"east": {"uv": [0, 0, 2.5, 8], "texture": "#0"},
				"south": {"uv": [0, 0, 2.5, 8], "texture": "#0"},
				"west": {"uv": [0, 0, 2.5, 8], "texture": "#0"},
				"up": {"uv": [0, 0, 2.5, 8], "texture": "#0"},
				"down": {"uv": [0, 0, 2.5, 8], "texture": "#0"}
			}
		},
		{
			"from": [7.25, 18, 6.5],
			"to": [7.75, 18.3125, 7.1875],
			"faces": {
				"north": {"uv": [0, 0, 2.5, 8], "texture": "#0"},
				"east": {"uv": [0, 0, 2.5, 8], "texture": "#0"},
				"south": {"uv": [0, 0, 2.5, 8], "texture": "#0"},
				"west": {"uv": [0, 0, 2.5, 8], "texture": "#0"},
				"up": {"uv": [0, 0, 2.5, 8], "texture": "#0"},
				"down": {"uv": [0, 0, 2.5, 8], "texture": "#0"}
			}
		},
		{
			"from": [7.25, 15.5, 6.1875],
			"to": [7.75, 15.8125, 6.875],
			"faces": {
				"north": {"uv": [0, 0, 2.5, 8], "texture": "#0"},
				"east": {"uv": [0, 0, 2.5, 8], "texture": "#0"},
				"south": {"uv": [0, 0, 2.5, 8], "texture": "#0"},
				"west": {"uv": [0, 0, 2.5, 8], "texture": "#0"},
				"up": {"uv": [0, 0, 2.5, 8], "texture": "#0"},
				"down": {"uv": [0, 0, 2.5, 8], "texture": "#0"}
			}
		},
		{
			"from": [7.25, 18.3125, 6.1875],
			"to": [7.75, 18.625, 6.875],
			"faces": {
				"north": {"uv": [0, 0, 2.5, 8], "texture": "#0"},
				"east": {"uv": [0, 0, 2.5, 8], "texture": "#0"},
				"south": {"uv": [0, 0, 2.5, 8], "texture": "#0"},
				"west": {"uv": [0, 0, 2.5, 8], "texture": "#0"},
				"up": {"uv": [0, 0, 2.5, 8], "texture": "#0"},
				"down": {"uv": [0, 0, 2.5, 8], "texture": "#0"}
			}
		},
		{
			"from": [7.25, 15.8125, 6.5],
			"to": [7.75, 16.125, 7.1875],
			"faces": {
				"north": {"uv": [0, 0, 2.5, 8], "texture": "#0"},
				"east": {"uv": [0, 0, 2.5, 8], "texture": "#0"},
				"south": {"uv": [0, 0, 2.5, 8], "texture": "#0"},
				"west": {"uv": [0, 0, 2.5, 8], "texture": "#0"},
				"up": {"uv": [0, 0, 2.5, 8], "texture": "#0"},
				"down": {"uv": [0, 0, 2.5, 8], "texture": "#0"}
			}
		},
		{
			"from": [7.25, 21, 5.75],
			"to": [7.75, 21.25, 6.4375],
			"faces": {
				"north": {"uv": [0, 0, 2.5, 8], "texture": "#0"},
				"east": {"uv": [0, 0, 2.5, 8], "texture": "#0"},
				"south": {"uv": [0, 0, 2.5, 8], "texture": "#0"},
				"west": {"uv": [0, 0, 2.5, 8], "texture": "#0"},
				"up": {"uv": [0, 0, 2.5, 8], "texture": "#0"},
				"down": {"uv": [0, 0, 2.5, 8], "texture": "#0"}
			}
		},
		{
			"from": [7.25, 11.75, 5.75],
			"to": [7.75, 21, 6.1875],
			"faces": {
				"north": {"uv": [0, 0, 2.5, 8], "texture": "#0"},
				"east": {"uv": [0, 0, 2.5, 8], "texture": "#0"},
				"south": {"uv": [0, 0, 2.5, 8], "texture": "#0"},
				"west": {"uv": [0, 0, 2.5, 8], "texture": "#0"},
				"up": {"uv": [0, 0, 2.5, 8], "texture": "#0"},
				"down": {"uv": [0, 0, 2.5, 8], "texture": "#0"}
			}
		},
		{
			"from": [7.25, 12.375, 5.4375],
			"to": [7.75, 21, 5.75],
			"faces": {
				"north": {"uv": [0, 0, 2.5, 8], "texture": "#0"},
				"east": {"uv": [0, 0, 2.5, 8], "texture": "#0"},
				"south": {"uv": [0, 0, 2.5, 8], "texture": "#0"},
				"west": {"uv": [0, 0, 2.5, 8], "texture": "#0"},
				"up": {"uv": [0, 0, 2.5, 8], "texture": "#0"},
				"down": {"uv": [0, 0, 2.5, 8], "texture": "#0"}
			}
		},
		{
			"from": [7.25, 10.75, 6.1875],
			"to": [7.75, 12.25, 6.625],
			"faces": {
				"north": {"uv": [0, 0, 2.5, 8], "texture": "#0"},
				"east": {"uv": [0, 0, 2.5, 8], "texture": "#0"},
				"south": {"uv": [0, 0, 2.5, 8], "texture": "#0"},
				"west": {"uv": [0, 0, 2.5, 8], "texture": "#0"},
				"up": {"uv": [0, 0, 2.5, 8], "texture": "#0"},
				"down": {"uv": [0, 0, 2.5, 8], "texture": "#0"}
			}
		},
		{
			"from": [7.25, 10.5, 6.625],
			"to": [7.75, 12, 6.9375],
			"faces": {
				"north": {"uv": [0, 0, 2.5, 8], "texture": "#0"},
				"east": {"uv": [0, 0, 2.5, 8], "texture": "#0"},
				"south": {"uv": [0, 0, 2.5, 8], "texture": "#0"},
				"west": {"uv": [0, 0, 2.5, 8], "texture": "#0"},
				"up": {"uv": [0, 0, 2.5, 8], "texture": "#0"},
				"down": {"uv": [0, 0, 2.5, 8], "texture": "#0"}
			}
		},
		{
			"from": [7.25, 10.25, 6.9375],
			"to": [7.75, 11.75, 7.1875],
			"faces": {
				"north": {"uv": [0, 0, 2.5, 8], "texture": "#0"},
				"east": {"uv": [0, 0, 2.5, 8], "texture": "#0"},
				"south": {"uv": [0, 0, 2.5, 8], "texture": "#0"},
				"west": {"uv": [0, 0, 2.5, 8], "texture": "#0"},
				"up": {"uv": [0, 0, 2.5, 8], "texture": "#0"},
				"down": {"uv": [0, 0, 2.5, 8], "texture": "#0"}
			}
		},
		{
			"from": [7.25, 12.375, 4.9375],
			"to": [7.75, 21, 5.4375],
			"faces": {
				"north": {"uv": [8, 0, 10, 7.5], "texture": "#0"},
				"east": {"uv": [8, 0, 10, 7.5], "texture": "#0"},
				"south": {"uv": [8, 0, 10, 7.5], "texture": "#0"},
				"west": {"uv": [8, 0, 10, 7.5], "texture": "#0"},
				"up": {"uv": [8, 0, 10, 7.5], "texture": "#0"},
				"down": {"uv": [8, 0, 10, 7.5], "texture": "#0"}
			}
		},
		{
			"from": [7.375, 12.375, 4.6875],
			"to": [7.625, 21, 4.9375],
			"faces": {
				"north": {"uv": [8, 0, 10, 7.5], "texture": "#0"},
				"east": {"uv": [8, 0, 10, 7.5], "texture": "#0"},
				"south": {"uv": [8, 0, 10, 7.5], "texture": "#0"},
				"west": {"uv": [8, 0, 10, 7.5], "texture": "#0"},
				"up": {"uv": [8, 0, 10, 7.5], "texture": "#0"},
				"down": {"uv": [8, 0, 10, 7.5], "texture": "#0"}
			}
		},
		{
			"from": [7.25, 11.75, 5.25],
			"to": [7.75, 12.375, 5.75],
			"faces": {
				"north": {"uv": [8, 0, 10, 7.5], "texture": "#0"},
				"east": {"uv": [8, 0, 10, 7.5], "texture": "#0"},
				"south": {"uv": [8, 0, 10, 7.5], "texture": "#0"},
				"west": {"uv": [8, 0, 10, 7.5], "texture": "#0"},
				"up": {"uv": [8, 0, 10, 7.5], "texture": "#0"},
				"down": {"uv": [8, 0, 10, 7.5], "texture": "#0"}
			}
		},
		{
			"from": [7.375, 11.75, 4.75],
			"to": [7.625, 12.375, 5.25],
			"faces": {
				"north": {"uv": [8, 0, 10, 7.5], "texture": "#0"},
				"east": {"uv": [8, 0, 10, 7.5], "texture": "#0"},
				"south": {"uv": [8, 0, 10, 7.5], "texture": "#0"},
				"west": {"uv": [8, 0, 10, 7.5], "texture": "#0"},
				"up": {"uv": [8, 0, 10, 7.5], "texture": "#0"},
				"down": {"uv": [8, 0, 10, 7.5], "texture": "#0"}
			}
		},
		{
			"from": [7.25, 21, 5.25],
			"to": [7.75, 21.5, 5.75],
			"faces": {
				"north": {"uv": [8, 0, 10, 7.5], "texture": "#0"},
				"east": {"uv": [8, 0, 10, 7.5], "texture": "#0"},
				"south": {"uv": [8, 0, 10, 7.5], "texture": "#0"},
				"west": {"uv": [8, 0, 10, 7.5], "texture": "#0"},
				"up": {"uv": [8, 0, 10, 7.5], "texture": "#0"},
				"down": {"uv": [8, 0, 10, 7.5], "texture": "#0"}
			}
		},
		{
			"from": [7.375, 21, 4.9375],
			"to": [7.625, 21.5, 5.25],
			"faces": {
				"north": {"uv": [8, 0, 10, 7.5], "texture": "#0"},
				"east": {"uv": [8, 0, 10, 7.5], "texture": "#0"},
				"south": {"uv": [8, 0, 10, 7.5], "texture": "#0"},
				"west": {"uv": [8, 0, 10, 7.5], "texture": "#0"},
				"up": {"uv": [8, 0, 10, 7.5], "texture": "#0"},
				"down": {"uv": [8, 0, 10, 7.5], "texture": "#0"}
			}
		},
		{
			"from": [7.375, 21.5, 5.25],
			"to": [7.625, 21.75, 5.5],
			"faces": {
				"north": {"uv": [8, 0, 10, 7.5], "texture": "#0"},
				"east": {"uv": [8, 0, 10, 7.5], "texture": "#0"},
				"south": {"uv": [8, 0, 10, 7.5], "texture": "#0"},
				"west": {"uv": [8, 0, 10, 7.5], "texture": "#0"},
				"up": {"uv": [8, 0, 10, 7.5], "texture": "#0"},
				"down": {"uv": [8, 0, 10, 7.5], "texture": "#0"}
			}
		},
		{
			"from": [7.25, 21.5, 5.5],
			"to": [7.75, 21.75, 6],
			"faces": {
				"north": {"uv": [8, 0, 10, 7.5], "texture": "#0"},
				"east": {"uv": [8, 0, 10, 7.5], "texture": "#0"},
				"south": {"uv": [8, 0, 10, 7.5], "texture": "#0"},
				"west": {"uv": [8, 0, 10, 7.5], "texture": "#0"},
				"up": {"uv": [8, 0, 10, 7.5], "texture": "#0"},
				"down": {"uv": [8, 0, 10, 7.5], "texture": "#0"}
			}
		},
		{
			"from": [7.375, 21.75, 5.5],
			"to": [7.625, 22, 5.75],
			"faces": {
				"north": {"uv": [8, 0, 10, 7.5], "texture": "#0"},
				"east": {"uv": [8, 0, 10, 7.5], "texture": "#0"},
				"south": {"uv": [8, 0, 10, 7.5], "texture": "#0"},
				"west": {"uv": [8, 0, 10, 7.5], "texture": "#0"},
				"up": {"uv": [8, 0, 10, 7.5], "texture": "#0"},
				"down": {"uv": [8, 0, 10, 7.5], "texture": "#0"}
			}
		},
		{
			"from": [7.25, 21.75, 5.75],
			"to": [7.75, 22, 6.25],
			"faces": {
				"north": {"uv": [8, 0, 10, 7.5], "texture": "#0"},
				"east": {"uv": [8, 0, 10, 7.5], "texture": "#0"},
				"south": {"uv": [8, 0, 10, 7.5], "texture": "#0"},
				"west": {"uv": [8, 0, 10, 7.5], "texture": "#0"},
				"up": {"uv": [8, 0, 10, 7.5], "texture": "#0"},
				"down": {"uv": [8, 0, 10, 7.5], "texture": "#0"}
			}
		},
		{
			"from": [7.375, 22, 5.75],
			"to": [7.625, 22.25, 6],
			"faces": {
				"north": {"uv": [8, 0, 10, 7.5], "texture": "#0"},
				"east": {"uv": [8, 0, 10, 7.5], "texture": "#0"},
				"south": {"uv": [8, 0, 10, 7.5], "texture": "#0"},
				"west": {"uv": [8, 0, 10, 7.5], "texture": "#0"},
				"up": {"uv": [8, 0, 10, 7.5], "texture": "#0"},
				"down": {"uv": [8, 0, 10, 7.5], "texture": "#0"}
			}
		},
		{
			"from": [7.25, 22, 6],
			"to": [7.75, 22.25, 7],
			"faces": {
				"north": {"uv": [8, 0, 10, 7.5], "texture": "#0"},
				"east": {"uv": [8, 0, 10, 7.5], "texture": "#0"},
				"south": {"uv": [8, 0, 10, 7.5], "texture": "#0"},
				"west": {"uv": [8, 0, 10, 7.5], "texture": "#0"},
				"up": {"uv": [8, 0, 10, 7.5], "texture": "#0"},
				"down": {"uv": [8, 0, 10, 7.5], "texture": "#0"}
			}
		},
		{
			"from": [7.375, 22.25, 6],
			"to": [7.625, 22.5, 6.5],
			"faces": {
				"north": {"uv": [8, 0, 10, 7.5], "texture": "#0"},
				"east": {"uv": [8, 0, 10, 7.5], "texture": "#0"},
				"south": {"uv": [8, 0, 10, 7.5], "texture": "#0"},
				"west": {"uv": [8, 0, 10, 7.5], "texture": "#0"},
				"up": {"uv": [8, 0, 10, 7.5], "texture": "#0"},
				"down": {"uv": [8, 0, 10, 7.5], "texture": "#0"}
			}
		},
		{
			"from": [7.25, 22.25, 6.5],
			"to": [7.75, 22.5, 8.5],
			"faces": {
				"north": {"uv": [8, 0, 10, 7.5], "texture": "#0"},
				"east": {"uv": [8, 0, 10, 7.5], "texture": "#0"},
				"south": {"uv": [8, 0, 10, 7.5], "texture": "#0"},
				"west": {"uv": [8, 0, 10, 7.5], "texture": "#0"},
				"up": {"uv": [8, 0, 10, 7.5], "texture": "#0"},
				"down": {"uv": [8, 0, 10, 7.5], "texture": "#0"}
			}
		},
		{
			"from": [7.375, 22.5, 6.5],
			"to": [7.625, 22.75, 8.5],
			"faces": {
				"north": {"uv": [8, 0, 10, 7.5], "texture": "#0"},
				"east": {"uv": [8, 0, 10, 7.5], "texture": "#0"},
				"south": {"uv": [8, 0, 10, 7.5], "texture": "#0"},
				"west": {"uv": [8, 0, 10, 7.5], "texture": "#0"},
				"up": {"uv": [8, 0, 10, 7.5], "texture": "#0"},
				"down": {"uv": [8, 0, 10, 7.5], "texture": "#0"}
			}
		},
		{
			"from": [7.375, 22.75, 7],
			"to": [7.625, 23, 8.5],
			"faces": {
				"north": {"uv": [8, 0, 10, 7.5], "texture": "#0"},
				"east": {"uv": [8, 0, 10, 7.5], "texture": "#0"},
				"south": {"uv": [8, 0, 10, 7.5], "texture": "#0"},
				"west": {"uv": [8, 0, 10, 7.5], "texture": "#0"},
				"up": {"uv": [8, 0, 10, 7.5], "texture": "#0"},
				"down": {"uv": [8, 0, 10, 7.5], "texture": "#0"}
			}
		},
		{
			"from": [7.375, 23, 7.5],
			"to": [7.625, 23.25, 8.5],
			"faces": {
				"north": {"uv": [8, 0, 10, 7.5], "texture": "#0"},
				"east": {"uv": [8, 0, 10, 7.5], "texture": "#0"},
				"south": {"uv": [8, 0, 10, 7.5], "texture": "#0"},
				"west": {"uv": [8, 0, 10, 7.5], "texture": "#0"},
				"up": {"uv": [8, 0, 10, 7.5], "texture": "#0"},
				"down": {"uv": [8, 0, 10, 7.5], "texture": "#0"}
			}
		},
		{
			"from": [7.4375, 23.25, 7.75],
			"to": [7.5625, 23.5, 8.5],
			"faces": {
				"north": {"uv": [8, 0, 10, 7.5], "texture": "#0"},
				"east": {"uv": [8, 0, 10, 7.5], "texture": "#0"},
				"south": {"uv": [8, 0, 10, 7.5], "texture": "#0"},
				"west": {"uv": [8, 0, 10, 7.5], "texture": "#0"},
				"up": {"uv": [8, 0, 10, 7.5], "texture": "#0"},
				"down": {"uv": [8, 0, 10, 7.5], "texture": "#0"}
			}
		},
		{
			"from": [7.25, 10.875, 5.6875],
			"to": [7.75, 11.75, 6.1875],
			"faces": {
				"north": {"uv": [8, 0, 10, 7.5], "texture": "#0"},
				"east": {"uv": [8, 0, 10, 7.5], "texture": "#0"},
				"south": {"uv": [8, 0, 10, 7.5], "texture": "#0"},
				"west": {"uv": [8, 0, 10, 7.5], "texture": "#0"},
				"up": {"uv": [8, 0, 10, 7.5], "texture": "#0"},
				"down": {"uv": [8, 0, 10, 7.5], "texture": "#0"}
			}
		},
		{
			"from": [7.375, 11.25, 5.1875],
			"to": [7.625, 11.75, 5.6875],
			"faces": {
				"north": {"uv": [8, 0, 10, 7.5], "texture": "#0"},
				"east": {"uv": [8, 0, 10, 7.5], "texture": "#0"},
				"south": {"uv": [8, 0, 10, 7.5], "texture": "#0"},
				"west": {"uv": [8, 0, 10, 7.5], "texture": "#0"},
				"up": {"uv": [8, 0, 10, 7.5], "texture": "#0"},
				"down": {"uv": [8, 0, 10, 7.5], "texture": "#0"}
			}
		},
		{
			"from": [7.375, 10.875, 5.375],
			"to": [7.625, 11.25, 5.6875],
			"faces": {
				"north": {"uv": [8, 0, 10, 7.5], "texture": "#0"},
				"east": {"uv": [8, 0, 10, 7.5], "texture": "#0"},
				"south": {"uv": [8, 0, 10, 7.5], "texture": "#0"},
				"west": {"uv": [8, 0, 10, 7.5], "texture": "#0"},
				"up": {"uv": [8, 0, 10, 7.5], "texture": "#0"},
				"down": {"uv": [8, 0, 10, 7.5], "texture": "#0"}
			}
		}
	],
	"display": {
		"thirdperson_righthand": {
			"translation": [0.75, 5.5, 2],
			"scale": [1.5, 1.8, 1.5]
		},
		"thirdperson_lefthand": {
			"translation": [0.75, 5.5, 2],
			"scale": [-1.5, 1.8, 1.5]
		},
		"firstperson_righthand": {
			"rotation": [0, 0, 7],
			"translation": [4.5, -1.75, 0],
			"scale": [1.25, 1.5, 1.25]
		},
		"firstperson_lefthand": {
			"rotation": [0, 0, 7],
			"translation": [4.5, -1.75, 0],
			"scale": [-1.25, 1.5, 1.25]
		},
		"ground": {
			"rotation": [0, 0, -90],
			"translation": [-3, -2, 0]
		},
		"gui": {
			"rotation": [0, 90, 0],
			"translation": [0, -2.5, 0],
			"scale": [0.5, 0.65, 0.5]
		},
		"fixed": {
			"rotation": [0, -90, 0],
			"translation": [0, -3, 0],
			"scale": [0.6, 0.8, 0.6]
		}
	},
	"groups": [
		{
			"name": "emblem",
			"origin": [8, 8, 8],
			"children": [0, 1, 2, 3, 4, 5, 6, 7, 8]
		},
		{
			"name": "hilt",
			"origin": [8, 8, 8],
			"children": [9, 10, 11, 12, 13, 14, 15]
		},
		{
			"name": "coreHolder",
			"origin": [8, 8, 8],
			"children": [16, 17, 18, 19, 20, 21, 22, 23, 24, 25, 26, 27]
		},
		{
			"name": "bladeCore",
			"origin": [8, 8, 8],
			"children": [28, 29, 30, 31, 32, 33, 34, 35, 36, 37, 38, 39, 40, 41, 42, 43]
		},
		{
			"name": "blade",
			"origin": [8, 8, 8],
			"children": [44, 45, 46, 47, 48, 49, 50, 51, 52, 53, 54, 55, 56, 57, 58, 59, 60, 61, 62, 63, 64]
		}
	]
}