{
	"credit": "Made with Blockbench",
	"textures": {
		"1": "northernbase:block/peter_wrb"
	},
	"elements": [
		{
			"from": [6, 0, 5],
			"to": [10, 0.5, 10],
			"faces": {
				"north": {"uv": [0, 0, 16, 2], "texture": "#1"},
				"east": {"uv": [0, 0, 16, 2], "texture": "#1"},
				"south": {"uv": [0, 0, 16, 2], "texture": "#1"},
				"west": {"uv": [0, 0, 16, 2], "texture": "#1"},
				"up": {"uv": [0, 0, 16, 2], "texture": "#1"},
				"down": {"uv": [0, 0, 16, 2], "texture": "#1"}
			}
		},
		{
			"from": [9.5, 0.5, 5],
			"to": [10, 1.3125, 6],
			"faces": {
				"north": {"uv": [0, 0, 16, 2], "texture": "#1"},
				"east": {"uv": [0, 0, 16, 2], "texture": "#1"},
				"south": {"uv": [0, 0, 16, 2], "texture": "#1"},
				"west": {"uv": [0, 0, 16, 2], "texture": "#1"},
				"up": {"uv": [0, 0, 16, 2], "texture": "#1"},
				"down": {"uv": [0, 0, 16, 2], "texture": "#1"}
			}
		},
		{
			"from": [9.5, 0.5, 9],
			"to": [10, 1.3125, 10],
			"faces": {
				"north": {"uv": [0, 0, 16, 2], "texture": "#1"},
				"east": {"uv": [0, 0, 16, 2], "texture": "#1"},
				"south": {"uv": [0, 0, 16, 2], "texture": "#1"},
				"west": {"uv": [0, 0, 16, 2], "texture": "#1"},
				"up": {"uv": [0, 0, 16, 2], "texture": "#1"},
				"down": {"uv": [0, 0, 16, 2], "texture": "#1"}
			}
		},
		{
			"from": [9.5, 0.5, 7],
			"to": [10, 1.3125, 8],
			"faces": {
				"north": {"uv": [0, 0, 16, 2], "texture": "#1"},
				"east": {"uv": [0, 0, 16, 2], "texture": "#1"},
				"south": {"uv": [0, 0, 16, 2], "texture": "#1"},
				"west": {"uv": [0, 0, 16, 2], "texture": "#1"},
				"up": {"uv": [0, 0, 16, 2], "texture": "#1"},
				"down": {"uv": [0, 0, 16, 2], "texture": "#1"}
			}
		},
		{
			"from": [6, 0.5, 5],
			"to": [9.5, 0.75, 10],
			"faces": {
				"north": {"uv": [11, 7.5, 16, 8], "texture": "#1"},
				"east": {"uv": [11, 9.75, 16, 10.25], "texture": "#1"},
				"south": {"uv": [11, 8.25, 16, 8.75], "texture": "#1"},
				"west": {"uv": [11, 9, 16, 9.5], "texture": "#1"},
				"up": {"uv": [11, 2, 16, 7], "texture": "#1"},
				"down": {"uv": [11, 10.75, 16, 16], "texture": "#1"}
			}
		},
		{
			"from": [9.5, 0.5, 8],
			"to": [10, 0.75, 9],
			"faces": {
				"north": {"uv": [11, 7.5, 16, 8], "texture": "#1"},
				"east": {"uv": [11, 9.75, 16, 10.25], "texture": "#1"},
				"south": {"uv": [11, 8.25, 16, 8.75], "texture": "#1"},
				"west": {"uv": [11, 9, 16, 9.5], "texture": "#1"},
				"up": {"uv": [11, 2, 16, 7], "texture": "#1"},
				"down": {"uv": [11, 10.75, 16, 16], "texture": "#1"}
			}
		},
		{
			"from": [9.5, 0.5, 6],
			"to": [10, 0.75, 7],
			"faces": {
				"north": {"uv": [11, 7.5, 16, 8], "texture": "#1"},
				"east": {"uv": [11, 9.75, 16, 10.25], "texture": "#1"},
				"south": {"uv": [11, 8.25, 16, 8.75], "texture": "#1"},
				"west": {"uv": [11, 9, 16, 9.5], "texture": "#1"},
				"up": {"uv": [11, 2, 16, 7], "texture": "#1"},
				"down": {"uv": [11, 10.75, 16, 16], "texture": "#1"}
			}
		},
		{
			"from": [6, 0.75, 5],
			"to": [9.5, 1, 10],
			"faces": {
				"north": {"uv": [6, 7.5, 11, 8], "texture": "#1"},
				"east": {"uv": [6, 9.75, 11, 10.25], "texture": "#1"},
				"south": {"uv": [6, 8.25, 11, 8.75], "texture": "#1"},
				"west": {"uv": [6, 9, 11, 9.5], "texture": "#1"},
				"up": {"uv": [6, 2, 11, 7.25], "texture": "#1"},
				"down": {"uv": [6, 10.75, 11, 16], "texture": "#1"}
			}
		},
		{
			"from": [9.5, 0.75, 6],
			"to": [10, 1, 7],
			"faces": {
				"north": {"uv": [6, 7.5, 11, 8], "texture": "#1"},
				"east": {"uv": [6, 9.75, 11, 10.25], "texture": "#1"},
				"south": {"uv": [6, 8.25, 11, 8.75], "texture": "#1"},
				"west": {"uv": [6, 9, 11, 9.5], "texture": "#1"},
				"up": {"uv": [6, 2, 11, 7.25], "texture": "#1"},
				"down": {"uv": [6, 10.75, 11, 16], "texture": "#1"}
			}
		},
		{
			"from": [9.5, 0.75, 8],
			"to": [10, 1, 9],
			"faces": {
				"north": {"uv": [6, 7.5, 11, 8], "texture": "#1"},
				"east": {"uv": [6, 9.75, 11, 10.25], "texture": "#1"},
				"south": {"uv": [6, 8.25, 11, 8.75], "texture": "#1"},
				"west": {"uv": [6, 9, 11, 9.5], "texture": "#1"},
				"up": {"uv": [6, 2, 11, 7.25], "texture": "#1"},
				"down": {"uv": [6, 10.75, 11, 16], "texture": "#1"}
			}
		},
		{
			"from": [6, 7.5, 5],
			"to": [6.25, 11, 10],
			"rotation": {"angle": -45, "axis": "z", "origin": [0, 0, 0]},
			"faces": {
				"north": {"uv": [0, 7.5, 6, 8], "rotation": 270, "texture": "#1"},
				"east": {"uv": [0, 2, 6, 7.25], "rotation": 90, "texture": "#1"},
				"south": {"uv": [0, 8.25, 6, 8.75], "rotation": 90, "texture": "#1"},
				"west": {"uv": [0, 10.75, 6, 16], "rotation": 90, "texture": "#1"},
				"up": {"uv": [0, 9, 6, 9.5], "rotation": 90, "texture": "#1"},
				"down": {"uv": [0, 9.75, 6, 10.25], "rotation": 90, "texture": "#1"}
			}
		},
		{
			"from": [6, 7, 6],
			"to": [6.3125, 7.5, 7],
			"rotation": {"angle": -45, "axis": "z", "origin": [0, 0, 0]},
			"faces": {
				"north": {"uv": [0, 7.5, 6, 8], "rotation": 270, "texture": "#1"},
				"east": {"uv": [0, 7.5, 6, 8], "rotation": 90, "texture": "#1"},
				"south": {"uv": [0, 8.25, 6, 8.75], "rotation": 90, "texture": "#1"},
				"west": {"uv": [0, 10.75, 6, 16], "rotation": 90, "texture": "#1"},
				"up": {"uv": [0, 9, 6, 9.5], "rotation": 90, "texture": "#1"},
				"down": {"uv": [0, 9.75, 6, 10.25], "rotation": 90, "texture": "#1"}
			}
		},
		{
			"from": [6, 7, 8],
			"to": [6.3125, 7.5, 9],
			"rotation": {"angle": -45, "axis": "z", "origin": [0, 0, 0]},
			"faces": {
				"north": {"uv": [0, 7.5, 6, 8], "rotation": 270, "texture": "#1"},
				"east": {"uv": [0, 7.5, 6, 8], "rotation": 90, "texture": "#1"},
				"south": {"uv": [0, 8.25, 6, 8.75], "rotation": 90, "texture": "#1"},
				"west": {"uv": [0, 10.75, 6, 16], "rotation": 90, "texture": "#1"},
				"up": {"uv": [0, 9, 6, 9.5], "rotation": 90, "texture": "#1"},
				"down": {"uv": [0, 9.75, 6, 10.25], "rotation": 90, "texture": "#1"}
			}
		}
	],
	"display": {
		"thirdperson_righthand": {
			"rotation": [65, -180, 0],
			"translation": [0, 6, 6.5]
		},
		"thirdperson_lefthand": {
			"rotation": [65, -180, 0],
			"translation": [0, 6, 6.5]
		},
		"firstperson_righthand": {
			"rotation": [74, -180, -11],
			"translation": [-1, 7, 8.5]
		},
		"firstperson_lefthand": {
			"rotation": [74, -180, -11],
			"translation": [-2.75, 7, 8.5]
		},
		"ground": {
			"translation": [0, 4.25, 0]
		},
		"gui": {
			"rotation": [47, -180, -12],
			"translation": [-0.75, 10, 0],
			"scale": [2, 2, 2]
		},
		"fixed": {
			"rotation": [-90, 0, 0],
			"translation": [0, 0, -16],
			"scale": [2, 2, 2]
		}
	},
	"groups": [
		{
			"name": "casing",
			"origin": [8, 8, 8],
			"children": [0, 1, 2, 3]
		},
		{
			"name": "page2",
			"origin": [8, 8, 8],
			"children": [4, 5, 6]
		},
		{
			"name": "page1",
			"origin": [8, 8, 8],
			"children": [7, 8, 9]
		},
		{
			"name": "cover",
			"origin": [8, 8, 8],
			"children": [10, 11, 12]
		}
	]
}