{
	"credit": "Made with Blockbench",
	"textures": {
		"0": "northernbase:block/seiken_swordriver",
		"particle": "northernbase:block/seiken_swordriver"
	},
	"elements": [
		{
			"from": [1.25, 0, 6.75],
			"to": [13, 1, 11],
			"faces": {
				"north": {"uv": [0, 14.625, 16, 16], "texture": "#0"},
				"east": {"uv": [0.75, 14.625, 9.25, 16], "texture": "#0"},
				"south": {"uv": [12.25, 14.625, 16, 16], "texture": "#0"},
				"west": {"uv": [12.25, 14.625, 16, 16], "texture": "#0"},
				"up": {"uv": [12.375, 14.625, 16, 16], "texture": "#0"},
				"down": {"uv": [12.375, 14.625, 16, 16], "texture": "#0"}
			}
		},
		{
			"from": [0.75, 1, 6.5],
			"to": [13, 2, 11],
			"faces": {
				"north": {"uv": [0, 13.25, 16, 14.625], "texture": "#0"},
				"east": {"uv": [0, 13.25, 5.625, 14.625], "texture": "#0"},
				"south": {"uv": [15.125, 13.25, 16, 14.625], "texture": "#0"},
				"west": {"uv": [15.125, 13.25, 16, 14.625], "texture": "#0"},
				"up": {"uv": [15, 13.25, 16, 14.625], "texture": "#0"},
				"down": {"uv": [15.125, 13.25, 16, 14.625], "texture": "#0"}
			}
		},
		{
			"from": [0, 2, 6.25],
			"to": [13, 3, 11],
			"faces": {
				"north": {"uv": [0, 12, 16, 13.25], "texture": "#0"},
				"east": {"uv": [0, 12, 3, 13.25], "texture": "#0"},
				"south": {"uv": [13.5, 14.375, 16, 15.625], "texture": "#0"},
				"west": {"uv": [13.875, 14.25, 16, 15.5], "texture": "#0"},
				"up": {"uv": [0, 0, 8, 8], "texture": "#0"},
				"down": {"uv": [13.875, 14.5, 15.875, 15.75], "texture": "#0"}
			}
		},
		{
			"from": [0, 3, 10],
			"to": [13, 7, 11],
			"faces": {
				"north": {"uv": [0, 0, 8, 8], "texture": "#0"},
				"east": {"uv": [0, 0, 8, 8], "texture": "#0"},
				"south": {"uv": [0, 0, 8, 8], "texture": "#0"},
				"west": {"uv": [0, 0, 8, 8], "texture": "#0"},
				"up": {"uv": [0, 0, 8, 8], "texture": "#0"},
				"down": {"uv": [0, 0, 8, 8], "texture": "#0"}
			}
		},
		{
			"from": [4.5, 7, 10],
			"to": [13, 7.5, 11],
			"faces": {
				"north": {"uv": [0, 0, 8, 8], "texture": "#0"},
				"east": {"uv": [0, 0, 8, 8], "texture": "#0"},
				"south": {"uv": [0, 0, 8, 8], "texture": "#0"},
				"west": {"uv": [0, 0, 8, 8], "texture": "#0"},
				"up": {"uv": [0, 0, 8, 8], "texture": "#0"},
				"down": {"uv": [0, 0, 8, 8], "texture": "#0"}
			}
		},
		{
			"from": [11.75, 3, 7.5],
			"to": [13, 7, 10],
			"faces": {
				"north": {"uv": [0, 0, 8, 8], "texture": "#0"},
				"east": {"uv": [0, 0, 8, 8], "texture": "#0"},
				"south": {"uv": [0, 0, 8, 8], "texture": "#0"},
				"west": {"uv": [0, 0, 8, 8], "texture": "#0"},
				"up": {"uv": [0, 0, 8, 8], "texture": "#0"},
				"down": {"uv": [0, 0, 8, 8], "texture": "#0"}
			}
		},
		{
			"from": [0, 3, 7.5],
			"to": [1.25, 7, 10],
			"faces": {
				"north": {"uv": [0, 0, 8, 8], "texture": "#0"},
				"east": {"uv": [0, 0, 8, 8], "texture": "#0"},
				"south": {"uv": [0, 0, 8, 8], "texture": "#0"},
				"west": {"uv": [0, 0, 8, 8], "texture": "#0"},
				"up": {"uv": [0, 0, 8, 8], "texture": "#0"},
				"down": {"uv": [0, 0, 8, 8], "texture": "#0"}
			}
		},
		{
			"from": [8, 3, 7.5],
			"to": [9, 7, 10],
			"faces": {
				"north": {"uv": [0, 0, 8, 8], "texture": "#0"},
				"east": {"uv": [0, 0, 8, 8], "texture": "#0"},
				"south": {"uv": [0, 0, 8, 8], "texture": "#0"},
				"west": {"uv": [0, 0, 8, 8], "texture": "#0"},
				"up": {"uv": [0, 0, 8, 8], "texture": "#0"},
				"down": {"uv": [0, 0, 8, 8], "texture": "#0"}
			}
		},
		{
			"from": [4, 3, 7.5],
			"to": [5, 7, 10],
			"faces": {
				"north": {"uv": [0, 0, 8, 8], "texture": "#0"},
				"east": {"uv": [0, 0, 8, 8], "texture": "#0"},
				"south": {"uv": [0, 0, 8, 8], "texture": "#0"},
				"west": {"uv": [0, 0, 8, 8], "texture": "#0"},
				"up": {"uv": [0, 0, 8, 8], "texture": "#0"},
				"down": {"uv": [0, 0, 8, 8], "texture": "#0"}
			}
		},
		{
			"from": [13, 1.5, 10],
			"to": [14, 6.75, 11],
			"faces": {
				"north": {"uv": [0, 0, 8, 8], "texture": "#0"},
				"east": {"uv": [0, 0, 8, 8], "texture": "#0"},
				"south": {"uv": [0, 0, 8, 8], "texture": "#0"},
				"west": {"uv": [0, 0, 8, 8], "texture": "#0"},
				"up": {"uv": [0, 0, 8, 8], "texture": "#0"},
				"down": {"uv": [0, 0, 8, 8], "texture": "#0"}
			}
		},
		{
			"from": [14, 2, 10],
			"to": [15, 6, 11.25],
			"faces": {
				"north": {"uv": [0, 0, 8, 8], "texture": "#0"},
				"east": {"uv": [0, 0, 8, 8], "texture": "#0"},
				"south": {"uv": [0, 0, 8, 8], "texture": "#0"},
				"west": {"uv": [0, 0, 8, 8], "texture": "#0"},
				"up": {"uv": [0, 0, 8, 8], "texture": "#0"},
				"down": {"uv": [0, 0, 8, 8], "texture": "#0"}
			}
		},
		{
			"from": [15, 2.75, 10],
			"to": [16, 5.25, 11.125],
			"faces": {
				"north": {"uv": [0, 0, 8, 8], "texture": "#0"},
				"east": {"uv": [0, 0, 8, 8], "texture": "#0"},
				"south": {"uv": [0, 0, 8, 8], "texture": "#0"},
				"west": {"uv": [0, 0, 8, 8], "texture": "#0"},
				"up": {"uv": [0, 0, 8, 8], "texture": "#0"},
				"down": {"uv": [0, 0, 8, 8], "texture": "#0"}
			}
		},
		{
			"from": [0.75, 2.25, 11],
			"to": [13.75, 6.25, 11.5],
			"faces": {
				"north": {"uv": [0, 0, 8, 8], "texture": "#0"},
				"east": {"uv": [0, 0, 8, 8], "texture": "#0"},
				"south": {"uv": [0, 0, 8, 8], "texture": "#0"},
				"west": {"uv": [0, 0, 8, 8], "texture": "#0"},
				"up": {"uv": [0, 0, 8, 8], "texture": "#0"},
				"down": {"uv": [0, 0, 8, 8], "texture": "#0"}
			}
		}
	],
	"display": {
		"thirdperson_righthand": {
			"rotation": [-90, 90, 0],
			"translation": [0, -0.5, -2.75],
			"scale": [0.5, 0.5, 0.5]
		},
		"thirdperson_lefthand": {
			"rotation": [-90, 90, 0],
			"translation": [0, -0.5, -2.75],
			"scale": [0.5, 0.5, 0.5]
		},
		"firstperson_righthand": {
			"rotation": [0, 100, 71],
			"translation": [0, 6.75, 4.25],
			"scale": [0.5, 0.5, 0.5]
		},
		"firstperson_lefthand": {
			"rotation": [0, 100, 71],
			"translation": [0, 6.75, 4.25],
			"scale": [0.5, 0.5, 0.5]
		},
		"ground": {
			"rotation": [90, 0, 0],
			"translation": [0, 0.75, 3.75]
		},
		"gui": {
			"rotation": [-10, -180, 12],
			"translation": [0.75, 3.25, 0],
			"scale": [0.9, 0.9, 0.9]
		},
		"fixed": {
			"translation": [0, 3.5, -3.5]
		}
	},
	"groups": [
		{
			"name": "base",
			"origin": [8, 8, 8],
			"children": [0, 1, 2, 3, 4, 5, 6, 7, 8]
		},
		{
			"name": "side",
			"origin": [0, 0, 0],
			"children": [9, 10, 11, 12]
		}
	]
}