{
    "type": "threecore:tool",
    "properties": {
		"max_stack_size": 1,
		"max_damage": 1900, 
		"rarity": "uncommon"
	},
    "tool_type": "sword",
    "attack_damage": 6,
    "attack_speed": -2.7,
    "item_tier": {
        "max_uses": 1900,
        "efficiency": 1,
        "attack_damage": 1,
        "harvest_level": 2,
        "enchantibility": 5,
        "repair_material": {
            "item": "threecore:silver_ingot"
        }
    },

    "abilities": {
        "switch_mode": {
            "ability": "threecore:command",
            "show_in_bar": true,
            "hidden": false,
            "title": {
                "translate": "ability.saber.switchmode"
            },
            "icon": {
                "item": "southernbase:kaiji_trident",
                "count": 1,
                "type": "threecore:item"
            },
            "bar_color": "white",
            "additional_data": {},
            "commands": [
                "/replaceitem entity @s weapon.mainhand southernbase:kaiji_blade",
                "/replaceitem entity @s weapon.offhand southernbase:kaiji_hilt_switch"
            ],
            "conditions": [
                {
                    "type": "threecore:equipment_slot",
                    "custom_title": {
                        "text": "empty"
                    },
                    "invert": false,
                    "enabling": true,
                    "needs_key": true,
                    "slot": "mainhand"
                },
                {
                    "type": "threecore:action",
                    "custom_title": {
                        "text": "empty"
                    },
                    "invert": false,
                    "enabling": true,
                    "needs_key": true
                }
            ]
        }
    }
}
