{
	"type": "threecore:default",
	
	"properties": {
		"max_stack_size": 1,
		"group": "wrb_tab",
		"rarity": "rare"
	},

	"abilities": {
		"name": {
    	"ability": "threecore:command",
    	"show_in_bar": true,
    	"hidden": false,
    	"title": {
      		"translate": "ability.saber.name"
    	},
    	"icon": {
      		"type": "threecore:item",
          "item": "southernbase:phoenix_wrb",
          "count": 1
    	},
    	"bar_color": "orange",
    	"additional_data": {},
    	"commands": "/playsound southernbase:phoenix.name master @a ~ ~ ~",
      "conditions": [
        {
          "type": "threecore:equipment_slot",
          "custom_title": {
            "text": "empty"
          },
          "invert": false,
          "enabling": true,
          "needs_key": true,
          "slot": "mainhand"
        },
        {
          "type": "threecore:action",
          "custom_title": {
            "text": "empty"
          },
          "invert": false,
          "enabling": true,
          "needs_key": true
        }
      ]
    }, 
    "description": {
    	"ability": "threecore:command",
    	"show_in_bar": true,
    	"hidden": false,
    	"title": {
      		"translate": "ability.saber.story"
    	},
    	"icon": {
      		"type": "threecore:item",
          "item": "southernbase:phoenix_wrb",
          "count": 1
    	},
    	"bar_color": "orange",
    	"additional_data": {},
    	"commands": "/playsound southernbase:phoenix.story master @a ~ ~ ~",
      "conditions": [
        {
          "type": "threecore:equipment_slot",
          "custom_title": {
            "text": "empty"
          },
          "invert": false,
          "enabling": true,
          "needs_key": true,
          "slot": "mainhand"
        },
        {
          "type": "threecore:action",
          "custom_title": {
            "text": "empty"
          },
          "invert": false,
          "enabling": true,
          "needs_key": true
        }
      ]
    }
  }
}
