{
    "type": "threecore:tool",
    "properties": {
		"max_stack_size": 1,
		"max_damage": 2000,
		"group": "seiken_tab",
		"rarity": "uncommon"
	},
    "tool_type": "sword",
    "attack_damage": 8,
    "attack_speed": -3.2,
    "item_tier": {
        "max_uses": 2000,
        "efficiency": 1,
        "attack_damage": 1,
        "harvest_level": 2,
        "enchantibility": 5,
        "repair_material": {
            "item": "threecore:silver_ingot"
        }
    },

    "abilities": {
        "henshin_start_genbu": {
            "ability": "threecore:command",
            "show_in_bar": true,
            "hidden": false,
            "title": {
                "translate": "ability.saber.insert"
            },
            "icon": {
                "type": "threecore:texture",
                "texture": "northernbase:textures/gui/book_insert.png",
                "u": 0,
                "v": 0,
                "width": 16,
                "height": 16,
                "texture_width": 256,
                "texture_height": 256
            },
            "bar_color": "light_gray",
            "additional_data": {},
            "commands": [
                "/replaceitem entity @s armor.chest northernbase:sol_buckle{HideFlags:5,Unbreakable:1b,Enchantments:[{id:'minecraft:binding_curse',lvl:1s},{id:'minecraft:vanishing_curse',lvl:1s}]}",
                "/clear @s northernbase:genbu_wrb",
                "/tag @s add genbu",
                "/scoreboard objectives add BusterStand dummy", 
                "/scoreboard players set @s BusterStand 0"
            ],
            "list_index": 0,
            "conditions": [
                {
                    "type": "threecore:action",
                    "enabling": true
                },
                {
                    "type": "threecore:wearing_item",
                    "custom_title": {
                        "text": "empty"
                    },
                    "invert": false,
                    "enabling": false,
                    "needs_key": false,
                    "mainhand": {
                        "item": "northernbase:dogouken_gekido"
                    },
                    "offhand": {
                        "item": "northernbase:genbu_wrb"
                    }   
                }
            ]
        },
        "henshin_start_jackun": {
            "ability": "threecore:command",
            "show_in_bar": true,
            "hidden": false,
            "title": {
                "translate": "ability.saber.insert"
            },
            "icon": {
                "type": "threecore:texture",
                "texture": "northernbase:textures/gui/book_insert.png",
                "u": 0,
                "v": 0,
                "width": 16,
                "height": 16,
                "texture_width": 256,
                "texture_height": 256
            },
            "bar_color": "green",
            "additional_data": {},
            "commands": [
                "/replaceitem entity @s armor.chest northernbase:sol_buckle{HideFlags:5,Unbreakable:1b,Enchantments:[{id:'minecraft:binding_curse',lvl:1s},{id:'minecraft:vanishing_curse',lvl:1s}]}",
                "/clear @s northernbase:jackun_wrb",
                "/tag @s add jackun",
                "/scoreboard objectives add BusterStand dummy", 
                "/scoreboard players set @s BusterStand 0"
            ],
            "list_index": 1,
            "conditions": [
                {
                    "type": "threecore:action",
                    "enabling": true
                },
                {
                    "type": "threecore:wearing_item",
                    "custom_title": {
                        "text": "empty"
                    },
                    "invert": false,
                    "enabling": false,
                    "needs_key": false,
                    "mainhand": {
                        "item": "northernbase:dogouken_gekido"
                    },
                    "offhand": {
                        "item": "northernbase:jackun_wrb"
                    }   
                }
            ]
        }
    }
}
