{
   "type": "threecore:armor",

   "slot": "chest",

   "properties": {  
      "rarity": "rare"
   },

   "armor_material": "saber_drivers",

   "layers": [
   		    {
   			    "type": "threecore:default",
   			    "model": "saber:saber_suits",
   			    "texture": "northernbase:textures/models/armor/espada/lampdoalangina.png"
   		    },
          {
            "type": "threecore:default",
            "model": "saber:saber_suits",
            "texture": {
            "base": "northernbase:textures/models/armor/espada/lampdocerberus.png",
            "transformers": [
                {
                  	"type": "threecore:alpha_mask",
                  	"mask": "northernbase:textures/models/alpha_masks/saikou/transformation_#TIMER.png"
                }
         	  ],
         	  "variables": {
               	"TIMER": {
                  "type": "threecore:integer_nbt",
                  "nbt_tag": "EspadaCerberus"
               	}
            },
         	  "output": "northernbase:textures/models/armor/espada/lampdocerberus_#TIMER"
         	}
      	},
      	{
         	"type": "threecore:default",
         	"glow": true,
         	"model": "saber:saber_suits",
         	"texture": "northernbase:textures/models/armor/espada/espadaglow.png",
         	"predicates": [
        		{
          			"type": "threecore:integer_nbt",
          			"nbt_tag": "EspadaCerberus",
          			"value": 29
        		}
      		]
      	}
    ],

    "abilities": {
      "espada_sound_standby": {
          "ability": "threecore:command",
          "show_in_bar": false,
          "hidden": true,
          "title": {
            "translate": "ability.threecore.command"
          },
          "icon": {
            "item": "minecraft:command_block",
            "count": 1,
            "type": "threecore:item"
          },
          "bar_color": "light_gray",
          "additional_data": {},
          "commands": [
            "/scoreboard players add @s EspadaStand 1",
            "/scoreboard players set @s[scores={EspadaStand=99}] EspadaStand 25",
            "/execute at @s[scores={EspadaStand=0..1}] run playsound saber:book.insert master @a ~ ~ ~",
            "/execute at @s[scores={EspadaStand=25}] run playsound northernbase:espada.standby master @a ~ ~ ~"
          ],
          "conditions": [ 
            {
              "type": "threecore:item_integer_nbt",
              "custom_title": {
                "text": "empty"
              },
              "invert": false,
              "enabling": false,
              "needs_key": false,
              "slot": "chest",
              "nbt_tag": "EspadaCerberus",
              "min": 0,
              "max": 1
            }
          ]
        },
        "cerberus_henshin": {
         	"ability": "threecore:opening_nbt_timer",
         	"max_timer": 29,
         	"icon": {
            	"type": "threecore:item",
            	"item": "northernbase:seiken_swordriver"
         	},
          "bar_color": "yellow",
          "nbt_tag": "EspadaCerberus",
         	"conditions": [
            	{
               	"type": "threecore:action",
               	"enabling": true
            	},
            	{
              	 "type": "threecore:equipment_slot",
               	 "slot": "chest"
            	},
              {
                "type": "threecore:item_integer_nbt",
                "custom_title": {
                  "text": "empty"
                },
                "invert": false,
                "enabling": false,
                "needs_key": false,
                "slot": "chest",
                "nbt_tag": "EspadaCerberus",
                "min": 0,
                "max": 1
              }
         	]
      	},
      	"cerberus_announcement": {
          "ability": "threecore:command",
          "show_in_bar": false,
          "hidden": true,
          "title": {
            "translate": "ability.threecore.command"
          },
          "icon": {
            "item": "minecraft:command_block",
            "count": 1,
            "type": "threecore:item"
          },
          "bar_color": "light_gray",
          "additional_data": {},
          "commands": [
            "/playsound northernbase:cerberus.henshin master @a ~ ~ ~",
            "/stopsound @a master northernbase:espada.standby", 
            "/give @s northernbase:raimeiken_ikazuchi"
          ],
          "conditions": [ 
            {
              "type": "threecore:ability_enabled",
              "custom_title": {
                "text": "empty"
              },
              "invert": false,
              "enabling": false,
              "needs_key": false,
              "ability_id": "cerberus_henshin"
            },
            {
              "type": "threecore:item_integer_nbt",
              "custom_title": {
                "text": "empty"
              },
              "invert": false,
              "enabling": false,
              "needs_key": false,
              "slot": "chest",
              "nbt_tag": "EspadaCerberus",
              "min": 0,
              "max": 1
            }
          ]
        },
        "espada_durability": {
          "ability": "threecore:attribute_modifier",
          "show_in_bar": false,
          "hidden": true,
          "title": {
            "translate": "ability.threecore.attribute_modifier"
          },
          "icon": {
            "item": "minecraft:barrier",
            "count": 1,
            "type": "threecore:item"
          },
          "bar_color": "light_gray",
          "additional_data": {},
          "attribute": "minecraft:generic.armor",
          "amount": 17,
          "operation": 0,
          "uuid": "498be4fb-af04-42f2-8948-e6ccdc0d99e1",
          "conditions": [
            {
              "type": "threecore:item_integer_nbt",
              "custom_title": {
                "text": "empty"
              },
              "invert": false,
              "enabling": false,
              "needs_key": false,
              "slot": "chest",
              "nbt_tag": "EspadaCerberus",
              "min": 25,
              "max": 29
            }
          ]
        },
        "espada_health": {
          "ability": "threecore:attribute_modifier",
          "show_in_bar": false,
          "hidden": true,
          "title": {
            "translate": "ability.threecore.attribute_modifier"
          },
          "icon": {
            "item": "minecraft:barrier",
            "count": 1,
            "type": "threecore:item"
          },
          "bar_color": "light_gray",
          "additional_data": {},
          "attribute": "minecraft:generic.max_health",
          "amount": 5,
          "operation": 0,
          "uuid": "498be4fb-af04-42f2-8948-e6ccdc0d99e1",
          "conditions": [
            {
              "type": "threecore:item_integer_nbt",
              "custom_title": {
                "text": "empty"
              },
              "invert": false,
              "enabling": false,
              "needs_key": false,
              "slot": "chest",
              "nbt_tag": "EspadaCerberus",
              "min": 25,
              "max": 29
            }
          ]
        },
        "espada_resistance": {
          "ability": "threecore:attribute_modifier",
          "show_in_bar": false,
          "hidden": true,
          "title": {
            "translate": "ability.threecore.attribute_modifier"
          },
          "icon": {
            "item": "minecraft:barrier",
            "count": 1,
            "type": "threecore:item"
          },
          "bar_color": "light_gray",
          "additional_data": {},
          "attribute": "minecraft:generic.armor_toughness",
          "amount": 5,
          "operation": 0,
          "uuid": "498be4fb-af04-42f2-8948-e6ccdc0d99e1",
          "conditions": [
            {
              "type": "threecore:item_integer_nbt",
              "custom_title": {
                "text": "empty"
              },
              "invert": false,
              "enabling": false,
              "needs_key": false,
              "slot": "chest",
              "nbt_tag": "EspadaCerberus",
              "min": 25,
              "max": 29
            }
          ]
        },
        "golden_alangina": {
          "ability": "threecore:command",
          "show_in_bar": true,
          "hidden": false,
          "title": {
            "translate": "ability.saber.henshin"
          },
          "icon": {
            "item": "northernbase:seiken_swordriver",
            "count": 1,
            "type": "threecore:item"
          },
          "bar_color": "yellow",
          "additional_data": {},
          "commands": [ 
            "/stopsound @a master northernbase:espada.standby",
            "/scoreboard players set @s EspadaStand 0",
            "/clear @s northernbase:hedgehog_wrb",
            "/clear @s northernbase:raimeiken_ikazuchi",
            "/replaceitem entity @s armor.chest northernbase:espada_goldenalangina"
          ],
          "conditions": [
              {
                "type": "threecore:action",
                "enabling": true
              },
              {
                 "type": "threecore:equipment_slot",
                 "slot": "chest"
              },
              {
                "type": "threecore:wearing_item",
                "custom_title": {
                  "text": "empty"
                },
                "invert": false,
                "enabling": false,
                "needs_key": false,
                "mainhand": {
                  "item": "northernbase:hedgehog_wrb"
                }
              }
          ]
        },
        "saber": {
          "ability": "threecore:command",
          "show_in_bar": true,
          "hidden": false,
          "title": {
            "translate": "ability.saber.revert"
          },
          "icon": {
            "item": "northernbase:seiken_swordriver",
            "count": 1,
            "type": "threecore:item"
          },
          "bar_color": "light_gray",
          "additional_data": {},
          "commands": [
            "/replaceitem entity @s armor.chest northernbase:seiken_swordriver",
            "/give @s northernbase:lamp_wrb",
            "/give @s northernbase:cerberus_wrb"
          ],
          "conditions": [ 
            {
              "type": "threecore:item_integer_nbt",
              "custom_title": {
                "text": "empty"
              },
              "invert": false,
              "enabling": false,
              "needs_key": false,
              "slot": "chest",
              "nbt_tag": "EspadaCerberus",
              "min": 28,
              "max": 29
            },
            {
              "type": "threecore:action",
              "enabling": true
            },
            {
              "type": "threecore:equipment_slot",
              "slot": "chest"
            }
          ]
        }
   	}
}
