{
	"type": "threecore:default",
	
	"properties": {
		"max_stack_size": 1, 
		"rarity": "rare"
	},

	"abilities": { 
    "description": {
    	"ability": "threecore:command",
    	"show_in_bar": true,
    	"hidden": false,
    	"title": {
      		"translate": "ability.saber.story"
    	},
    	"icon": {
      		"item": "northernbase:genbu_wrb_open",
      		"type": "threecore:item"
    	},
    	"bar_color": "light_gray",
    	"additional_data": {},
    	"commands": "/playsound northernbase:genbu.story master @a ~ ~ ~",
      "conditions": [
        {
          "type": "threecore:equipment_slot",
          "custom_title": {
            "text": "empty"
          },
          "invert": false,
          "enabling": true,
          "needs_key": true,
          "slot": "mainhand"
        },
        {
          "type": "threecore:action",
          "custom_title": {
            "text": "empty"
          },
          "invert": false,
          "enabling": true,
          "needs_key": true
        }
      ]
    },
    "close_book": {
        "ability": "threecore:command",
        "show_in_bar": true,
        "hidden": false,
        "title": {
            "translate": "ability.saber.name"
        },
        "icon": {
            "item": "northernbase:genbu_wrb",
            "type": "threecore:item"
        },
        "bar_color": "black",
        "additional_data": {},
        "commands": "/replaceitem entity @s weapon.mainhand northernbase:genbu_wrb",
        "conditions": [
          {
            "type": "threecore:equipment_slot",
            "custom_title": {
              "text": "empty"
            },
            "invert": false,
            "enabling": true,
            "needs_key": true,
            "slot": "mainhand"
          },
          {
            "type": "threecore:action",
            "custom_title": {
              "text": "empty"
            },
            "invert": false,
            "enabling": true,
            "needs_key": true
          }
        ]
      }
    }
}
