{
	"type": "threecore:default",
	
	"properties": {
		"max_stack_size": 1,
		"group": "wrb_tab",
		"rarity": "rare"
	},

	"abilities": {
		"name": {
    		"ability": "threecore:command",
    		"show_in_bar": true,
    		"hidden": false,
    		"title": {
      			"translate": "ability.saber.name"
    		},
    		"icon": {
      			"item": "northernbase:jaaku_wrb_open",
      			"type": "threecore:item"
    		},
    		"bar_color": "purple",
    		"additional_data": {},
    		"commands": [
          "/playsound northernbase:jaaku.name master @a ~ ~ ~",
          "/replaceitem entity @s weapon.mainhand northernbase:jaaku_wrb_open"
        ],
        "conditions": [
          {
            "type": "threecore:equipment_slot",
            "custom_title": {
              "text": "empty"
            },
            "invert": false,
            "enabling": true,
            "needs_key": true,
            "slot": "mainhand"
          },
          {
            "type": "threecore:action",
            "custom_title": {
              "text": "empty"
            },
            "invert": false,
            "enabling": true,
            "needs_key": true
          }
        ]
    	}
  	}
}
