{
    "type": "threecore:tool",
    "properties": {
		"max_stack_size": 1,
		"max_damage": 1700,
		"group": "seiken_tab",
		"rarity": "rare"
	},
    "tool_type": "sword",
    "attack_damage": 6,
    "attack_speed": -2.4,
    "item_tier": {
        "max_uses": 1700,
        "efficiency": 1,
        "attack_damage": 1,
        "harvest_level": 2,
        "enchantibility": 5,
        "repair_material": {
            "item": "threecore:silver_ingot"
        }
    },

    "abilities": {
        "change_mode": {
            "ability": "threecore:command",
            "show_in_bar": false,
            "hidden": false,
            "title": {
                "translate": "ability.saber.changemode"
            },
            "icon": {
                "type": "threecore:item",
                "item": "northernbase:onjuuken_suzune_gun",
                "count": 1
            },
            "bar_color": "pink",
            "additional_data": {},
            "commands": [
                "/replaceitem entity @s weapon.mainhand northernbase:onjuuken_suzune_gun",
                "/playsound northernbase:slash.gunchange master @a ~ ~ ~"
            ],
            "list_index": 2,
            "conditions": [
                {
                    "type": "threecore:equipment_slot",
                    "custom_title": {
                        "text": "empty"
                    },
                    "invert": false,
                    "enabling": false,
                    "needs_key": false,
                    "slot": "mainhand"
                },
                {
                    "type": "threecore:action",
                    "custom_title": {
                        "text": "empty"
                    },
                    "invert": false,
                    "enabling": true,
                    "needs_key": true
                }
            ]
        },
        "henshin_start_hansel": {
            "ability": "threecore:command",
            "show_in_bar": true,
            "hidden": false,
            "title": {
                "translate": "ability.saber.insert"
            },
            "icon": {
                "type": "threecore:texture",
                "texture": "northernbase:textures/gui/book_insert.png",
                "u": 0,
                "v": 0,
                "width": 16,
                "height": 16,
                "texture_width": 256,
                "texture_height": 256
            },
            "bar_color": "pink",
            "additional_data": {},
            "commands": [
                "/replaceitem entity @s armor.chest northernbase:sol_buckle{HideFlags:5,Unbreakable:1b,Enchantments:[{id:'minecraft:binding_curse',lvl:1s},{id:'minecraft:vanishing_curse',lvl:1s}]}",
                "/clear @s northernbase:hansel_wrb",
                "/tag @s add hansel",
                "/tag @s add sword",
                "/scoreboard objectives add SlashStand dummy", 
                "/scoreboard players set @s SlashStand 0"
            ],
            "list_index": 0,
            "conditions": [
                {
                    "type": "threecore:action",
                    "enabling": true
                },
                {
                    "type": "threecore:wearing_item",
                    "custom_title": {
                        "text": "empty"
                    },
                    "invert": false,
                    "enabling": false,
                    "needs_key": false,
                    "mainhand": {
                        "item": "northernbase:onjuuken_suzune_sword"
                    },
                    "offhand": {
                        "item": "northernbase:hansel_wrb"
                    }   
                }
            ]
        },
        "henshin_start_bremen": {
            "ability": "threecore:command",
            "show_in_bar": true,
            "hidden": false,
            "title": {
                "translate": "ability.saber.insert"
            },
            "icon": {
                "type": "threecore:texture",
                "texture": "northernbase:textures/gui/book_insert.png",
                "u": 0,
                "v": 0,
                "width": 16,
                "height": 16,
                "texture_width": 256,
                "texture_height": 256
            },
            "bar_color": "pink",
            "additional_data": {},
            "commands": [
                "/replaceitem entity @s armor.chest northernbase:sol_buckle{HideFlags:5,Unbreakable:1b,Enchantments:[{id:'minecraft:binding_curse',lvl:1s},{id:'minecraft:vanishing_curse',lvl:1s}]}",
                "/clear @s northernbase:bremen_wrb",
                "/tag @s add bremen",
                "/tag @s add sword",
                "/scoreboard objectives add SlashStand dummy", 
                "/scoreboard players set @s SlashStand 0"
            ],
            "list_index": 1,
            "conditions": [
                {
                    "type": "threecore:action",
                    "enabling": true
                },
                {
                    "type": "threecore:wearing_item",
                    "custom_title": {
                        "text": "empty"
                    },
                    "invert": false,
                    "enabling": false,
                    "needs_key": false,
                    "mainhand": {
                        "item": "northernbase:onjuuken_suzune_sword"
                    },
                    "offhand": {
                        "item": "northernbase:bremen_wrb"
                    }   
                }
            ]
        }
    }
}
