{
	"type": "threecore:default",
	
	"properties": {
		"max_stack_size": 1, 
		"rarity": "rare"
	},

	"abilities": {
      "primitive_sound_standby": {
          "ability": "threecore:command",
          "show_in_bar": false,
          "hidden": true,
          "title": {
            "translate": "ability.threecore.command"
          },
          "icon": {
            "item": "minecraft:command_block",
            "count": 1,
            "type": "threecore:item"
          },
          "bar_color": "light_gray",
          "additional_data": {},
          "commands": [
            "/scoreboard players add @s PrimitiveStand 1",
            "/scoreboard players set @s[scores={PrimitiveStand=35}] PrimitiveStand 0",
            "/execute as @s[scores={PrimitiveStand=1}] run playsound northernbase:primitive.book_standby master @a ~ ~ ~"
          ]
      },
      "accept_book": {
        "ability": "threecore:command",
        "show_in_bar": true,
        "hidden": false,
        "title": {
            "translate": "ability.saber.insert"
        },
        "icon": {
            "type": "threecore:item",
            "item": "northernbase:primitive_wrb_brave",
            "count": 1
        },
        "bar_color": "black",
        "additional_data": {},
        "commands": [ 
          "/playsound northernbase:primitive.get master @a ~ ~ ~",
          "/stopsound @a master northernbase:primitive.book_standby",
          "/clear @s northernbase:brave_wrb", 
          "/replaceitem entity @s weapon.mainhand northernbase:primitive_wrb_brave"
        ],
        "conditions": [
          {
            "type": "threecore:equipment_slot",
            "custom_title": {
              "text": "empty"
            },
            "invert": false,
            "enabling": true,
            "needs_key": true,
            "slot": "mainhand"
          },
          {
            "type": "threecore:action",
            "custom_title": {
              "text": "empty"
            },
            "invert": false,
            "enabling": true,
            "needs_key": true
          },
          {
            "type": "threecore:wearing_item",
            "custom_title": {
              "text": "empty"
            },
            "invert": false,
            "enabling": false,
            "needs_key": false,
            "mainhand": {
              "item": "northernbase:primitive_wrb_open"
            },
            "offhand": {
              "item": "northernbase:brave_wrb"
            }
          }
        ]
      }
  	}
}
