{
    "type": "threecore:tool",
    "properties": {
		"max_stack_size": 1,
		"max_damage": 2400,
		"group": "seiken_tab",
		"rarity": "uncommon"
	},
    "tool_type": "sword",
    "attack_damage": 7,
    "attack_speed": -2.3,
    "item_tier": {
        "max_uses": 2500,
        "efficiency": 1,
        "attack_damage": 1,
        "harvest_level": 2,
        "enchantibility": 5,
        "repair_material": {
            "item": "threecore:silver_ingot"
        }
    }
}
